{
    "normals": [0,-0.68569,-0.727866,0,0.68569,-0.727866,0.142003,0.68569,-0.713889,0.142003,-0.68569,-0.713889,0.278542,0.68569,-0.672475,0.278542,-0.68569,-0.672475,0.40437,0.68569,-0.605213,0.40437,-0.68569,-0.605213,0.514664,0.68569,-0.514664,0.514664,-0.68569,-0.514664,0.605213,0.68569,-0.40437,0.605213,-0.68569,-0.40437,0.672475,0.68569,-0.278542,0.672475,-0.68569,-0.278542,0.713889,0.68569,-0.142003,0.713889,-0.68569,-0.142003,0.727866,0.68569,0,0.727866,-0.68569,0,0.713889,0.68569,0.142003,0.713889,-0.68569,0.142003,0.672475,0.68569,0.278542,0.672475,-0.68569,0.278542,0.605213,0.68569,0.40437,0.605213,-0.68569,0.40437,0.514664,0.68569,0.514664,0.514664,-0.68569,0.514664,0.40437,0.68569,0.605213,0.40437,-0.68569,0.605213,0.278542,0.68569,0.672475,0.278542,-0.68569,0.672475,0.142003,0.68569,0.713889,0.142003,-0.68569,0.713889,0,0.68569,0.727866,0,-0.68569,0.727866,-0.142003,0.68569,0.713889,-0.142003,-0.68569,0.713889,-0.278542,0.68569,0.672475,-0.278542,-0.68569,0.672475,-0.40437,0.68569,0.605213,-0.40437,-0.68569,0.605213,-0.514664,0.68569,0.514664,-0.514664,-0.68569,0.514664,-0.605213,0.68569,0.40437,-0.605213,-0.68569,0.40437,-0.672475,0.68569,0.278542,-0.672475,-0.68569,0.278542,-0.713889,0.68569,0.142003,-0.713889,-0.68569,0.142003,-0.727866,0.68569,0,-0.727866,-0.68569,0,-0.713889,0.68569,-0.142003,-0.713889,-0.68569,-0.142003,-0.672475,0.68569,-0.278542,-0.672475,-0.68569,-0.278542,-0.605213,0.68569,-0.40437,-0.605213,-0.68569,-0.40437,-0.514664,0.68569,-0.514695,-0.514664,-0.68569,-0.514695,-0.40437,0.68569,-0.605213,-0.40437,-0.68569,-0.605213,-0.278542,0.68569,-0.672475,-0.278542,-0.68569,-0.672475,-0.142003,0.68569,-0.713889,-0.142003,-0.68569,-0.713889],
    "name": "CylinderGeometry",
    "uvs": [[0.34243,1,0.34243,0,0.366198,0,0.366198,1,0.387589,0,0.387589,1,0.40578,0,0.40578,1,0.20289,0,0.20289,1,0.184699,1,0.184699,0,0.163308,1,0.163308,0,0.13954,1,0.13954,0,0.114308,1,0.114308,0,0.088582,1,0.088582,0,0.06335,1,0.06335,0,0.039582,1,0.039582,0,0.018191,1,0.018191,0,0,1,0,0,0.405781,1,0.40578,0,0.427171,0,0.427171,1,0.450939,0,0.450939,1,0.476171,0,0.476171,1,0.501898,0,0.501898,1,0.52713,0,0.52713,1,0.550898,0,0.550898,1,0.572288,0,0.572288,1,0.738796,0,0.738796,1,0.717405,1,0.717405,0,0.693637,1,0.693637,0,0.668405,1,0.668405,0,0.642679,1,0.642679,0,0.617447,1,0.617447,0,0.593679,1,0.593679,0,0.572288,1,0.572288,0,0.20289,1,0.20289,0,0.221082,0,0.221082,1,0.242472,0,0.242472,1,0.26624,0,0.26624,1,0.291472,0,0.291472,1,0.856535,0.298555,0.831303,0.292819,0.807535,0.281566,0.786144,0.265229,0.767953,0.244437,0.75366,0.219987,0.743815,0.192821,0.738796,0.16398,0.738796,0.134575,0.743815,0.105735,0.75366,0.078568,0.767953,0.054119,0.786144,0.033326,0.807535,0.01699,0.831303,0.005737,0.856535,0,0.882261,0,0.907493,0.005737,0.931261,0.01699,0.952652,0.033326,0.970843,0.054119,0.985136,0.078568,0.994981,0.105735,1,0.134575,1,0.16398,0.994981,0.19282,0.985136,0.219987,0.970843,0.244437,0.952652,0.265229,0.931261,0.281566,0.907493,0.292819,0.882261,0.298555,0.317199,1,0.317199,0,0.831303,0.304292,0.856535,0.298555,0.882261,0.298555,0.907493,0.304292,0.931261,0.315545,0.952652,0.331881,0.970843,0.352674,0.985136,0.377124,0.994981,0.40429,1,0.43313,1,0.462536,0.994981,0.491376,0.985136,0.518543,0.970843,0.542992,0.952652,0.563785,0.931261,0.580121,0.907493,0.591374,0.882261,0.597111,0.856535,0.597111,0.831303,0.591374,0.807535,0.580121,0.786144,0.563785,0.767953,0.542992,0.75366,0.518543,0.743815,0.491376,0.738796,0.462536,0.738796,0.43313,0.743815,0.40429,0.75366,0.377124,0.767953,0.352674,0.786144,0.331881,0.807535,0.315545]],
    "vertices": [0,-3,-0.9,0,3,-0.9,0.175581,-3,-0.882707,0.175581,3,-0.882707,0.344415,-3,-0.831492,0.344415,3,-0.831492,0.500013,-3,-0.748323,0.500013,3,-0.748323,0.636396,-3,-0.636396,0.636396,3,-0.636396,0.748323,-3,-0.500013,0.748323,3,-0.500013,0.831492,-3,-0.344415,0.831492,3,-0.344415,0.882707,-3,-0.175581,0.882707,3,-0.175581,0.9,-3,0,0.9,3,-0,0.882707,-3,0.175581,0.882707,3,0.175581,0.831492,-3,0.344415,0.831492,3,0.344415,0.748323,-3,0.500013,0.748323,3,0.500013,0.636396,-3,0.636396,0.636396,3,0.636396,0.500013,-3,0.748323,0.500013,3,0.748323,0.344415,-3,0.831492,0.344415,3,0.831492,0.175581,-3,0.882707,0.175581,3,0.882707,-0,-3,0.9,-0,3,0.9,-0.175582,-3,0.882707,-0.175582,3,0.882707,-0.344416,-3,0.831492,-0.344416,3,0.831491,-0.500014,-3,0.748323,-0.500014,3,0.748322,-0.636397,-3,0.636396,-0.636397,3,0.636396,-0.748323,-3,0.500013,-0.748323,3,0.500013,-0.831492,-3,0.344415,-0.831492,3,0.344414,-0.882707,-3,0.175581,-0.882707,3,0.17558,-0.9,-3,-1e-06,-0.9,3,-1e-06,-0.882707,-3,-0.175582,-0.882707,3,-0.175582,-0.831491,-3,-0.344416,-0.831491,3,-0.344416,-0.748322,-3,-0.500014,-0.748322,3,-0.500014,-0.636395,-3,-0.636397,-0.636395,3,-0.636397,-0.500012,-3,-0.748323,-0.500012,3,-0.748324,-0.344414,-3,-0.831492,-0.344414,3,-0.831492,-0.17558,-3,-0.882707,-0.17558,3,-0.882707],
    "metadata": {
        "version": 3,
        "normals": 64,
        "generator": "io_three",
        "uvs": 1,
        "faces": 92,
        "type": "Geometry",
        "vertices": 64
    },
    "faces": [41,0,1,3,2,0,1,2,3,0,1,2,3,41,2,3,5,4,3,2,4,5,3,2,4,5,41,4,5,7,6,5,4,6,7,5,4,6,7,41,6,7,9,8,8,9,10,11,7,6,8,9,41,8,9,11,10,11,10,12,13,9,8,10,11,41,10,11,13,12,13,12,14,15,11,10,12,13,41,12,13,15,14,15,14,16,17,13,12,14,15,41,14,15,17,16,17,16,18,19,15,14,16,17,41,16,17,19,18,19,18,20,21,17,16,18,19,41,18,19,21,20,21,20,22,23,19,18,20,21,41,20,21,23,22,23,22,24,25,21,20,22,23,41,22,23,25,24,25,24,26,27,23,22,24,25,41,24,25,27,26,28,29,30,31,25,24,26,27,41,26,27,29,28,31,30,32,33,27,26,28,29,41,28,29,31,30,33,32,34,35,29,28,30,31,41,30,31,33,32,35,34,36,37,31,30,32,33,41,32,33,35,34,37,36,38,39,33,32,34,35,41,34,35,37,36,39,38,40,41,35,34,36,37,41,36,37,39,38,41,40,42,43,37,36,38,39,41,38,39,41,40,44,45,46,47,39,38,40,41,41,40,41,43,42,47,46,48,49,41,40,42,43,41,42,43,45,44,49,48,50,51,43,42,44,45,41,44,45,47,46,51,50,52,53,45,44,46,47,41,46,47,49,48,53,52,54,55,47,46,48,49,41,48,49,51,50,55,54,56,57,49,48,50,51,41,50,51,53,52,57,56,58,59,51,50,52,53,41,52,53,55,54,60,61,62,63,53,52,54,55,41,54,55,57,56,63,62,64,65,55,54,56,57,41,56,57,59,58,65,64,66,67,57,56,58,59,41,58,59,61,60,67,66,68,69,59,58,60,61,40,3,7,5,70,100,101,2,6,4,40,11,9,7,98,99,100,10,8,6,40,15,13,11,96,97,98,14,12,10,40,19,17,15,94,95,96,18,16,14,40,23,21,19,92,93,94,22,20,18,40,27,25,23,90,91,92,26,24,22,40,31,29,27,88,89,90,30,28,26,40,35,33,31,86,87,88,34,32,30,40,39,37,35,84,85,86,38,36,34,40,43,41,39,82,83,84,42,40,38,40,47,45,43,80,81,82,46,44,42,40,51,49,47,78,79,80,50,48,46,40,55,53,51,76,77,78,54,52,50,40,59,57,55,74,75,76,58,56,54,40,63,61,59,72,73,74,62,60,58,40,3,1,63,70,71,72,2,1,62,40,3,11,7,70,98,100,2,10,6,40,19,15,11,94,96,98,18,14,10,40,27,23,19,90,92,94,26,22,18,40,35,31,27,86,88,90,34,30,26,40,43,39,35,82,84,86,42,38,34,40,51,47,43,78,80,82,50,46,42,40,59,55,51,74,76,78,58,54,50,40,3,63,59,70,72,74,2,62,58,40,3,19,11,70,94,98,2,18,10,40,35,27,19,86,90,94,34,26,18,40,51,43,35,78,82,86,50,42,34,40,3,59,51,70,74,78,2,58,50,40,3,35,19,70,86,94,2,34,18,40,3,51,35,70,78,86,2,50,34,41,1,0,62,63,1,0,102,103,1,0,63,62,41,60,61,63,62,69,68,103,102,61,60,62,63,40,0,60,62,104,134,135,0,61,63,40,56,58,60,132,133,134,57,59,61,40,52,54,56,130,131,132,53,55,57,40,48,50,52,128,129,130,49,51,53,40,44,46,48,126,127,128,45,47,49,40,40,42,44,124,125,126,41,43,45,40,36,38,40,122,123,124,37,39,41,40,32,34,36,120,121,122,33,35,37,40,28,30,32,118,119,120,29,31,33,40,24,26,28,116,117,118,25,27,29,40,20,22,24,114,115,116,21,23,25,40,16,18,20,112,113,114,17,19,21,40,12,14,16,110,111,112,13,15,17,40,8,10,12,108,109,110,9,11,13,40,4,6,8,106,107,108,5,7,9,40,0,2,4,104,105,106,0,3,5,40,0,56,60,104,132,134,0,57,61,40,48,52,56,128,130,132,49,53,57,40,40,44,48,124,126,128,41,45,49,40,32,36,40,120,122,124,33,37,41,40,24,28,32,116,118,120,25,29,33,40,16,20,24,112,114,116,17,21,25,40,8,12,16,108,110,112,9,13,17,40,0,4,8,104,106,108,0,5,9,40,0,48,56,104,128,132,0,49,57,40,32,40,48,120,124,128,33,41,49,40,16,24,32,112,116,120,17,25,33,40,0,8,16,104,108,112,0,9,17,40,0,32,48,104,120,128,0,33,49,40,0,16,32,104,112,120,0,17,33]
}