{
    "uvs": [],
    "faces": [33,35,36,84,83,0,1,2,3,33,1,2,50,49,4,5,6,7,33,18,19,67,66,8,9,10,11,33,42,43,91,90,12,13,14,15,33,8,9,57,56,16,17,18,19,33,25,26,74,73,20,21,22,23,33,32,33,81,80,24,25,26,27,33,15,16,64,63,28,29,30,31,33,39,40,88,87,32,33,34,35,33,5,6,54,53,36,37,38,39,33,46,23,71,94,40,41,42,43,33,47,0,48,95,44,45,46,47,33,12,13,61,60,48,49,50,51,33,29,30,78,77,52,53,54,55,33,36,37,85,84,1,56,57,2,33,19,20,68,67,9,58,59,10,33,2,3,51,50,5,60,61,6,33,43,44,92,91,13,62,63,14,33,9,10,58,57,17,64,65,18,33,26,27,75,74,21,66,67,22,33,16,17,65,64,29,68,69,30,33,33,34,82,81,25,70,71,26,33,40,41,89,88,33,72,73,34,33,23,24,72,71,41,74,75,42,33,6,7,55,54,37,76,77,38,33,22,46,94,70,78,40,43,79,33,30,31,79,78,53,80,81,54,33,13,14,62,61,49,82,83,50,33,37,38,86,85,56,84,85,57,33,3,4,52,51,60,86,87,61,33,20,21,69,68,58,88,89,59,33,44,45,93,92,62,90,91,63,33,10,11,59,58,64,92,93,65,33,27,28,76,75,66,94,95,67,33,34,35,83,82,70,0,3,71,33,0,1,49,48,45,4,7,46,33,17,18,66,65,68,8,11,69,33,41,42,90,89,72,12,15,73,33,7,8,56,55,76,16,19,77,33,24,25,73,72,74,20,23,75,33,14,15,63,62,82,28,31,83,33,31,32,80,79,80,24,27,81,33,38,39,87,86,84,32,35,85,33,21,22,70,69,88,78,79,89,33,4,5,53,52,86,36,39,87,33,45,47,95,93,90,44,47,91,33,11,12,60,59,92,48,51,93,33,28,29,77,76,94,52,55,95,33,179,180,132,131,96,97,98,99,33,145,146,98,97,100,101,102,103,33,162,163,115,114,104,105,106,107,33,186,187,139,138,108,109,110,111,33,152,153,105,104,112,113,114,115,33,169,170,122,121,116,117,118,119,33,176,177,129,128,120,121,122,123,33,159,160,112,111,124,125,126,127,33,183,184,136,135,128,129,130,131,33,149,150,102,101,132,133,134,135,33,190,167,119,142,136,137,138,139,33,191,144,96,143,140,141,142,143,33,156,157,109,108,144,145,146,147,33,173,174,126,125,148,149,150,151,33,180,181,133,132,97,152,153,98,33,163,164,116,115,105,154,155,106,33,146,147,99,98,101,156,157,102,33,187,188,140,139,109,158,159,110,33,153,154,106,105,113,160,161,114,33,170,171,123,122,117,162,163,118,33,160,161,113,112,125,164,165,126,33,177,178,130,129,121,166,167,122,33,184,185,137,136,129,168,169,130,33,167,168,120,119,137,170,171,138,33,150,151,103,102,133,172,173,134,33,166,190,142,118,174,136,139,175,33,174,175,127,126,149,176,177,150,33,157,158,110,109,145,178,179,146,33,181,182,134,133,152,180,181,153,33,147,148,100,99,156,182,183,157,33,164,165,117,116,154,184,185,155,33,188,189,141,140,158,186,187,159,33,154,155,107,106,160,188,189,161,33,171,172,124,123,162,190,191,163,33,178,179,131,130,166,96,99,167,33,144,145,97,96,141,100,103,142,33,161,162,114,113,164,104,107,165,33,185,186,138,137,168,108,111,169,33,151,152,104,103,172,112,115,173,33,168,169,121,120,170,116,119,171,33,158,159,111,110,178,124,127,179,33,175,176,128,127,176,120,123,177,33,182,183,135,134,180,128,131,181,33,165,166,118,117,184,174,175,185,33,148,149,101,100,182,132,135,183,33,189,191,143,141,186,140,143,187,33,155,156,108,107,188,144,147,189,33,172,173,125,124,190,148,151,191,33,1,0,96,97,4,45,142,103,33,2,1,97,98,5,4,103,102,33,3,2,98,99,60,5,102,157,33,4,3,99,100,86,60,157,183,33,5,4,100,101,36,86,183,135,33,6,5,101,102,37,36,135,134,33,7,6,102,103,76,37,134,173,33,8,7,103,104,16,76,173,115,33,9,8,104,105,17,16,115,114,33,10,9,105,106,64,17,114,161,33,11,10,106,107,92,64,161,189,33,12,11,107,108,48,92,189,147,33,13,12,108,109,49,48,147,146,33,14,13,109,110,82,49,146,179,33,15,14,110,111,28,82,179,127,33,16,15,111,112,29,28,127,126,33,17,16,112,113,68,29,126,165,33,18,17,113,114,8,68,165,107,33,19,18,114,115,9,8,107,106,33,20,19,115,116,58,9,106,155,33,21,20,116,117,88,58,155,185,33,22,21,117,118,78,88,185,175,33,23,46,142,119,41,40,139,138,33,24,23,119,120,74,41,138,171,33,25,24,120,121,20,74,171,119,33,26,25,121,122,21,20,119,118,33,27,26,122,123,66,21,118,163,33,28,27,123,124,94,66,163,191,33,29,28,124,125,52,94,191,151,33,30,29,125,126,53,52,151,150,33,31,30,126,127,80,53,150,177,33,32,31,127,128,24,80,177,123,33,33,32,128,129,25,24,123,122,33,34,33,129,130,70,25,122,167,33,35,34,130,131,0,70,167,99,33,36,35,131,132,1,0,99,98,33,37,36,132,133,56,1,98,153,33,38,37,133,134,84,56,153,181,33,39,38,134,135,32,84,181,131,33,40,39,135,136,33,32,131,130,33,41,40,136,137,72,33,130,169,33,42,41,137,138,12,72,169,111,33,43,42,138,139,13,12,111,110,33,44,43,139,140,62,13,110,159,33,45,44,140,141,90,62,159,187,33,47,45,141,143,44,90,187,143,33,0,47,143,96,45,44,143,142,33,46,22,118,142,40,78,175,139,33,48,49,145,144,46,7,100,141,33,49,50,146,145,7,6,101,100,33,50,51,147,146,6,61,156,101,33,51,52,148,147,61,87,182,156,33,52,53,149,148,87,39,132,182,33,53,54,150,149,39,38,133,132,33,54,55,151,150,38,77,172,133,33,55,56,152,151,77,19,112,172,33,56,57,153,152,19,18,113,112,33,57,58,154,153,18,65,160,113,33,58,59,155,154,65,93,188,160,33,59,60,156,155,93,51,144,188,33,60,61,157,156,51,50,145,144,33,61,62,158,157,50,83,178,145,33,62,63,159,158,83,31,124,178,33,63,64,160,159,31,30,125,124,33,64,65,161,160,30,69,164,125,33,65,66,162,161,69,11,104,164,33,66,67,163,162,11,10,105,104,33,67,68,164,163,10,59,154,105,33,68,69,165,164,59,89,184,154,33,69,70,166,165,89,79,174,184,33,94,71,167,190,43,42,137,136,33,71,72,168,167,42,75,170,137,33,72,73,169,168,75,23,116,170,33,73,74,170,169,23,22,117,116,33,74,75,171,170,22,67,162,117,33,75,76,172,171,67,95,190,162,33,76,77,173,172,95,55,148,190,33,77,78,174,173,55,54,149,148,33,78,79,175,174,54,81,176,149,33,79,80,176,175,81,27,120,176,33,80,81,177,176,27,26,121,120,33,81,82,178,177,26,71,166,121,33,82,83,179,178,71,3,96,166,33,83,84,180,179,3,2,97,96,33,84,85,181,180,2,57,152,97,33,85,86,182,181,57,85,180,152,33,86,87,183,182,85,35,128,180,33,87,88,184,183,35,34,129,128,33,88,89,185,184,34,73,168,129,33,89,90,186,185,73,15,108,168,33,90,91,187,186,15,14,109,108,33,91,92,188,187,14,63,158,109,33,92,93,189,188,63,91,186,158,33,93,95,191,189,91,47,140,186,33,95,48,144,191,47,46,141,140,33,70,94,190,166,79,43,136,174,33,275,276,228,227,192,193,194,195,33,241,242,194,193,196,197,198,199,33,258,259,211,210,200,201,202,203,33,282,283,235,234,204,205,206,207,33,248,249,201,200,208,209,210,211,33,265,266,218,217,212,213,214,215,33,272,273,225,224,216,217,218,219,33,255,256,208,207,220,221,222,223,33,279,280,232,231,224,225,226,227,33,245,246,198,197,228,229,230,231,33,286,263,215,238,232,233,234,235,33,287,240,192,239,236,237,238,239,33,252,253,205,204,240,241,242,243,33,269,270,222,221,244,245,246,247,33,276,277,229,228,193,248,249,194,33,259,260,212,211,201,250,251,202,33,242,243,195,194,197,252,253,198,33,283,284,236,235,205,254,255,206,33,249,250,202,201,209,256,257,210,33,266,267,219,218,213,258,259,214,33,256,257,209,208,221,260,261,222,33,273,274,226,225,217,262,263,218,33,280,281,233,232,225,264,265,226,33,263,264,216,215,233,266,267,234,33,246,247,199,198,229,268,269,230,33,262,286,238,214,270,232,235,271,33,270,271,223,222,245,272,273,246,33,253,254,206,205,241,274,275,242,33,277,278,230,229,248,276,277,249,33,243,244,196,195,252,278,279,253,33,260,261,213,212,250,280,281,251,33,284,285,237,236,254,282,283,255,33,250,251,203,202,256,284,285,257,33,267,268,220,219,258,286,287,259,33,274,275,227,226,262,192,195,263,33,240,241,193,192,237,196,199,238,33,257,258,210,209,260,200,203,261,33,281,282,234,233,264,204,207,265,33,247,248,200,199,268,208,211,269,33,264,265,217,216,266,212,215,267,33,254,255,207,206,274,220,223,275,33,271,272,224,223,272,216,219,273,33,278,279,231,230,276,224,227,277,33,261,262,214,213,280,270,271,281,33,244,245,197,196,278,228,231,279,33,285,287,239,237,282,236,239,283,33,251,252,204,203,284,240,243,285,33,268,269,221,220,286,244,247,287,33,323,324,372,371,288,289,290,291,33,289,290,338,337,292,293,294,295,33,306,307,355,354,296,297,298,299,33,330,331,379,378,300,301,302,303,33,296,297,345,344,304,305,306,307,33,313,314,362,361,308,309,310,311,33,320,321,369,368,312,313,314,315,33,303,304,352,351,316,317,318,319,33,327,328,376,375,320,321,322,323,33,293,294,342,341,324,325,326,327,33,334,311,359,382,328,329,330,331,33,335,288,336,383,332,333,334,335,33,300,301,349,348,336,337,338,339,33,317,318,366,365,340,341,342,343,33,324,325,373,372,289,344,345,290,33,307,308,356,355,297,346,347,298,33,290,291,339,338,293,348,349,294,33,331,332,380,379,301,350,351,302,33,297,298,346,345,305,352,353,306,33,314,315,363,362,309,354,355,310,33,304,305,353,352,317,356,357,318,33,321,322,370,369,313,358,359,314,33,328,329,377,376,321,360,361,322,33,311,312,360,359,329,362,363,330,33,294,295,343,342,325,364,365,326,33,310,334,382,358,366,328,331,367,33,318,319,367,366,341,368,369,342,33,301,302,350,349,337,370,371,338,33,325,326,374,373,344,372,373,345,33,291,292,340,339,348,374,375,349,33,308,309,357,356,346,376,377,347,33,332,333,381,380,350,378,379,351,33,298,299,347,346,352,380,381,353,33,315,316,364,363,354,382,383,355,33,322,323,371,370,358,288,291,359,33,288,289,337,336,333,292,295,334,33,305,306,354,353,356,296,299,357,33,329,330,378,377,360,300,303,361,33,295,296,344,343,364,304,307,365,33,312,313,361,360,362,308,311,363,33,302,303,351,350,370,316,319,371,33,319,320,368,367,368,312,315,369,33,326,327,375,374,372,320,323,373,33,309,310,358,357,376,366,367,377,33,292,293,341,340,374,324,327,375,33,333,335,383,381,378,332,335,379,33,299,300,348,347,380,336,339,381,33,316,317,365,364,382,340,343,383,33,289,288,192,193,292,333,238,199,33,290,289,193,194,293,292,199,198,33,291,290,194,195,348,293,198,253,33,292,291,195,196,374,348,253,279,33,293,292,196,197,324,374,279,231,33,294,293,197,198,325,324,231,230,33,295,294,198,199,364,325,230,269,33,296,295,199,200,304,364,269,211,33,297,296,200,201,305,304,211,210,33,298,297,201,202,352,305,210,257,33,299,298,202,203,380,352,257,285,33,300,299,203,204,336,380,285,243,33,301,300,204,205,337,336,243,242,33,302,301,205,206,370,337,242,275,33,303,302,206,207,316,370,275,223,33,304,303,207,208,317,316,223,222,33,305,304,208,209,356,317,222,261,33,306,305,209,210,296,356,261,203,33,307,306,210,211,297,296,203,202,33,308,307,211,212,346,297,202,251,33,309,308,212,213,376,346,251,281,33,310,309,213,214,366,376,281,271,33,311,334,238,215,329,328,235,234,33,312,311,215,216,362,329,234,267,33,313,312,216,217,308,362,267,215,33,314,313,217,218,309,308,215,214,33,315,314,218,219,354,309,214,259,33,316,315,219,220,382,354,259,287,33,317,316,220,221,340,382,287,247,33,318,317,221,222,341,340,247,246,33,319,318,222,223,368,341,246,273,33,320,319,223,224,312,368,273,219,33,321,320,224,225,313,312,219,218,33,322,321,225,226,358,313,218,263,33,323,322,226,227,288,358,263,195,33,324,323,227,228,289,288,195,194,33,325,324,228,229,344,289,194,249,33,326,325,229,230,372,344,249,277,33,327,326,230,231,320,372,277,227,33,328,327,231,232,321,320,227,226,33,329,328,232,233,360,321,226,265,33,330,329,233,234,300,360,265,207,33,331,330,234,235,301,300,207,206,33,332,331,235,236,350,301,206,255,33,333,332,236,237,378,350,255,283,33,335,333,237,239,332,378,283,239,33,288,335,239,192,333,332,239,238,33,334,310,214,238,328,366,271,235,33,336,337,241,240,334,295,196,237,33,337,338,242,241,295,294,197,196,33,338,339,243,242,294,349,252,197,33,339,340,244,243,349,375,278,252,33,340,341,245,244,375,327,228,278,33,341,342,246,245,327,326,229,228,33,342,343,247,246,326,365,268,229,33,343,344,248,247,365,307,208,268,33,344,345,249,248,307,306,209,208,33,345,346,250,249,306,353,256,209,33,346,347,251,250,353,381,284,256,33,347,348,252,251,381,339,240,284,33,348,349,253,252,339,338,241,240,33,349,350,254,253,338,371,274,241,33,350,351,255,254,371,319,220,274,33,351,352,256,255,319,318,221,220,33,352,353,257,256,318,357,260,221,33,353,354,258,257,357,299,200,260,33,354,355,259,258,299,298,201,200,33,355,356,260,259,298,347,250,201,33,356,357,261,260,347,377,280,250,33,357,358,262,261,377,367,270,280,33,382,359,263,286,331,330,233,232,33,359,360,264,263,330,363,266,233,33,360,361,265,264,363,311,212,266,33,361,362,266,265,311,310,213,212,33,362,363,267,266,310,355,258,213,33,363,364,268,267,355,383,286,258,33,364,365,269,268,383,343,244,286,33,365,366,270,269,343,342,245,244,33,366,367,271,270,342,369,272,245,33,367,368,272,271,369,315,216,272,33,368,369,273,272,315,314,217,216,33,369,370,274,273,314,359,262,217,33,370,371,275,274,359,291,192,262,33,371,372,276,275,291,290,193,192,33,372,373,277,276,290,345,248,193,33,373,374,278,277,345,373,276,248,33,374,375,279,278,373,323,224,276,33,375,376,280,279,323,322,225,224,33,376,377,281,280,322,361,264,225,33,377,378,282,281,361,303,204,264,33,378,379,283,282,303,302,205,204,33,379,380,284,283,302,351,254,205,33,380,381,285,284,351,379,282,254,33,381,383,287,285,379,335,236,282,33,383,336,240,287,335,334,237,236,33,358,382,286,262,367,331,232,270],
    "vertices": [5.14328,-0,-1.06506,5.28072,-0,-1.03646,5.41105,-0,-0.99038,5.53301,-0,-0.928083,5.64534,-0,-0.850857,5.74678,-0,-0.759985,5.83607,-0,-0.65675,5.91196,-0,-0.542433,5.97317,-0,-0.418317,6.01846,-0,-0.285684,6.04655,-0,-0.145818,6.05619,0,0,6.04655,0,0.145818,6.01846,0,0.285684,5.97317,0,0.418317,5.91196,0,0.542433,5.83607,0,0.65675,5.74678,0,0.759986,5.64534,0,0.850857,5.53301,0,0.928083,5.41105,0,0.99038,5.28072,0,1.03646,5.14328,0,1.06506,-0.125022,0,0.710038,-0.216646,0,0.690977,-0.303532,0,0.660253,-0.384838,0,0.618722,-0.459725,0,0.567238,-0.527353,0,0.506657,-0.586881,0,0.437833,-0.63747,0,0.361622,-0.67828,0,0.278878,-0.70847,0,0.190456,-0.7272,0,0.097212,-0.73363,-0,-0,-0.7272,-0,-0.097212,-0.70847,-0,-0.190456,-0.67828,-0,-0.278878,-0.63747,-0,-0.361622,-0.586881,-0,-0.437834,-0.527353,-0,-0.506657,-0.459725,-0,-0.567239,-0.384838,-0,-0.618722,-0.303532,-0,-0.660254,-0.216646,-0,-0.690977,-0.125022,-0,-0.710038,2.48309,0,0.895433,2.48476,-0,-0.8954,5.14328,0.3,-1.06506,5.28072,0.3,-1.03646,5.41105,0.3,-0.99038,5.53301,0.3,-0.928083,5.64534,0.3,-0.850857,5.74678,0.3,-0.759985,5.83607,0.3,-0.65675,5.91196,0.3,-0.542433,5.97317,0.3,-0.418317,6.01846,0.3,-0.285684,6.04655,0.3,-0.145818,6.05619,0.3,0,6.04655,0.3,0.145818,6.01846,0.3,0.285684,5.97317,0.3,0.418317,5.91196,0.3,0.542433,5.83607,0.3,0.65675,5.74678,0.3,0.759986,5.64534,0.3,0.850857,5.53301,0.3,0.928083,5.41105,0.3,0.99038,5.28072,0.3,1.03646,5.14328,0.3,1.06506,-0.125022,0.3,0.710038,-0.216646,0.3,0.690977,-0.303532,0.3,0.660253,-0.384838,0.3,0.618722,-0.459725,0.3,0.567238,-0.527353,0.3,0.506657,-0.586881,0.3,0.437833,-0.63747,0.3,0.361622,-0.67828,0.3,0.278878,-0.70847,0.3,0.190456,-0.7272,0.3,0.097212,-0.73363,0.3,-0,-0.7272,0.3,-0.097212,-0.70847,0.3,-0.190456,-0.67828,0.3,-0.278878,-0.63747,0.3,-0.361622,-0.586881,0.3,-0.437834,-0.527353,0.3,-0.506657,-0.459725,0.3,-0.567239,-0.384838,0.3,-0.618722,-0.303532,0.3,-0.660254,-0.216646,0.3,-0.690977,-0.125022,0.3,-0.710038,2.48309,0.3,0.895433,2.48476,0.3,-0.8954,5.14433,-0,-1.08038,5.28472,-0,-1.05127,5.41692,-0,-1.00452,5.54063,-0,-0.941334,5.65456,-0,-0.863007,5.75745,-0,-0.770843,5.84801,-0,-0.666139,5.92498,-0,-0.55019,5.98707,-0,-0.424293,6.03301,-0,-0.28975,6.0615,-0,-0.147876,6.07128,0,0,6.0615,0,0.147876,6.03301,0,0.28975,5.98707,0,0.424293,5.92498,0,0.55019,5.84801,0,0.666139,5.75745,0,0.770843,5.65456,0,0.863007,5.54063,0,0.941334,5.41692,0,1.00452,5.28472,0,1.05127,5.14433,0,1.08038,-0.127063,0,0.725252,-0.220642,0,0.705784,-0.309404,0,0.674397,-0.39246,0,0.631973,-0.468951,0,0.579388,-0.538022,0,0.517514,-0.59882,0,0.447222,-0.650491,0,0.36938,-0.692178,0,0.284855,-0.72302,0,0.194522,-0.742152,0,0.09927,-0.748718,-0,-0,-0.742152,-0,-0.09927,-0.72302,-0,-0.194523,-0.692178,-0,-0.284855,-0.650491,-0,-0.36938,-0.59882,-0,-0.447223,-0.538022,-0,-0.517515,-0.468951,-0,-0.579388,-0.39246,-0,-0.631974,-0.309404,-0,-0.674398,-0.220642,-0,-0.705784,-0.127063,-0,-0.725252,2.48209,0,0.910755,2.48377,-0,-0.910722,5.14433,0.3,-1.08038,5.28472,0.3,-1.05127,5.41692,0.3,-1.00452,5.54063,0.3,-0.941334,5.65456,0.3,-0.863007,5.75745,0.3,-0.770843,5.84801,0.3,-0.666139,5.92498,0.3,-0.55019,5.98707,0.3,-0.424293,6.03301,0.3,-0.28975,6.0615,0.3,-0.147876,6.07128,0.3,0,6.0615,0.3,0.147876,6.03301,0.3,0.28975,5.98707,0.3,0.424293,5.92498,0.3,0.55019,5.84801,0.3,0.666139,5.75745,0.3,0.770843,5.65456,0.3,0.863007,5.54063,0.3,0.941334,5.41692,0.3,1.00452,5.28472,0.3,1.05127,5.14433,0.3,1.08038,-0.127063,0.3,0.725252,-0.220642,0.3,0.705784,-0.309404,0.3,0.674397,-0.39246,0.3,0.631973,-0.468951,0.3,0.579388,-0.538022,0.3,0.517514,-0.59882,0.3,0.447222,-0.650491,0.3,0.36938,-0.692178,0.3,0.284855,-0.72302,0.3,0.194522,-0.742152,0.3,0.09927,-0.748718,0.3,-0,-0.742152,0.3,-0.09927,-0.72302,0.3,-0.194523,-0.692178,0.3,-0.284855,-0.650491,0.3,-0.36938,-0.59882,0.3,-0.447223,-0.538022,0.3,-0.517515,-0.468951,0.3,-0.579388,-0.39246,0.3,-0.631974,-0.309404,0.3,-0.674398,-0.220642,0.3,-0.705784,-0.127063,0.3,-0.725252,2.48209,0.3,0.910755,2.48377,0.3,-0.910722,5.14375,0.00738,-1.07195,5.28256,0.007223,-1.04329,5.41376,0.007221,-0.996903,5.53652,0.007219,-0.934196,5.64959,0.007217,-0.856464,5.7517,0.007217,-0.764996,5.84158,0.007217,-0.661082,5.91796,0.007219,-0.546012,5.97958,0.007221,-0.421073,6.02516,0.007223,-0.287559,6.05344,0.007225,-0.146766,6.06315,0.007225,0,6.05344,0.007225,0.146766,6.02516,0.007223,0.287559,5.97958,0.007221,0.421073,5.91796,0.007219,0.546012,5.84158,0.007217,0.661082,5.7517,0.007217,0.764996,5.64959,0.007217,0.856464,5.53652,0.007219,0.934196,5.41376,0.007221,0.996903,5.28256,0.007223,1.04329,5.14375,0.00738,1.07195,-0.125964,0.007222,0.717053,-0.218488,0.007223,0.697803,-0.30624,0.007221,0.666776,-0.388354,0.007219,0.624835,-0.463982,0.007217,0.572845,-0.532276,0.007217,0.511667,-0.59239,0.007217,0.442166,-0.643477,0.007219,0.365201,-0.68469,0.007221,0.281634,-0.715177,0.007223,0.192331,-0.734091,0.007225,0.09816,-0.740584,0.007225,-0,-0.734091,0.007225,-0.098161,-0.715177,0.007223,-0.192331,-0.68469,0.007221,-0.281634,-0.643477,0.007219,-0.365201,-0.59239,0.007217,-0.442166,-0.532276,0.007217,-0.511668,-0.463982,0.007217,-0.572845,-0.388354,0.007219,-0.624835,-0.30624,0.007221,-0.666777,-0.218488,0.007223,-0.697803,-0.125964,0.007222,-0.717053,2.48262,0.007079,0.902647,2.48429,0.007079,-0.902615,5.14375,0.29262,-1.07195,5.28256,0.292777,-1.04329,5.41376,0.292779,-0.996903,5.53652,0.292781,-0.934196,5.64959,0.292783,-0.856464,5.7517,0.292783,-0.764996,5.84158,0.292783,-0.661082,5.91796,0.292781,-0.546012,5.97958,0.292779,-0.421073,6.02516,0.292777,-0.287559,6.05344,0.292775,-0.146766,6.06315,0.292775,0,6.05344,0.292775,0.146766,6.02516,0.292777,0.287559,5.97958,0.292779,0.421073,5.91796,0.292781,0.546012,5.84158,0.292783,0.661082,5.7517,0.292783,0.764996,5.64959,0.292783,0.856464,5.53652,0.292781,0.934196,5.41376,0.292779,0.996903,5.28256,0.292777,1.04329,5.14375,0.29262,1.07195,-0.125964,0.292778,0.717053,-0.218488,0.292777,0.697803,-0.30624,0.292779,0.666776,-0.388354,0.292781,0.624835,-0.463982,0.292783,0.572845,-0.532276,0.292783,0.511667,-0.59239,0.292783,0.442166,-0.643477,0.292781,0.365201,-0.68469,0.292779,0.281634,-0.715177,0.292777,0.192331,-0.734091,0.292775,0.09816,-0.740584,0.292775,-0,-0.734091,0.292775,-0.098161,-0.715177,0.292777,-0.192331,-0.68469,0.292779,-0.281634,-0.643477,0.292781,-0.365201,-0.59239,0.292783,-0.442166,-0.532276,0.292783,-0.511668,-0.463982,0.292783,-0.572845,-0.388354,0.292781,-0.624835,-0.30624,0.292779,-0.666777,-0.218488,0.292777,-0.697803,-0.125964,0.292777,-0.717053,2.48262,0.292921,0.902647,2.48429,0.292921,-0.902615,5.14382,0.006787,-1.07288,5.2828,0.006924,-1.04415,5.4141,0.006927,-0.997723,5.53697,0.006929,-0.934964,5.65013,0.00693,-0.857168,5.75232,0.00693,-0.765625,5.84227,0.00693,-0.661626,5.91872,0.006929,-0.546461,5.98039,0.006927,-0.42142,6.02601,0.006925,-0.287795,6.05431,0.006923,-0.146886,6.06402,0.006923,0,6.05431,0.006923,0.146886,6.02601,0.006925,0.287795,5.98039,0.006927,0.42142,5.91872,0.006929,0.546461,5.84227,0.00693,0.661627,5.75232,0.00693,0.765625,5.65013,0.00693,0.857168,5.53697,0.006929,0.934964,5.4141,0.006927,0.997723,5.2828,0.006924,1.04415,5.14382,0.006787,1.07288,-0.126082,0.006926,0.717935,-0.218719,0.006925,0.698662,-0.306581,0.006927,0.667596,-0.388796,0.006929,0.625603,-0.464517,0.00693,0.573549,-0.532894,0.00693,0.512296,-0.593082,0.00693,0.44271,-0.644232,0.006929,0.365651,-0.685495,0.006927,0.281981,-0.716022,0.006925,0.192567,-0.734959,0.006923,0.09828,-0.741459,0.006923,-0,-0.734959,0.006923,-0.09828,-0.716022,0.006925,-0.192567,-0.685495,0.006927,-0.281981,-0.644232,0.006929,-0.365651,-0.593082,0.00693,-0.44271,-0.532894,0.00693,-0.512297,-0.464517,0.00693,-0.573549,-0.388796,0.006929,-0.625604,-0.306581,0.006927,-0.667597,-0.218719,0.006925,-0.698663,-0.126081,0.006926,-0.717936,2.48256,0.007063,0.903524,2.48424,0.007063,-0.903491,5.14382,0.293213,-1.07288,5.2828,0.293076,-1.04415,5.4141,0.293073,-0.997723,5.53697,0.293071,-0.934964,5.65013,0.29307,-0.857168,5.75232,0.29307,-0.765625,5.84227,0.29307,-0.661626,5.91872,0.293071,-0.546461,5.98039,0.293073,-0.42142,6.02601,0.293075,-0.287795,6.05431,0.293077,-0.146886,6.06402,0.293077,0,6.05431,0.293077,0.146886,6.02601,0.293075,0.287795,5.98039,0.293073,0.42142,5.91872,0.293071,0.546461,5.84227,0.29307,0.661627,5.75232,0.29307,0.765625,5.65013,0.29307,0.857168,5.53697,0.293071,0.934964,5.4141,0.293073,0.997723,5.2828,0.293076,1.04415,5.14382,0.293213,1.07288,-0.126082,0.293074,0.717935,-0.218719,0.293075,0.698662,-0.306581,0.293073,0.667596,-0.388796,0.293071,0.625603,-0.464517,0.29307,0.573549,-0.532894,0.29307,0.512296,-0.593082,0.29307,0.44271,-0.644232,0.293071,0.365651,-0.685495,0.293073,0.281981,-0.716022,0.293075,0.192567,-0.734959,0.293077,0.09828,-0.741459,0.293077,-0,-0.734959,0.293077,-0.09828,-0.716022,0.293075,-0.192567,-0.685495,0.293073,-0.281981,-0.644232,0.293071,-0.365651,-0.593082,0.29307,-0.44271,-0.532894,0.29307,-0.512297,-0.464517,0.29307,-0.573549,-0.388796,0.293071,-0.625604,-0.306581,0.293073,-0.667597,-0.218719,0.293075,-0.698663,-0.126081,0.293074,-0.717936,2.48256,0.292937,0.903524,2.48424,0.292937,-0.903491],
    "metadata": {
        "uvs": 0,
        "faces": 384,
        "type": "Geometry",
        "normals": 384,
        "vertices": 384,
        "generator": "io_three",
        "version": 3
    },
    "name": "MeshGeometry.3",
    "normals": [0.685568,-0.722251,0.091098,0.667867,-0.722098,0.180242,0.667867,0.722098,0.180242,0.685568,0.722251,0.091098,-0.186041,-0.722556,0.665761,-0.273171,-0.722282,0.635334,-0.273171,0.722282,0.635334,-0.186041,0.722556,0.665761,-0.427808,-0.721793,-0.544023,-0.354076,-0.722007,-0.594378,-0.354076,0.722007,-0.594378,-0.427808,0.721793,-0.544023,0.354076,-0.722007,0.594378,0.273171,-0.722282,0.635334,0.273171,0.722282,0.635334,0.354076,0.722007,0.594378,-0.639027,-0.721915,0.265358,-0.667867,-0.722098,0.180242,-0.667867,0.722098,0.180242,-0.639027,0.721915,0.265358,0.273171,-0.722282,-0.635334,0.354076,-0.722007,-0.594378,0.354076,0.722007,-0.594378,0.273171,0.722282,-0.635334,0.667867,-0.722098,-0.180242,0.685568,-0.722251,-0.091098,0.685568,0.722251,-0.091098,0.667867,0.722098,-0.180242,-0.599902,-0.721763,-0.345164,-0.551225,-0.721671,-0.418653,-0.551225,0.721671,-0.418653,-0.599902,0.721763,-0.345164,0.551225,-0.721671,0.418653,0.493698,-0.721671,0.485183,0.493698,0.721671,0.485183,0.551225,0.721671,0.418653,-0.493698,-0.721671,0.485183,-0.551225,-0.721671,0.418653,-0.551225,0.721671,0.418653,-0.493698,0.721671,0.485183,0.047487,-0.707907,-0.704672,0.095126,-0.722495,-0.684774,0.095126,0.722495,-0.684774,0.047487,0.707907,-0.704672,0.047487,-0.707907,0.704672,-0.047609,-0.738548,0.672506,-0.047609,0.738548,0.672506,0.047487,0.707907,0.704672,-0.685568,-0.722251,-0.091098,-0.667867,-0.722098,-0.180242,-0.667867,0.722098,-0.180242,-0.685568,0.722251,-0.091098,0.551225,-0.721671,-0.418653,0.599902,-0.721763,-0.345164,0.599902,0.721763,-0.345164,0.551225,0.721671,-0.418653,0.639027,-0.721915,0.265358,0.639027,0.721915,0.265358,-0.273171,-0.722282,-0.635334,-0.273171,0.722282,-0.635334,-0.354076,-0.722007,0.594378,-0.354076,0.722007,0.594378,0.186041,-0.722556,0.665761,0.186041,0.722556,0.665761,-0.685568,-0.722251,0.091098,-0.685568,0.722251,0.091098,0.427808,-0.721793,-0.543992,0.427808,0.721793,-0.543992,-0.493698,-0.721671,-0.485183,-0.493698,0.721671,-0.485183,0.69161,-0.722251,0,0.69161,0.722251,0,0.427808,-0.721793,0.543992,0.427808,0.721793,0.544023,0.186041,-0.722556,-0.665761,0.186041,0.722556,-0.665761,-0.599902,-0.721763,0.345164,-0.599902,0.721763,0.345164,-0.047609,-0.738517,-0.672506,-0.047609,0.738517,-0.672506,0.639027,-0.721915,-0.265358,0.639027,0.721915,-0.265358,-0.639027,-0.721915,-0.265358,-0.639027,0.721915,-0.265358,0.599902,-0.721763,0.345164,0.599902,0.721763,0.345164,-0.427808,-0.721793,0.543992,-0.427808,0.721793,0.543992,-0.186041,-0.722556,-0.665761,-0.186041,0.722556,-0.665761,0.095096,-0.722495,0.684774,0.095096,0.722495,0.684774,-0.69161,-0.722251,0,-0.69161,0.722251,0,0.493698,-0.721671,-0.485183,0.493698,0.721671,-0.485183,-0.715079,0.692526,-0.095035,-0.69631,0.692679,-0.187933,-0.69631,-0.692679,-0.187933,-0.715079,-0.692526,-0.095035,0.193976,0.69216,-0.695151,0.284921,0.692496,-0.662709,0.284921,-0.692496,-0.662709,0.193976,-0.69216,-0.695151,0.445662,0.692953,0.566698,0.36906,0.69277,0.619556,0.36906,-0.69277,0.619556,0.445662,-0.692953,0.566698,-0.36906,0.69277,-0.619556,-0.284921,0.692496,-0.662709,-0.284921,-0.692496,-0.662709,-0.36906,-0.69277,-0.619556,0.665914,0.692862,-0.276528,0.69631,0.692679,-0.187933,0.69631,-0.692679,-0.187933,0.665914,-0.692862,-0.276528,-0.284921,0.692496,0.662709,-0.36906,0.69277,0.619556,-0.36906,-0.69277,0.619556,-0.284921,-0.692496,0.662709,-0.69631,0.692679,0.187933,-0.715079,0.692526,0.095035,-0.715079,-0.692526,0.095035,-0.69631,-0.692679,0.187933,0.624866,0.692984,0.359508,0.574023,0.693075,0.435987,0.574023,-0.693075,0.435987,0.624866,-0.692984,0.359508,-0.574023,0.693075,-0.435987,-0.514115,0.693075,-0.505264,-0.514115,-0.693075,-0.505264,-0.574023,-0.693075,-0.435987,0.514115,0.693075,-0.505264,0.574023,0.693075,-0.435987,0.574023,-0.693075,-0.435987,0.514115,-0.693075,-0.505264,-0.047609,0.706259,0.70632,-0.099277,0.692312,0.714713,-0.099277,-0.692312,0.714713,-0.047609,-0.706259,0.70632,-0.047578,0.70629,-0.70629,0.051637,0.678213,-0.733024,0.051637,-0.678213,-0.733024,-0.047578,-0.70629,-0.70629,0.715079,0.692526,0.095035,0.69631,0.692679,0.187933,0.69631,-0.692679,0.187933,0.715079,-0.692526,0.095035,-0.574023,0.693075,0.435987,-0.624866,0.692984,0.359508,-0.624866,-0.692984,0.359508,-0.574023,-0.693075,0.435987,-0.665914,0.692862,-0.276528,-0.665914,-0.692862,-0.276528,0.284921,0.692496,0.662709,0.284921,-0.692496,0.662709,0.36906,0.69277,-0.619556,0.36906,-0.69277,-0.619556,-0.19422,0.692251,-0.694998,-0.19422,-0.692251,-0.694998,0.715079,0.692526,-0.095035,0.715079,-0.692526,-0.095035,-0.445662,0.692953,0.566698,-0.445662,-0.692953,0.566698,0.514115,0.693075,0.505264,0.514115,-0.693075,0.505264,-0.721366,0.692526,0,-0.721366,-0.692526,0,-0.445662,0.692953,-0.566698,-0.445662,-0.692953,-0.566698,-0.19422,0.692251,0.694998,-0.19422,-0.692251,0.694998,0.624866,0.692984,-0.359508,0.624866,-0.692984,-0.359508,0.051668,0.678213,0.733024,0.051668,-0.678213,0.733024,-0.665914,0.692862,0.276528,-0.665914,-0.692862,0.276528,0.665914,0.692862,0.276528,0.665914,-0.692862,0.276528,-0.624866,0.692984,-0.359508,-0.624866,-0.692984,-0.359508,0.445662,0.692953,-0.566698,0.445662,-0.692953,-0.566698,0.193976,0.69216,0.695151,0.193976,-0.69216,0.695151,-0.099246,0.692312,-0.714713,-0.099246,-0.692312,-0.714713,0.721366,0.692526,0,0.721366,-0.692526,0,-0.514115,0.693075,0.505264,-0.514115,-0.693075,0.505264,-0.798486,-0.592578,-0.106021,-0.776818,-0.593829,-0.209479,-0.776818,0.593829,-0.209479,-0.798486,0.592547,-0.106021,0.218451,-0.567949,-0.793512,0.316782,-0.597278,-0.736778,0.316782,0.597278,-0.736778,0.218451,0.567949,-0.793512,0.494919,-0.599261,0.6292,0.410016,-0.598529,0.688192,0.410016,0.598529,0.688192,0.494919,0.599261,0.6292,-0.409986,-0.598559,-0.688162,-0.316752,-0.5974,-0.736717,-0.316752,0.5974,-0.736717,-0.409986,0.598559,-0.688162,0.741935,-0.595569,-0.307871,0.776818,-0.593829,-0.209479,0.776788,0.59386,-0.209479,0.741935,0.595569,-0.307871,-0.316752,-0.5974,0.736717,-0.409986,-0.598559,0.688162,-0.409986,0.598559,0.688162,-0.316752,0.5974,0.736717,-0.776818,-0.593829,0.209479,-0.798486,-0.592578,0.106021,-0.798486,0.592578,0.106021,-0.776818,0.593829,0.209479,0.695303,-0.597217,0.399823,0.63802,-0.598559,0.484359,0.63802,0.598559,0.484359,0.695303,0.597217,0.399823,-0.637989,-0.598621,-0.484329,-0.571032,-0.599292,-0.560991,-0.571032,0.599292,-0.560991,-0.637989,0.598621,-0.484329,0.571032,-0.599322,-0.560991,0.63802,-0.598559,-0.484359,0.63802,0.598559,-0.484359,0.571032,0.599322,-0.560991,-0.052919,-0.613025,0.788263,-0.110446,-0.625721,0.772149,-0.110446,0.625721,0.772149,-0.052919,0.613025,0.788263,-0.052919,-0.612964,-0.788324,0.062197,-0.57738,-0.814081,0.062197,0.577349,-0.814081,-0.052919,0.612964,-0.788324,0.798486,-0.592578,0.106021,0.776849,-0.593768,0.209479,0.776818,0.593799,0.209479,0.798456,0.592608,0.106021,-0.637989,-0.59859,0.484329,-0.695242,-0.597308,0.399762,-0.695242,0.597308,0.399762,-0.637989,0.59859,0.484329,-0.741905,-0.595599,-0.307871,-0.741905,0.595599,-0.307871,0.316782,-0.597308,0.736778,0.316782,0.597278,0.736778,0.409986,-0.598559,-0.688162,0.410016,0.598559,-0.688162,-0.21601,-0.596606,-0.772881,-0.21601,0.596606,-0.772881,0.798456,-0.592608,-0.106021,0.798456,0.592639,-0.106021,-0.494888,-0.599261,0.6292,-0.494919,0.599261,0.6292,0.571032,-0.599322,0.560991,0.571032,0.599322,0.560991,-0.805841,-0.59212,0,-0.805841,0.59209,0,-0.494888,-0.599261,-0.6292,-0.494919,0.599261,-0.6292,-0.21601,-0.596637,0.772851,-0.21601,0.596637,0.772851,0.695303,-0.597217,-0.399823,0.695303,0.597217,-0.399823,0.062227,-0.577441,0.81402,0.062227,0.577471,0.81402,-0.741905,-0.595599,0.307871,-0.741905,0.595599,0.307871,0.741935,-0.595538,0.307901,0.741935,0.595538,0.307901,-0.695242,-0.597308,-0.399762,-0.695242,0.597308,-0.399762,0.494888,-0.599261,-0.6292,0.494888,0.599261,-0.6292,0.218451,-0.568011,0.793451,0.218451,0.568011,0.793481,-0.110446,-0.62566,-0.77221,-0.110446,0.62566,-0.77221,0.80578,-0.592181,0,0.80578,0.592181,0,-0.571032,-0.599261,0.561022,-0.571032,0.599292,0.560991,0.597308,0.798059,0.079379,0.582781,0.797235,0.157292,0.582751,-0.797235,0.157292,0.597308,-0.798059,0.079379,-0.1601,0.812738,0.560167,-0.239937,0.794763,0.557451,-0.239937,-0.794763,0.557451,-0.16007,-0.812738,0.560167,-0.376232,0.793603,-0.478103,-0.311289,0.794031,-0.522111,-0.311289,-0.794031,-0.522111,-0.376232,-0.793603,-0.478103,0.311289,0.794,0.522111,0.239937,0.794702,0.557512,0.239937,-0.794702,0.557543,0.311289,-0.794,0.522111,-0.558855,0.796136,0.232032,-0.582781,0.797235,0.157292,-0.582781,-0.797235,0.157292,-0.558855,-0.796136,0.232032,0.239937,0.794702,-0.557512,0.311289,0.794,-0.522111,0.311289,-0.794,-0.522111,0.239937,-0.794702,-0.557543,0.582781,0.797235,-0.157292,0.597308,0.798059,-0.079379,0.597308,-0.798059,-0.079379,0.582781,-0.797235,-0.157292,-0.525742,0.795038,-0.302408,-0.483993,0.794122,-0.367473,-0.484024,-0.794122,-0.367473,-0.525742,-0.795038,-0.302408,0.484054,0.794122,0.367473,0.434004,0.793634,0.426283,0.434004,-0.793634,0.426283,0.484054,-0.794122,0.367473,-0.434034,0.793603,0.426313,-0.483993,0.794122,0.367473,-0.484024,-0.794153,0.367443,-0.434034,-0.793603,0.426313,0.041597,0.787896,-0.614368,0.083621,0.772454,-0.629505,0.083621,-0.772423,-0.629536,0.041597,-0.787896,-0.614368,0.041597,0.787957,0.614307,-0.034822,0.800928,0.597705,-0.034822,-0.800928,0.597705,0.041597,-0.787957,0.614307,-0.597339,0.798029,-0.079379,-0.582751,0.797266,-0.157262,-0.58272,-0.797296,-0.157262,-0.597308,-0.798059,-0.079379,0.484024,0.794122,-0.367473,0.525803,0.794977,-0.302438,0.525834,-0.794977,-0.302438,0.484054,-0.794122,-0.367473,0.558855,0.796106,0.232032,0.558855,-0.796106,0.232032,-0.239937,0.794763,-0.557451,-0.239937,-0.794763,-0.557451,-0.311289,0.794,0.522111,-0.311289,-0.794,0.522111,0.163335,0.795099,0.584002,0.163335,-0.795099,0.584033,-0.597369,0.797998,0.079379,-0.597339,-0.798029,0.079379,0.376232,0.793603,-0.478103,0.376232,-0.793603,-0.478103,-0.434034,0.793603,-0.426313,-0.434034,-0.793603,-0.426313,0.60213,0.798364,0,0.60213,-0.798364,0,0.376232,0.793603,0.478103,0.376232,-0.793603,0.478103,0.163335,0.795099,-0.584063,0.163335,-0.795068,-0.584063,-0.525742,0.795038,0.302408,-0.525742,-0.795038,0.302408,-0.034883,0.800867,-0.597797,-0.034883,-0.800867,-0.597797,0.558855,0.796106,-0.232032,0.558855,-0.796106,-0.232032,-0.558824,0.796136,-0.232032,-0.558824,-0.796136,-0.232032,0.525803,0.794977,0.302438,0.525803,-0.794977,0.302438,-0.376232,0.793603,0.478133,-0.376232,-0.793603,0.478103,-0.1601,0.812708,-0.560198,-0.1601,-0.812708,-0.560198,0.08359,0.772454,0.629505,0.08359,-0.772454,0.629505,-0.602191,0.798334,0,-0.602191,-0.798334,0,0.434004,0.793634,-0.426283,0.434004,-0.793664,-0.426283]
}