{
    "uvs": [[0.34243,1,0.34243,0,0.366198,0,0.366198,1,0.387589,0,0.387589,1,0.40578,0,0.40578,1,0.20289,0,0.20289,1,0.184699,1,0.184699,0,0.163308,1,0.163308,0,0.13954,1,0.13954,0,0.114308,1,0.114308,0,0.088582,1,0.088582,0,0.06335,1,0.06335,0,0.039582,1,0.039582,0,0.018191,1,0.018191,0,0,1,0,0,0.405781,1,0.40578,0,0.427171,0,0.427171,1,0.450939,0,0.450939,1,0.476171,0,0.476171,1,0.501898,0,0.501898,1,0.52713,0,0.52713,1,0.550898,0,0.550898,1,0.572288,0,0.572288,1,0.738796,0,0.738796,1,0.717405,1,0.717405,0,0.693637,1,0.693637,0,0.668405,1,0.668405,0,0.642679,1,0.642679,0,0.617447,1,0.617447,0,0.593679,1,0.593679,0,0.572288,1,0.572288,0,0.20289,1,0.20289,0,0.221082,0,0.221082,1,0.242472,0,0.242472,1,0.26624,0,0.26624,1,0.291472,0,0.291472,1,0.856535,0.298555,0.831303,0.292819,0.807535,0.281566,0.786144,0.265229,0.767953,0.244437,0.75366,0.219987,0.743815,0.192821,0.738796,0.16398,0.738796,0.134575,0.743815,0.105735,0.75366,0.078568,0.767953,0.054119,0.786144,0.033326,0.807535,0.01699,0.831303,0.005737,0.856535,0,0.882261,0,0.907493,0.005737,0.931261,0.01699,0.952652,0.033326,0.970843,0.054119,0.985136,0.078568,0.994981,0.105735,1,0.134575,1,0.16398,0.994981,0.19282,0.985136,0.219987,0.970843,0.244437,0.952652,0.265229,0.931261,0.281566,0.907493,0.292819,0.882261,0.298555,0.317199,1,0.317199,0,0.831303,0.304292,0.856535,0.298555,0.882261,0.298555,0.907493,0.304292,0.931261,0.315545,0.952652,0.331881,0.970843,0.352674,0.985136,0.377124,0.994981,0.40429,1,0.43313,1,0.462536,0.994981,0.491376,0.985136,0.518543,0.970843,0.542992,0.952652,0.563785,0.931261,0.580121,0.907493,0.591374,0.882261,0.597111,0.856535,0.597111,0.831303,0.591374,0.807535,0.580121,0.786144,0.563785,0.767953,0.542992,0.75366,0.518543,0.743815,0.491376,0.738796,0.462536,0.738796,0.43313,0.743815,0.40429,0.75366,0.377124,0.767953,0.352674,0.786144,0.331881,0.807535,0.315545]],
    "metadata": {
        "generator": "io_three",
        "materials": 1,
        "faces": 92,
        "type": "Geometry",
        "uvs": 1,
        "normals": 64,
        "version": 3,
        "vertices": 64
    },
    "faces": [43,0,1,3,2,0,0,1,2,3,0,1,2,3,43,2,3,5,4,0,3,2,4,5,3,2,4,5,43,4,5,7,6,0,5,4,6,7,5,4,6,7,43,6,7,9,8,0,8,9,10,11,7,6,8,9,43,8,9,11,10,0,11,10,12,13,9,8,10,11,43,10,11,13,12,0,13,12,14,15,11,10,12,13,43,12,13,15,14,0,15,14,16,17,13,12,14,15,43,14,15,17,16,0,17,16,18,19,15,14,16,17,43,16,17,19,18,0,19,18,20,21,17,16,18,19,43,18,19,21,20,0,21,20,22,23,19,18,20,21,43,20,21,23,22,0,23,22,24,25,21,20,22,23,43,22,23,25,24,0,25,24,26,27,23,22,24,25,43,24,25,27,26,0,28,29,30,31,25,24,26,27,43,26,27,29,28,0,31,30,32,33,27,26,28,29,43,28,29,31,30,0,33,32,34,35,29,28,30,31,43,30,31,33,32,0,35,34,36,37,31,30,32,33,43,32,33,35,34,0,37,36,38,39,33,32,34,35,43,34,35,37,36,0,39,38,40,41,35,34,36,37,43,36,37,39,38,0,41,40,42,43,37,36,38,39,43,38,39,41,40,0,44,45,46,47,39,38,40,41,43,40,41,43,42,0,47,46,48,49,41,40,42,43,43,42,43,45,44,0,49,48,50,51,43,42,44,45,43,44,45,47,46,0,51,50,52,53,45,44,46,47,43,46,47,49,48,0,53,52,54,55,47,46,48,49,43,48,49,51,50,0,55,54,56,57,49,48,50,51,43,50,51,53,52,0,57,56,58,59,51,50,52,53,43,52,53,55,54,0,60,61,62,63,53,52,54,55,43,54,55,57,56,0,63,62,64,65,55,54,56,57,43,56,57,59,58,0,65,64,66,67,57,56,58,59,43,58,59,61,60,0,67,66,68,69,59,58,60,61,42,3,7,5,0,70,100,101,2,6,4,42,11,9,7,0,98,99,100,10,8,6,42,15,13,11,0,96,97,98,14,12,10,42,19,17,15,0,94,95,96,18,16,14,42,23,21,19,0,92,93,94,22,20,18,42,27,25,23,0,90,91,92,26,24,22,42,31,29,27,0,88,89,90,30,28,26,42,35,33,31,0,86,87,88,34,32,30,42,39,37,35,0,84,85,86,38,36,34,42,43,41,39,0,82,83,84,42,40,38,42,47,45,43,0,80,81,82,46,44,42,42,51,49,47,0,78,79,80,50,48,46,42,55,53,51,0,76,77,78,54,52,50,42,59,57,55,0,74,75,76,58,56,54,42,63,61,59,0,72,73,74,62,60,58,42,3,1,63,0,70,71,72,2,1,62,42,3,11,7,0,70,98,100,2,10,6,42,19,15,11,0,94,96,98,18,14,10,42,27,23,19,0,90,92,94,26,22,18,42,35,31,27,0,86,88,90,34,30,26,42,43,39,35,0,82,84,86,42,38,34,42,51,47,43,0,78,80,82,50,46,42,42,59,55,51,0,74,76,78,58,54,50,42,3,63,59,0,70,72,74,2,62,58,42,3,19,11,0,70,94,98,2,18,10,42,35,27,19,0,86,90,94,34,26,18,42,51,43,35,0,78,82,86,50,42,34,42,3,59,51,0,70,74,78,2,58,50,42,3,35,19,0,70,86,94,2,34,18,42,3,51,35,0,70,78,86,2,50,34,43,1,0,62,63,0,1,0,102,103,1,0,63,62,43,60,61,63,62,0,69,68,103,102,61,60,62,63,42,0,60,62,0,104,134,135,0,61,63,42,56,58,60,0,132,133,134,57,59,61,42,52,54,56,0,130,131,132,53,55,57,42,48,50,52,0,128,129,130,49,51,53,42,44,46,48,0,126,127,128,45,47,49,42,40,42,44,0,124,125,126,41,43,45,42,36,38,40,0,122,123,124,37,39,41,42,32,34,36,0,120,121,122,33,35,37,42,28,30,32,0,118,119,120,29,31,33,42,24,26,28,0,116,117,118,25,27,29,42,20,22,24,0,114,115,116,21,23,25,42,16,18,20,0,112,113,114,17,19,21,42,12,14,16,0,110,111,112,13,15,17,42,8,10,12,0,108,109,110,9,11,13,42,4,6,8,0,106,107,108,5,7,9,42,0,2,4,0,104,105,106,0,3,5,42,0,56,60,0,104,132,134,0,57,61,42,48,52,56,0,128,130,132,49,53,57,42,40,44,48,0,124,126,128,41,45,49,42,32,36,40,0,120,122,124,33,37,41,42,24,28,32,0,116,118,120,25,29,33,42,16,20,24,0,112,114,116,17,21,25,42,8,12,16,0,108,110,112,9,13,17,42,0,4,8,0,104,106,108,0,5,9,42,0,48,56,0,104,128,132,0,49,57,42,32,40,48,0,120,124,128,33,41,49,42,16,24,32,0,112,116,120,17,25,33,42,0,8,16,0,104,108,112,0,9,17,42,0,32,48,0,104,120,128,0,33,49,42,0,16,32,0,104,112,120,0,17,33],
    "materials": [{
        "wireframe": false,
        "depthWrite": true,
        "mapDiffuse": "cylinder_edge (1).png",
        "shading": "phong",
        "depthTest": true,
        "mapDiffuseWrap": ["RepeatWrapping","RepeatWrapping"],
        "colorDiffuse": [0.64,0.64,0.64],
        "specularCoef": 50,
        "mapDiffuseAnisotropy": 1,
        "transparent": false,
        "mapDiffuseRepeat": [1,1],
        "DbgIndex": 0,
        "visible": true,
        "opacity": 1,
        "colorEmissive": [0,0,0],
        "colorSpecular": [0.5,0.5,0.5],
        "colorAmbient": [0.64,0.64,0.64],
        "blending": "NormalBlending",
        "DbgName": "Cylinder",
        "DbgColor": 15658734
    }],
    "name": "CylinderGeometry.2",
    "normals": [0,-0.68569,-0.727866,0,0.68569,-0.727866,0.142003,0.68569,-0.713889,0.142003,-0.68569,-0.713889,0.278542,0.68569,-0.672475,0.278542,-0.68569,-0.672475,0.40437,0.68569,-0.605213,0.40437,-0.68569,-0.605213,0.514664,0.68569,-0.514664,0.514664,-0.68569,-0.514664,0.605213,0.68569,-0.40437,0.605213,-0.68569,-0.40437,0.672475,0.68569,-0.278542,0.672475,-0.68569,-0.278542,0.713889,0.68569,-0.142003,0.713889,-0.68569,-0.142003,0.727866,0.68569,0,0.727866,-0.68569,0,0.713889,0.68569,0.142003,0.713889,-0.68569,0.142003,0.672475,0.68569,0.278542,0.672475,-0.68569,0.278542,0.605213,0.68569,0.40437,0.605213,-0.68569,0.40437,0.514664,0.68569,0.514664,0.514664,-0.68569,0.514664,0.40437,0.68569,0.605213,0.40437,-0.68569,0.605213,0.278542,0.68569,0.672475,0.278542,-0.68569,0.672475,0.142003,0.68569,0.713889,0.142003,-0.68569,0.713889,0,0.68569,0.727866,0,-0.68569,0.727866,-0.142003,0.68569,0.713889,-0.142003,-0.68569,0.713889,-0.278542,0.68569,0.672475,-0.278542,-0.68569,0.672475,-0.40437,0.68569,0.605213,-0.40437,-0.68569,0.605213,-0.514664,0.68569,0.514664,-0.514664,-0.68569,0.514664,-0.605213,0.68569,0.40437,-0.605213,-0.68569,0.40437,-0.672475,0.68569,0.278542,-0.672475,-0.68569,0.278542,-0.713889,0.68569,0.142003,-0.713889,-0.68569,0.142003,-0.727866,0.68569,0,-0.727866,-0.68569,0,-0.713889,0.68569,-0.142003,-0.713889,-0.68569,-0.142003,-0.672475,0.68569,-0.278542,-0.672475,-0.68569,-0.278542,-0.605213,0.68569,-0.40437,-0.605213,-0.68569,-0.40437,-0.514664,0.68569,-0.514695,-0.514664,-0.68569,-0.514695,-0.40437,0.68569,-0.605213,-0.40437,-0.68569,-0.605213,-0.278542,0.68569,-0.672475,-0.278542,-0.68569,-0.672475,-0.142003,0.68569,-0.713889,-0.142003,-0.68569,-0.713889],
    "vertices": [0,-3,-0.9,0,3,-0.9,0.175581,-3,-0.882707,0.175581,3,-0.882707,0.344415,-3,-0.831492,0.344415,3,-0.831492,0.500013,-3,-0.748323,0.500013,3,-0.748323,0.636396,-3,-0.636396,0.636396,3,-0.636396,0.748323,-3,-0.500013,0.748323,3,-0.500013,0.831492,-3,-0.344415,0.831492,3,-0.344415,0.882707,-3,-0.175581,0.882707,3,-0.175581,0.9,-3,0,0.9,3,-0,0.882707,-3,0.175581,0.882707,3,0.175581,0.831492,-3,0.344415,0.831492,3,0.344415,0.748323,-3,0.500013,0.748323,3,0.500013,0.636396,-3,0.636396,0.636396,3,0.636396,0.500013,-3,0.748323,0.500013,3,0.748323,0.344415,-3,0.831492,0.344415,3,0.831492,0.175581,-3,0.882707,0.175581,3,0.882707,-0,-3,0.9,-0,3,0.9,-0.175582,-3,0.882707,-0.175582,3,0.882707,-0.344416,-3,0.831492,-0.344416,3,0.831491,-0.500014,-3,0.748323,-0.500014,3,0.748322,-0.636397,-3,0.636396,-0.636397,3,0.636396,-0.748323,-3,0.500013,-0.748323,3,0.500013,-0.831492,-3,0.344415,-0.831492,3,0.344414,-0.882707,-3,0.175581,-0.882707,3,0.17558,-0.9,-3,-1e-06,-0.9,3,-1e-06,-0.882707,-3,-0.175582,-0.882707,3,-0.175582,-0.831491,-3,-0.344416,-0.831491,3,-0.344416,-0.748322,-3,-0.500014,-0.748322,3,-0.500014,-0.636395,-3,-0.636397,-0.636395,3,-0.636397,-0.500012,-3,-0.748323,-0.500012,3,-0.748324,-0.344414,-3,-0.831492,-0.344414,3,-0.831492,-0.17558,-3,-0.882707,-0.17558,3,-0.882707]
}