{
    "uvs": [],
    "normals": [0,-0.68569,-0.727866,0,0.68569,-0.727866,0.142003,0.68569,-0.713889,0.142003,-0.68569,-0.713889,0.278542,0.68569,-0.672475,0.278542,-0.68569,-0.672475,0.40437,0.68569,-0.605213,0.40437,-0.68569,-0.605213,0.514664,0.68569,-0.514664,0.514664,-0.68569,-0.514664,0.605213,0.68569,-0.40437,0.605213,-0.68569,-0.40437,0.672475,0.68569,-0.278542,0.672475,-0.68569,-0.278542,0.713889,0.68569,-0.142003,0.713889,-0.68569,-0.142003,0.727866,0.68569,0,0.727866,-0.68569,0,0.713889,0.68569,0.142003,0.713889,-0.68569,0.142003,0.672475,0.68569,0.278542,0.672475,-0.68569,0.278542,0.605213,0.68569,0.40437,0.605213,-0.68569,0.40437,0.514664,0.68569,0.514664,0.514664,-0.68569,0.514664,0.40437,0.68569,0.605213,0.40437,-0.68569,0.605213,0.278542,0.68569,0.672475,0.278542,-0.68569,0.672475,0.142003,0.68569,0.713889,0.142003,-0.68569,0.713889,0,0.68569,0.727866,0,-0.68569,0.727866,-0.142003,0.68569,0.713889,-0.142003,-0.68569,0.713889,-0.278542,0.68569,0.672475,-0.278542,-0.68569,0.672475,-0.40437,0.68569,0.605213,-0.40437,-0.68569,0.605213,-0.514664,0.68569,0.514664,-0.514664,-0.68569,0.514664,-0.605213,0.68569,0.40437,-0.605213,-0.68569,0.40437,-0.672475,0.68569,0.278542,-0.672475,-0.68569,0.278542,-0.713889,0.68569,0.142003,-0.713889,-0.68569,0.142003,-0.727866,0.68569,0,-0.727866,-0.68569,0,-0.713889,0.68569,-0.142003,-0.713889,-0.68569,-0.142003,-0.672475,0.68569,-0.278542,-0.672475,-0.68569,-0.278542,-0.605213,0.68569,-0.40437,-0.605213,-0.68569,-0.40437,-0.514664,0.68569,-0.514695,-0.514664,-0.68569,-0.514695,-0.40437,0.68569,-0.605213,-0.40437,-0.68569,-0.605213,-0.278542,0.68569,-0.672475,-0.278542,-0.68569,-0.672475,-0.142003,0.68569,-0.713889,-0.142003,-0.68569,-0.713889],
    "metadata": {
        "uvs": 0,
        "version": 3,
        "generator": "io_three",
        "normals": 64,
        "type": "Geometry",
        "faces": 92,
        "vertices": 64
    },
    "vertices": [0,-0.25,-0.5,0,0.25,-0.5,0.097545,-0.25,-0.490393,0.097545,0.25,-0.490393,0.191342,-0.25,-0.46194,0.191342,0.25,-0.46194,0.277785,-0.25,-0.415735,0.277785,0.25,-0.415735,0.353553,-0.25,-0.353553,0.353553,0.25,-0.353553,0.415735,-0.25,-0.277785,0.415735,0.25,-0.277785,0.46194,-0.25,-0.191342,0.46194,0.25,-0.191342,0.490393,-0.25,-0.097545,0.490393,0.25,-0.097545,0.5,-0.25,-0,0.5,0.25,-0,0.490393,-0.25,0.097545,0.490393,0.25,0.097545,0.46194,-0.25,0.191342,0.46194,0.25,0.191342,0.415735,-0.25,0.277785,0.415735,0.25,0.277785,0.353553,-0.25,0.353553,0.353553,0.25,0.353553,0.277785,-0.25,0.415735,0.277785,0.25,0.415735,0.191342,-0.25,0.46194,0.191342,0.25,0.46194,0.097545,-0.25,0.490393,0.097545,0.25,0.490393,-0,-0.25,0.5,-0,0.25,0.5,-0.097545,-0.25,0.490393,-0.097545,0.25,0.490393,-0.191342,-0.25,0.46194,-0.191342,0.25,0.46194,-0.277785,-0.25,0.415735,-0.277785,0.25,0.415735,-0.353554,-0.25,0.353553,-0.353554,0.25,0.353553,-0.415735,-0.25,0.277785,-0.415735,0.25,0.277785,-0.46194,-0.25,0.191341,-0.46194,0.25,0.191341,-0.490393,-0.25,0.097545,-0.490393,0.25,0.097545,-0.5,-0.25,-0,-0.5,0.25,-0,-0.490393,-0.25,-0.097546,-0.490393,0.25,-0.097546,-0.46194,-0.25,-0.191342,-0.46194,0.25,-0.191342,-0.415734,-0.25,-0.277786,-0.415734,0.25,-0.277786,-0.353553,-0.25,-0.353554,-0.353553,0.25,-0.353554,-0.277785,-0.25,-0.415735,-0.277785,0.25,-0.415735,-0.191341,-0.25,-0.46194,-0.191341,0.25,-0.46194,-0.097544,-0.25,-0.490393,-0.097544,0.25,-0.490393],
    "faces": [33,0,1,3,2,0,1,2,3,33,2,3,5,4,3,2,4,5,33,4,5,7,6,5,4,6,7,33,6,7,9,8,7,6,8,9,33,8,9,11,10,9,8,10,11,33,10,11,13,12,11,10,12,13,33,12,13,15,14,13,12,14,15,33,14,15,17,16,15,14,16,17,33,16,17,19,18,17,16,18,19,33,18,19,21,20,19,18,20,21,33,20,21,23,22,21,20,22,23,33,22,23,25,24,23,22,24,25,33,24,25,27,26,25,24,26,27,33,26,27,29,28,27,26,28,29,33,28,29,31,30,29,28,30,31,33,30,31,33,32,31,30,32,33,33,32,33,35,34,33,32,34,35,33,34,35,37,36,35,34,36,37,33,36,37,39,38,37,36,38,39,33,38,39,41,40,39,38,40,41,33,40,41,43,42,41,40,42,43,33,42,43,45,44,43,42,44,45,33,44,45,47,46,45,44,46,47,33,46,47,49,48,47,46,48,49,33,48,49,51,50,49,48,50,51,33,50,51,53,52,51,50,52,53,33,52,53,55,54,53,52,54,55,33,54,55,57,56,55,54,56,57,33,56,57,59,58,57,56,58,59,33,58,59,61,60,59,58,60,61,32,3,7,5,2,6,4,32,11,9,7,10,8,6,32,15,13,11,14,12,10,32,19,17,15,18,16,14,32,23,21,19,22,20,18,32,27,25,23,26,24,22,32,31,29,27,30,28,26,32,35,33,31,34,32,30,32,39,37,35,38,36,34,32,43,41,39,42,40,38,32,47,45,43,46,44,42,32,51,49,47,50,48,46,32,55,53,51,54,52,50,32,59,57,55,58,56,54,32,63,61,59,62,60,58,32,3,1,63,2,1,62,32,3,11,7,2,10,6,32,19,15,11,18,14,10,32,27,23,19,26,22,18,32,35,31,27,34,30,26,32,43,39,35,42,38,34,32,51,47,43,50,46,42,32,59,55,51,58,54,50,32,3,63,59,2,62,58,32,3,19,11,2,18,10,32,35,27,19,34,26,18,32,51,43,35,50,42,34,32,3,59,51,2,58,50,32,3,35,19,2,34,18,32,3,51,35,2,50,34,33,1,0,62,63,1,0,63,62,33,60,61,63,62,61,60,62,63,32,0,60,62,0,61,63,32,56,58,60,57,59,61,32,52,54,56,53,55,57,32,48,50,52,49,51,53,32,44,46,48,45,47,49,32,40,42,44,41,43,45,32,36,38,40,37,39,41,32,32,34,36,33,35,37,32,28,30,32,29,31,33,32,24,26,28,25,27,29,32,20,22,24,21,23,25,32,16,18,20,17,19,21,32,12,14,16,13,15,17,32,8,10,12,9,11,13,32,4,6,8,5,7,9,32,0,2,4,0,3,5,32,0,56,60,0,57,61,32,48,52,56,49,53,57,32,40,44,48,41,45,49,32,32,36,40,33,37,41,32,24,28,32,25,29,33,32,16,20,24,17,21,25,32,8,12,16,9,13,17,32,0,4,8,0,5,9,32,0,48,56,0,49,57,32,32,40,48,33,41,49,32,16,24,32,17,25,33,32,0,8,16,0,9,17,32,0,32,48,0,33,49,32,0,16,32,0,17,33],
    "name": "CylinderGeometry"
}