{
    "normals": [0.577349,-0.577349,0.577349,0.577349,-0.577349,-0.577349,0.577349,0.577349,-0.577349,0.577349,0.577349,0.577349,-0.577349,0.577349,0.577349,-0.577349,-0.577349,0.577349,-0.577349,0.577349,-0.577349,-0.577349,-0.577349,-0.577349],
    "name": "Cube.001Geometry.3",
    "uvs": [],
    "vertices": [-0.5,1.6,0.75,-0.5,-1.6,0.75,-0.5,1.6,-0.75,-0.5,-1.6,-0.75,0.5,1.6,0.75,0.5,-1.6,0.75,0.5,1.6,-0.75,0.5,-1.6,-0.75],
    "metadata": {
        "version": 3,
        "normals": 8,
        "generator": "io_three",
        "uvs": 0,
        "faces": 6,
        "type": "Geometry",
        "vertices": 8
    },
    "faces": [33,2,0,1,3,0,1,2,3,33,3,7,6,2,3,4,5,0,33,7,5,4,6,4,6,7,5,33,0,4,5,1,1,7,6,2,33,0,2,6,4,1,0,5,7,33,5,7,3,1,6,4,3,2]
}