{
    "uvs": [[0.539959,0.992546,0.539959,0.003809,0.559938,0.003809,0.559938,0.992546,0.579919,0.003809,0.579919,0.992546,0.599902,0.003809,0.599902,0.992546,0.619888,0.003809,0.619888,0.992546,0.639878,0.003808,0.639878,0.992546,0.659873,0.003808,0.659873,0.992546,0.679873,0.003808,0.679873,0.992546,0.699878,0.003808,0.699878,0.992545,0.719887,0.003808,0.719887,0.992545,0.739901,0.003808,0.739901,0.992545,0.759917,0.003808,0.759917,0.992545,0.779935,0.003808,0.779935,0.992545,0.799953,0.003807,0.799953,0.992545,0.819971,0.003807,0.819971,0.992545,0.839987,0.003807,0.839987,0.992544,0.86,0.003807,0.86,0.992545,0.88001,0.003807,0.88001,0.992544,0.900015,0.003807,0.900015,0.992544,0.920015,0.003806,0.920015,0.992544,0.94001,0.003806,0.94001,0.992543,0.96,0.003806,0.96,0.992543,0.979986,0.003806,0.979986,0.992543,0.999969,0.003806,0.999969,0.992543,3.1e-05,0.992548,3.1e-05,0.003811,0.020011,0.003811,0.020011,0.992548,0.039991,0.003811,0.039991,0.992548,0.05997,0.003811,0.05997,0.992548,0.07995,0.003811,0.07995,0.992548,0.099933,0.003811,0.099933,0.992548,0.119919,0.003811,0.119919,0.992548,0.139909,0.003811,0.139909,0.992548,0.159904,0.003811,0.159904,0.992547,0.179904,0.003811,0.179904,0.992547,0.199909,0.003811,0.199909,0.992548,0.219919,0.003811,0.219919,0.992548,0.239932,0.003811,0.239932,0.992548,0.259948,0.003811,0.259948,0.992548,0.279966,0.003811,0.279966,0.992548,0.299984,0.003811,0.299984,0.992548,0.320002,0.00381,0.320002,0.992548,0.340018,0.00381,0.340018,0.992547,0.360031,0.00381,0.360031,0.992547,0.380041,0.00381,0.380041,0.992547,0.400046,0.00381,0.400046,0.992547,0.420046,0.00381,0.420046,0.992547,0.440041,0.00381,0.440041,0.992547,0.460031,0.003809,0.460031,0.992547,0.480017,0.003809,0.480017,0.992546,0.5,0.003809,0.5,0.992546,0.519981,0.992546,0.51998,0.003809]],
    "metadata": {
        "faces": 146,
        "generator": "io_three",
        "type": "Geometry",
        "uvs": 1,
        "materials": 1,
        "normals": 100,
        "vertices": 100,
        "version": 3
    },
    "faces": [43,0,1,3,2,0,0,1,2,3,0,1,2,3,43,2,3,5,4,0,3,2,4,5,3,2,4,5,43,4,5,7,6,0,5,4,6,7,5,4,6,7,43,6,7,9,8,0,7,6,8,9,7,6,8,9,43,8,9,11,10,0,9,8,10,11,9,8,10,11,43,10,11,13,12,0,11,10,12,13,11,10,12,13,43,12,13,15,14,0,13,12,14,15,13,12,14,15,43,14,15,17,16,0,15,14,16,17,15,14,16,17,43,16,17,19,18,0,17,16,18,19,17,16,18,19,43,18,19,21,20,0,19,18,20,21,19,18,20,21,43,20,21,23,22,0,21,20,22,23,21,20,22,23,43,22,23,25,24,0,23,22,24,25,23,22,24,25,43,24,25,27,26,0,25,24,26,27,25,24,26,27,43,26,27,29,28,0,27,26,28,29,27,26,28,29,43,28,29,31,30,0,29,28,30,31,29,28,30,31,43,30,31,33,32,0,31,30,32,33,31,30,32,33,43,32,33,35,34,0,33,32,34,35,33,32,34,35,43,34,35,37,36,0,35,34,36,37,35,34,36,37,43,36,37,39,38,0,37,36,38,39,37,36,38,39,43,38,39,41,40,0,39,38,40,41,39,38,40,41,43,40,41,43,42,0,41,40,42,43,41,40,42,43,43,42,43,45,44,0,43,42,44,45,43,42,44,45,43,44,45,47,46,0,45,44,46,47,45,44,46,47,43,46,47,49,48,0,48,49,50,51,47,46,48,49,43,48,49,51,50,0,51,50,52,53,49,48,50,51,43,50,51,53,52,0,53,52,54,55,51,50,52,53,43,52,53,55,54,0,55,54,56,57,53,52,54,55,43,54,55,57,56,0,57,56,58,59,55,54,56,57,43,56,57,59,58,0,59,58,60,61,57,56,58,59,43,58,59,61,60,0,61,60,62,63,59,58,60,61,43,60,61,63,62,0,63,62,64,65,61,60,62,63,43,62,63,65,64,0,65,64,66,67,63,62,64,65,43,64,65,67,66,0,67,66,68,69,65,64,66,67,43,66,67,69,68,0,69,68,70,71,67,66,68,69,43,68,69,71,70,0,71,70,72,73,69,68,70,71,43,70,71,73,72,0,73,72,74,75,71,70,72,73,43,72,73,75,74,0,75,74,76,77,73,72,74,75,43,74,75,77,76,0,77,76,78,79,75,74,76,77,43,76,77,79,78,0,79,78,80,81,77,76,78,79,43,78,79,81,80,0,81,80,82,83,79,78,80,81,43,80,81,83,82,0,83,82,84,85,81,80,82,83,43,82,83,85,84,0,85,84,86,87,83,82,84,85,43,84,85,87,86,0,87,86,88,89,85,84,86,87,43,86,87,89,88,0,89,88,90,91,87,86,88,89,43,88,89,91,90,0,91,90,92,93,89,88,90,91,43,90,91,93,92,0,93,92,94,95,91,90,92,93,43,92,93,95,94,0,95,94,96,97,93,92,94,95,43,94,95,97,96,0,97,96,98,99,95,94,96,97,43,1,0,98,99,0,1,0,100,101,1,0,98,99,43,96,97,99,98,0,99,98,101,100,97,96,99,98,42,3,7,5,0,2,6,4,2,6,4,42,11,9,7,0,10,8,6,10,8,6,42,15,13,11,0,14,12,10,14,12,10,42,19,17,15,0,18,16,14,18,16,14,42,23,21,19,0,22,20,18,22,20,18,42,27,25,23,0,26,24,22,26,24,22,42,31,29,27,0,30,28,26,30,28,26,42,35,33,31,0,34,32,30,34,32,30,42,39,37,35,0,38,36,34,38,36,34,42,43,41,39,0,42,40,38,42,40,38,42,47,45,43,0,49,44,42,46,44,42,42,51,49,47,0,52,50,49,50,48,46,42,55,53,51,0,56,54,52,54,52,50,42,59,57,55,0,60,58,56,58,56,54,42,63,61,59,0,64,62,60,62,60,58,42,67,65,63,0,68,66,64,66,64,62,42,71,69,67,0,72,70,68,70,68,66,42,75,73,71,0,76,74,72,74,72,70,42,79,77,75,0,80,78,76,78,76,74,42,83,81,79,0,84,82,80,82,80,78,42,87,85,83,0,88,86,84,86,84,82,42,91,89,87,0,92,90,88,90,88,86,42,95,93,91,0,96,94,92,94,92,90,42,99,97,95,0,101,98,96,99,96,94,42,3,1,99,0,2,1,101,2,1,99,42,3,11,7,0,2,10,6,2,10,6,42,19,15,11,0,18,14,10,18,14,10,42,27,23,19,0,26,22,18,26,22,18,42,35,31,27,0,34,30,26,34,30,26,42,43,39,35,0,42,38,34,42,38,34,42,51,47,43,0,52,49,42,50,46,42,42,59,55,51,0,60,56,52,58,54,50,42,67,63,59,0,68,64,60,66,62,58,42,75,71,67,0,76,72,68,74,70,66,42,83,79,75,0,84,80,76,82,78,74,42,91,87,83,0,92,88,84,90,86,82,42,99,95,91,0,101,96,92,99,94,90,42,3,99,11,0,2,101,10,2,99,10,42,27,19,11,0,26,18,10,26,18,10,42,43,35,27,0,42,34,26,42,34,26,42,59,51,43,0,60,52,42,58,50,42,42,75,67,59,0,76,68,60,74,66,58,42,91,83,75,0,92,84,76,90,82,74,42,99,91,11,0,101,92,10,99,90,10,42,43,27,11,0,42,26,10,42,26,10,42,75,59,43,0,76,60,42,74,58,42,42,91,75,11,0,92,76,10,90,74,10,42,75,43,11,0,76,42,10,74,42,10,42,0,96,98,0,0,99,100,0,97,98,42,92,94,96,0,95,97,99,93,95,97,42,88,90,92,0,91,93,95,89,91,93,42,84,86,88,0,87,89,91,85,87,89,42,80,82,84,0,83,85,87,81,83,85,42,76,78,80,0,79,81,83,77,79,81,42,72,74,76,0,75,77,79,73,75,77,42,68,70,72,0,71,73,75,69,71,73,42,64,66,68,0,67,69,71,65,67,69,42,60,62,64,0,63,65,67,61,63,65,42,56,58,60,0,59,61,63,57,59,61,42,52,54,56,0,55,57,59,53,55,57,42,48,50,52,0,51,53,55,49,51,53,42,44,46,48,0,45,47,51,45,47,49,42,40,42,44,0,41,43,45,41,43,45,42,36,38,40,0,37,39,41,37,39,41,42,32,34,36,0,33,35,37,33,35,37,42,28,30,32,0,29,31,33,29,31,33,42,24,26,28,0,25,27,29,25,27,29,42,20,22,24,0,21,23,25,21,23,25,42,16,18,20,0,17,19,21,17,19,21,42,12,14,16,0,13,15,17,13,15,17,42,8,10,12,0,9,11,13,9,11,13,42,4,6,8,0,5,7,9,5,7,9,42,0,2,4,0,0,3,5,0,3,5,42,0,92,96,0,0,95,99,0,93,97,42,84,88,92,0,87,91,95,85,89,93,42,76,80,84,0,79,83,87,77,81,85,42,68,72,76,0,71,75,79,69,73,77,42,60,64,68,0,63,67,71,61,65,69,42,52,56,60,0,55,59,63,53,57,61,42,44,48,52,0,45,51,55,45,49,53,42,36,40,44,0,37,41,45,37,41,45,42,28,32,36,0,29,33,37,29,33,37,42,20,24,28,0,21,25,29,21,25,29,42,12,16,20,0,13,17,21,13,17,21,42,4,8,12,0,5,9,13,5,9,13,42,0,4,92,0,0,5,95,0,5,93,42,76,84,92,0,79,87,95,77,85,93,42,60,68,76,0,63,71,79,61,69,77,42,44,52,60,0,45,55,63,45,53,61,42,28,36,44,0,29,37,45,29,37,45,42,12,20,28,0,13,21,29,13,21,29,42,4,12,92,0,5,13,95,5,13,93,42,60,76,92,0,63,79,95,61,77,93,42,28,44,60,0,29,45,63,29,45,61,42,12,28,92,0,13,29,95,13,29,93,42,28,60,92,0,29,63,95,29,61,93],
    "name": "CylinderGeometry.3",
    "normals": [0,0.693258,-0.720664,0,-0.693258,-0.720664,-0.090121,-0.693258,-0.714988,-0.090121,0.693258,-0.714988,-0.178869,-0.693258,-0.698111,-0.178869,0.693258,-0.698111,-0.26484,-0.693258,-0.670247,-0.26484,0.693258,-0.670247,-0.34666,-0.693228,-0.631825,-0.34666,0.693228,-0.631825,-0.423048,-0.693228,-0.583422,-0.423048,0.693228,-0.583422,-0.492813,-0.693228,-0.525834,-0.492813,0.693228,-0.525834,-0.554857,-0.693228,-0.459914,-0.554857,0.693228,-0.459914,-0.608173,-0.693228,-0.3867,-0.608173,0.693228,-0.3867,-0.651875,-0.693197,-0.307352,-0.651875,0.693197,-0.307352,-0.685293,-0.693197,-0.22309,-0.685293,0.693197,-0.22309,-0.707907,-0.693197,-0.135289,-0.707907,0.693197,-0.135289,-0.719291,-0.693197,-0.04532,-0.719291,0.693197,-0.04532,-0.719291,-0.693197,0.04532,-0.719291,0.693197,0.04532,-0.707907,-0.693197,0.135289,-0.707907,0.693197,0.135289,-0.685293,-0.693197,0.22309,-0.685293,0.693197,0.22309,-0.651875,-0.693197,0.307352,-0.651875,0.693197,0.307352,-0.608173,-0.693228,0.3867,-0.608173,0.693228,0.3867,-0.554857,-0.693228,0.459914,-0.554857,0.693228,0.459914,-0.492813,-0.693228,0.525834,-0.492813,0.693228,0.525834,-0.423048,-0.693228,0.583422,-0.423048,0.693228,0.583422,-0.34666,-0.693228,0.631825,-0.34666,0.693228,0.631825,-0.26484,-0.693258,0.670247,-0.26484,0.693258,0.670247,-0.178869,-0.693258,0.698111,-0.178869,0.693258,0.698111,-0.090121,-0.693258,0.714988,-0.090121,0.693258,0.714988,0,-0.693258,0.720664,0,0.693258,0.720664,0.090121,-0.693258,0.714988,0.090121,0.693258,0.714988,0.178869,-0.693258,0.698111,0.178869,0.693258,0.698111,0.26484,-0.693258,0.670247,0.26484,0.693258,0.670247,0.34666,-0.693228,0.631825,0.34666,0.693228,0.631825,0.423048,-0.693228,0.583422,0.423048,0.693228,0.583422,0.492813,-0.693228,0.525834,0.492813,0.693228,0.525834,0.554857,-0.693228,0.459914,0.554857,0.693228,0.459914,0.608173,-0.693228,0.3867,0.608173,0.693228,0.3867,0.651875,-0.693197,0.307352,0.651875,0.693197,0.307352,0.685293,-0.693197,0.22309,0.685293,0.693197,0.22309,0.707907,-0.693197,0.135289,0.707907,0.693197,0.135289,0.719291,-0.693197,0.04532,0.719291,0.693197,0.04532,0.719291,-0.693197,-0.04532,0.719291,0.693197,-0.04532,0.707907,-0.693197,-0.135289,0.707907,0.693197,-0.135289,0.685293,-0.693197,-0.22309,0.685293,0.693197,-0.22309,0.651875,-0.693197,-0.307352,0.651875,0.693197,-0.307352,0.608173,-0.693228,-0.3867,0.608173,0.693228,-0.3867,0.554857,-0.693228,-0.459914,0.554857,0.693228,-0.459914,0.492813,-0.693228,-0.525834,0.492813,0.693228,-0.525834,0.423048,-0.693228,-0.583422,0.423048,0.693228,-0.583422,0.34666,-0.693228,-0.631825,0.34666,0.693228,-0.631825,0.26484,-0.693258,-0.670247,0.26484,0.693258,-0.670247,0.178869,-0.693258,-0.698111,0.178869,0.693258,-0.698111,0.090121,0.693258,-0.714988,0.090121,-0.693258,-0.714988],
    "vertices": [0,4.25,-0.9,-0,-4.25,-0.899999,-0.113023,4.25,-0.892903,-0.113023,-4.25,-0.892903,-0.224263,4.25,-0.871725,-0.224264,-4.25,-0.871724,-0.331967,4.25,-0.836799,-0.331968,-4.25,-0.836798,-0.434435,4.25,-0.788676,-0.434436,-4.25,-0.788676,-0.530052,4.25,-0.728115,-0.530053,-4.25,-0.728115,-0.61731,4.25,-0.656072,-0.617311,-4.25,-0.656071,-0.694833,4.25,-0.573682,-0.694833,-4.25,-0.573681,-0.761397,4.25,-0.482244,-0.761398,-4.25,-0.482244,-0.815954,4.25,-0.383201,-0.815955,-4.25,-0.383201,-0.857643,4.25,-0.278115,-0.857644,-4.25,-0.278115,-0.885806,4.25,-0.168643,-0.885807,-4.25,-0.168643,-0.9,4.25,-0.056511,-0.9,-4.25,-0.056511,-0.9,4.25,0.056512,-0.9,-4.25,0.056512,-0.885806,4.25,0.168644,-0.885807,-4.25,0.168644,-0.857643,4.25,0.278116,-0.857643,-4.25,0.278116,-0.815954,4.25,0.383202,-0.815955,-4.25,0.383202,-0.761397,4.25,0.482244,-0.761398,-4.25,0.482245,-0.694832,4.25,0.573682,-0.694833,-4.25,0.573682,-0.61731,4.25,0.656072,-0.617311,-4.25,0.656072,-0.530052,4.25,0.728116,-0.530053,-4.25,0.728116,-0.434435,4.25,0.788676,-0.434435,-4.25,0.788677,-0.331966,4.25,0.836799,-0.331967,-4.25,0.8368,-0.224262,4.25,0.871725,-0.224263,-4.25,0.871725,-0.113022,4.25,0.892903,-0.113023,-4.25,0.892904,1e-06,4.25,0.9,0,-4.25,0.9,0.113024,4.25,0.892903,0.113023,-4.25,0.892904,0.224265,4.25,0.871725,0.224264,-4.25,0.871725,0.331968,4.25,0.836799,0.331968,-4.25,0.836799,0.434437,4.25,0.788676,0.434436,-4.25,0.788676,0.530054,4.25,0.728115,0.530053,-4.25,0.728115,0.617312,4.25,0.656071,0.617311,-4.25,0.656071,0.694834,4.25,0.573681,0.694833,-4.25,0.573681,0.761399,4.25,0.482243,0.761398,-4.25,0.482244,0.815955,4.25,0.3832,0.815955,-4.25,0.383201,0.857644,4.25,0.278114,0.857643,-4.25,0.278115,0.885807,4.25,0.168642,0.885806,-4.25,0.168642,0.9,4.25,0.05651,0.9,-4.25,0.056511,0.9,4.25,-0.056513,0.9,-4.25,-0.056512,0.885807,4.25,-0.168644,0.885806,-4.25,-0.168644,0.857643,4.25,-0.278117,0.857642,-4.25,-0.278116,0.815954,4.25,-0.383203,0.815953,-4.25,-0.383202,0.761397,4.25,-0.482245,0.761396,-4.25,-0.482245,0.694832,4.25,-0.573683,0.694832,-4.25,-0.573682,0.61731,4.25,-0.656073,0.617309,-4.25,-0.656072,0.530052,4.25,-0.728116,0.530051,-4.25,-0.728116,0.434434,4.25,-0.788677,0.434434,-4.25,-0.788676,0.331966,4.25,-0.836799,0.331965,-4.25,-0.836799,0.224262,4.25,-0.871725,0.224261,-4.25,-0.871725,0.113021,4.25,-0.892903,0.113021,-4.25,-0.892903],
    "materials": [{
        "DbgIndex": 0,
        "transparent": false,
        "shading": "phong",
        "mapDiffuseRepeat": [1,1],
        "DbgName": "cylinder",
        "mapDiffuseAnisotropy": 1,
        "depthTest": true,
        "depthWrite": true,
        "visible": true,
        "wireframe": false,
        "mapDiffuseWrap": ["RepeatWrapping","RepeatWrapping"],
        "opacity": 1,
        "colorDiffuse": [0.64,0.64,0.64],
        "colorEmissive": [0,0,0],
        "specularCoef": 50,
        "blending": "NormalBlending",
        "colorAmbient": [0.64,0.64,0.64],
        "colorSpecular": [0.5,0.5,0.5],
        "DbgColor": 15658734
    }]
}