{
    "name": "Gear.001Geometry",
    "normals": [0.710593,-0.703574,0,0,-1,0,0.311319,-0.902676,0.297006,0,-0.999969,0,0.271645,-0.902676,-0.333689,0.15247,-0.669851,0.726646,0.060183,-0.669851,-0.740043,-0.440901,-0.562395,0.699454,-0.705893,-0.7069,0.044404,-0.525101,-0.562395,-0.638691,0,1,0,0.710593,0.703574,0,0.311319,0.902676,0.297006,0,0.999969,0,0.271645,0.902676,-0.333689,0.15247,0.669851,0.726646,0.060183,0.669851,-0.740043,-0.440901,0.562395,0.699454,-0.705893,0.7069,0.044404,-0.525101,0.562395,-0.638691,0.704978,-0.703574,-0.089053,0.34611,-0.902676,0.255623,0.227699,-0.902676,-0.365093,0.242347,-0.669851,0.701804,-0.033021,-0.669851,-0.741752,-0.349773,-0.562395,0.749199,-0.694754,-0.7069,0.132511,-0.601001,-0.562395,-0.567827,0.704978,0.703574,-0.089053,0.34611,0.902676,0.255623,0.227699,0.902676,-0.365093,0.242347,0.669851,0.701804,-0.033021,0.669851,-0.741752,-0.349773,0.562395,0.749199,-0.694754,0.7069,0.132511,-0.601001,0.562395,-0.567827,0.688253,-0.703574,-0.176702,0.375408,-0.902676,0.210242,0.18012,-0.902676,-0.390759,0.328379,-0.669851,0.665914,-0.125706,-0.669851,-0.731742,-0.25309,-0.562395,0.787133,-0.672658,-0.7069,0.218543,-0.66744,-0.562395,-0.488021,0.688253,0.703574,-0.176702,0.375408,0.902676,0.210242,0.18012,0.902676,-0.390759,0.328379,0.669851,0.665914,-0.125706,0.669851,-0.731742,-0.25309,0.562395,0.787133,-0.672658,0.7069,0.218543,-0.66744,0.562395,-0.488021,0.660695,-0.703574,-0.261574,0.398816,-0.902676,0.161534,0.129734,-0.902676,-0.41026,0.409253,-0.669851,0.619495,-0.216437,-0.669851,-0.710227,-0.15244,-0.562395,0.812647,-0.639973,-0.7069,0.301126,-0.72335,-0.562395,-0.400525,0.660695,0.703574,-0.261574,0.398816,0.902676,0.161534,0.129734,0.902676,-0.41026,0.409253,0.669851,0.619495,-0.216437,0.669851,-0.710227,-0.15244,0.562395,0.812647,-0.639973,0.7069,0.301126,-0.72335,0.562395,-0.400525,0.6227,-0.703574,-0.342326,0.415906,-0.902676,0.110263,0.077303,-0.902676,-0.423292,0.483688,-0.669851,0.563311,-0.303751,-0.669851,-0.67748,-0.049409,-0.562395,0.825373,-0.597186,-0.7069,0.378979,-0.767846,-0.562395,-0.306711,0.6227,0.703574,-0.342326,0.415906,0.902676,0.110263,0.077303,0.902676,-0.423292,0.483688,0.669851,0.563311,-0.303751,0.669851,-0.67748,-0.049409,0.562395,0.825373,-0.597186,0.7069,0.378979,-0.767846,0.562395,-0.306711,0.574877,-0.703574,-0.417676,0.426435,-0.902676,0.057253,0.023621,-0.902676,-0.42964,0.550462,-0.669851,0.498245,-0.386273,-0.669851,-0.634083,0.054415,-0.562395,0.825037,-0.544969,-0.7069,0.450819,-0.800226,-0.562395,-0.208075,0.574877,0.703574,-0.417676,0.426435,0.902676,0.057253,0.023621,0.902676,-0.42964,0.550462,0.669851,0.498245,-0.386273,0.669851,-0.634083,0.054415,0.562395,0.825037,-0.544969,0.7069,0.450819,-0.800226,0.562395,-0.208075,0.517991,-0.703574,-0.486435,0.43028,-0.902676,0.003357,-0.030366,-0.902676,-0.429212,0.60857,-0.669851,0.425336,-0.462691,-0.669851,-0.580676,0.157384,-0.562426,0.811701,-0.484146,-0.7069,0.51558,-0.820002,-0.562426,-0.106113,0.517991,0.703574,-0.486435,0.43028,0.902676,0.003357,-0.030366,0.902676,-0.429212,0.60857,0.669851,0.425336,-0.462691,0.669851,-0.580676,0.157384,0.562426,0.811701,-0.484146,0.7069,0.51558,-0.820002,0.562426,-0.106113,0.452956,-0.703574,-0.547502,0.42729,-0.902676,-0.050569,-0.083926,-0.902676,-0.42201,0.657094,-0.669851,0.345683,-0.531816,-0.669851,-0.518082,0.257881,-0.562395,0.785577,-0.415723,-0.7069,0.572192,-0.826838,-0.562395,-0.002503,0.452956,0.703574,-0.547533,0.42729,0.902676,-0.050569,-0.083926,0.902676,-0.42201,0.657094,0.669851,0.345683,-0.531816,0.669851,-0.518082,0.257881,0.562395,0.785577,-0.415723,0.7069,0.572192,-0.826838,0.562395,-0.002503,0.380749,-0.703574,-0.599963,0.417585,-0.902676,-0.103732,-0.136174,-0.902676,-0.408155,0.695242,-0.669851,0.260598,-0.592578,-0.669851,-0.44734,0.35432,-0.562395,0.747063,-0.340709,-0.7069,0.6198,-0.820612,-0.562395,0.101108,0.380749,0.703574,-0.599963,0.417585,0.902676,-0.103732,-0.136174,0.902676,-0.408155,0.695242,0.669851,0.260598,-0.592578,0.669851,-0.44734,0.35432,0.562395,0.747063,-0.340709,0.7069,0.6198,-0.820612,0.562395,0.101108,0.302561,-0.703574,-0.642964,0.401288,-0.902676,-0.155248,-0.186254,-0.902676,-0.38789,0.722404,-0.669851,0.171422,-0.643971,-0.669851,-0.369549,0.445174,-0.562395,0.696768,-0.260353,-0.7069,0.657613,-0.801477,-0.562395,0.203162,0.302561,0.703574,-0.642964,0.401288,0.902676,-0.155248,-0.186254,0.902676,-0.38789,0.722404,0.669851,0.171422,-0.643971,0.669851,-0.369549,0.445174,0.562395,0.696768,-0.260353,0.7069,0.657613,-0.801477,0.562395,0.203162,0.219581,-0.703574,-0.675802,0.378674,-0.902676,-0.204321,-0.233406,-0.902676,-0.361461,0.738212,-0.669851,0.079531,-0.685202,-0.669851,-0.285928,0.528977,-0.562395,0.635456,-0.175878,-0.7069,0.685049,-0.769707,-0.562395,0.302042,0.219581,0.703574,-0.675802,0.378674,0.902676,-0.204321,-0.233406,0.902676,-0.361461,0.738212,0.669851,0.079531,-0.685202,0.669851,-0.285928,0.528977,0.562395,0.635456,-0.175878,0.7069,0.685049,-0.769707,0.562395,0.302042,0.133152,-0.703574,-0.698019,0.350078,-0.902676,-0.25016,-0.276864,-0.902676,-0.329356,0.742363,-0.669851,-0.013611,-0.715629,-0.669851,-0.19779,0.60445,-0.562395,0.564165,-0.088626,-0.7069,0.701682,-0.725761,-0.562395,0.39613,0.133152,0.703574,-0.698019,0.350078,0.902676,-0.25016,-0.276864,0.902676,-0.329356,0.742363,0.669851,-0.013611,-0.715629,0.669851,-0.19779,0.60445,0.562395,0.564165,-0.088626,0.7069,0.701682,-0.725761,0.562395,0.39613,0.044618,-0.703574,-0.709189,0.315958,-0.902676,-0.292062,-0.315958,-0.902676,-0.292062,0.734794,-0.669851,-0.10654,-0.734794,-0.669851,-0.10654,0.6704,-0.562395,0.483963,0,-0.7069,0.707297,-0.6704,-0.562395,0.483963,0.044618,0.703574,-0.709189,0.315958,0.902676,-0.292062,-0.315958,0.902676,-0.292062,0.734794,0.669851,-0.10654,-0.734794,0.669851,-0.10654,0.6704,0.562395,0.483963,0,0.7069,0.707297,-0.6704,0.562395,0.483963,-0.044618,-0.703574,-0.709189,0.276864,-0.902676,-0.329356,-0.350078,-0.902676,-0.25016,0.715629,-0.669851,-0.19779,-0.742363,-0.669851,-0.013611,0.725761,-0.562395,0.39613,0.088626,-0.7069,0.701682,-0.60445,-0.562395,0.564165,-0.044618,0.703574,-0.709189,0.276864,0.902676,-0.329356,-0.350078,0.902676,-0.25016,0.715629,0.669851,-0.19779,-0.742363,0.669851,-0.013611,0.725761,0.562395,0.39613,0.088626,0.7069,0.701682,-0.60445,0.562395,0.564165,-0.133152,-0.703574,-0.698019,0.233406,-0.902676,-0.361461,-0.378674,-0.902676,-0.204321,0.685202,-0.669851,-0.285928,-0.738212,-0.669851,0.079531,0.769707,-0.562395,0.302042,0.175878,-0.7069,0.685049,-0.528977,-0.562395,0.635456,-0.133152,0.703574,-0.698019,0.233406,0.902676,-0.361461,-0.378674,0.902676,-0.204321,0.685202,0.669851,-0.285928,-0.738212,0.669851,0.079531,0.769707,0.562395,0.302042,0.175878,0.7069,0.685049,-0.528977,0.562395,0.635456,-0.219581,-0.703574,-0.675802,0.186254,-0.902676,-0.38789,-0.401288,-0.902676,-0.155248,0.643971,-0.669851,-0.369549,-0.722404,-0.669851,0.171422,0.801477,-0.562395,0.203162,0.260353,-0.7069,0.657613,-0.445174,-0.562395,0.696768,-0.219581,0.703574,-0.675802,0.186254,0.902676,-0.38789,-0.401288,0.902676,-0.155248,0.643971,0.669851,-0.369549,-0.722404,0.669851,0.171422,0.801477,0.562395,0.203162,0.260353,0.7069,0.657613,-0.445174,0.562395,0.696768,-0.302561,-0.703574,-0.642964,0.136174,-0.902676,-0.408155,-0.417585,-0.902676,-0.103732,0.592578,-0.669851,-0.44734,-0.695242,-0.669851,0.260598,0.820612,-0.562395,0.101108,0.340709,-0.7069,0.6198,-0.35432,-0.562395,0.747063,-0.302561,0.703574,-0.642964,0.136174,0.902676,-0.408155,-0.417585,0.902676,-0.103732,0.592578,0.669851,-0.44734,-0.695242,0.669851,0.260598,0.820612,0.562395,0.101108,0.340709,0.7069,0.6198,-0.35432,0.562395,0.747063,-0.380749,-0.703574,-0.599963,0.083926,-0.902676,-0.42201,-0.42729,-0.902676,-0.050569,0.531816,-0.669851,-0.518082,-0.657094,-0.669851,0.345683,0.826838,-0.562395,-0.002503,0.415723,-0.7069,0.572192,-0.257881,-0.562395,0.785577,-0.380749,0.703574,-0.599963,0.083926,0.902676,-0.42201,-0.42729,0.902676,-0.050569,0.531816,0.669851,-0.518082,-0.657094,0.669851,0.345683,0.826838,0.562395,-0.002503,0.415723,0.7069,0.572192,-0.257881,0.562395,0.785577,-0.452956,-0.703574,-0.547502,0.030366,-0.902676,-0.429212,-0.43028,-0.902676,0.003357,0.462691,-0.669851,-0.580676,-0.60857,-0.669851,0.425336,0.820002,-0.562426,-0.106113,0.484146,-0.7069,0.51558,-0.157384,-0.562426,0.811701,-0.452956,0.703574,-0.547502,0.030366,0.902676,-0.429212,-0.43028,0.902676,0.003357,0.462691,0.669851,-0.580676,-0.60857,0.669851,0.425336,0.820002,0.562426,-0.106113,0.484146,0.7069,0.51558,-0.157384,0.562426,0.811701,-0.517991,-0.703574,-0.486435,-0.023621,-0.902676,-0.42964,-0.426435,-0.902676,0.057253,0.386273,-0.669851,-0.634083,-0.550462,-0.669851,0.498245,0.800226,-0.562395,-0.208075,0.544969,-0.7069,0.450819,-0.054415,-0.562395,0.825037,-0.517991,0.703574,-0.486435,-0.023621,0.902676,-0.42964,-0.426435,0.902676,0.057253,0.386273,0.669851,-0.634083,-0.550462,0.669851,0.498245,0.800226,0.562395,-0.208075,0.544969,0.7069,0.450819,-0.054415,0.562395,0.825037,-0.574877,-0.703574,-0.417676,-0.077303,-0.902676,-0.423292,-0.415906,-0.902676,0.110263,0.303751,-0.669851,-0.67748,-0.483688,-0.669851,0.563311,0.767846,-0.562395,-0.306711,0.597186,-0.7069,0.378979,0.049409,-0.562395,0.825373,-0.574877,0.703574,-0.417676,-0.077303,0.902676,-0.423292,-0.415906,0.902676,0.110263,0.303751,0.669851,-0.67748,-0.483688,0.669851,0.563311,0.767846,0.562395,-0.306711,0.597186,0.7069,0.378979,0.049409,0.562395,0.825373,-0.6227,-0.703574,-0.342326,-0.129734,-0.902676,-0.41026,-0.398816,-0.902676,0.161534,0.216437,-0.669851,-0.710227,-0.409253,-0.669851,0.619495,0.72335,-0.562395,-0.400525,0.639973,-0.7069,0.301126,0.15244,-0.562395,0.812647,-0.6227,0.703574,-0.342326,-0.129734,0.902676,-0.41026,-0.398816,0.902676,0.161534,0.216437,0.669851,-0.710227,-0.409253,0.669851,0.619495,0.72335,0.562395,-0.400525,0.639973,0.7069,0.301126,0.15244,0.562395,0.812647,-0.660695,-0.703574,-0.261574,-0.18012,-0.902676,-0.390759,-0.375408,-0.902676,0.210242,0.125706,-0.669851,-0.731742,-0.328379,-0.669851,0.665914,0.66744,-0.562395,-0.488021,0.672658,-0.7069,0.218543,0.25309,-0.562395,0.787133,-0.660695,0.703574,-0.261574,-0.18012,0.902676,-0.390759,-0.375408,0.902676,0.210242,0.125706,0.669851,-0.731742,-0.328379,0.669851,0.665914,0.66744,0.562395,-0.488021,0.672658,0.7069,0.218543,0.25309,0.562395,0.787133,-0.688253,-0.703574,-0.176702,-0.227699,-0.902676,-0.365093,-0.34611,-0.902676,0.255623,0.033021,-0.669851,-0.741752,-0.242347,-0.669851,0.701804,0.601001,-0.562395,-0.567827,0.694754,-0.7069,0.132511,0.349773,-0.562395,0.749199,-0.688253,0.703574,-0.176702,-0.227699,0.902676,-0.365093,-0.34611,0.902676,0.255623,0.033021,0.669851,-0.741752,-0.242347,0.669851,0.701804,0.601001,0.562395,-0.567827,0.694754,0.7069,0.132511,0.349773,0.562395,0.749199,-0.704978,-0.703574,-0.089053,-0.271645,-0.902676,-0.333689,-0.311319,-0.902676,0.297006,-0.060183,-0.669851,-0.740043,-0.15247,-0.669851,0.726646,0.525101,-0.562395,-0.638691,0.705893,-0.7069,0.044404,0.440901,-0.562395,0.699454,-0.704978,0.703574,-0.089053,-0.271645,0.902676,-0.333689,-0.311319,0.902676,0.297006,-0.060183,0.669851,-0.740043,-0.15247,0.669851,0.726646,0.525101,0.562395,-0.638691,0.705893,0.7069,0.044404,0.440901,0.562395,0.699454,-0.710593,-0.703574,0,-0.311319,-0.902676,-0.297006,-0.271645,-0.902676,0.333689,-0.15247,-0.669851,-0.726646,-0.060183,-0.669851,0.740043,0.440901,-0.562395,-0.699454,0.705893,-0.7069,-0.044404,0.525101,-0.562395,0.638691,-0.710593,0.703574,0,-0.311319,0.902676,-0.297006,-0.271645,0.902676,0.333689,-0.15247,0.669851,-0.726646,-0.060183,0.669851,0.740043,0.440901,0.562395,-0.699454,0.705893,0.7069,-0.044404,0.525101,0.562395,0.638691,-0.704978,-0.703574,0.089053,-0.34611,-0.902676,-0.255623,-0.227699,-0.902676,0.365093,-0.242347,-0.669851,-0.701804,0.033021,-0.669851,0.741752,0.349773,-0.562395,-0.749199,0.694754,-0.7069,-0.132511,0.601001,-0.562395,0.567827,-0.704978,0.703574,0.089053,-0.34611,0.902676,-0.255623,-0.227699,0.902676,0.365093,-0.242347,0.669851,-0.701804,0.033021,0.669851,0.741752,0.349773,0.562395,-0.749199,0.694754,0.7069,-0.132511,0.601001,0.562395,0.567827,-0.688253,-0.703574,0.176702,-0.375408,-0.902676,-0.210242,-0.18012,-0.902676,0.390759,-0.328379,-0.669851,-0.665914,0.125706,-0.669851,0.731742,0.25309,-0.562395,-0.787133,0.672658,-0.7069,-0.218543,0.66744,-0.562395,0.488021,-0.688253,0.703574,0.176702,-0.375408,0.902676,-0.210242,-0.18012,0.902676,0.390759,-0.328379,0.669851,-0.665914,0.125706,0.669851,0.731742,0.25309,0.562395,-0.787133,0.672658,0.7069,-0.218543,0.66744,0.562395,0.488021,-0.660695,-0.703574,0.261574,-0.398816,-0.902676,-0.161534,-0.129734,-0.902676,0.41026,-0.409253,-0.669851,-0.619495,0.216437,-0.669851,0.710227,0.15244,-0.562395,-0.812647,0.639973,-0.7069,-0.301126,0.72335,-0.562395,0.400525,-0.660695,0.703574,0.261574,-0.398816,0.902676,-0.161534,-0.129734,0.902676,0.41026,-0.409253,0.669851,-0.619495,0.216437,0.669851,0.710227,0.15244,0.562395,-0.812647,0.639973,0.7069,-0.301126,0.72335,0.562395,0.400525,-0.6227,-0.703574,0.342326,-0.415906,-0.902676,-0.110263,-0.077303,-0.902676,0.423292,-0.483688,-0.669851,-0.563311,0.303751,-0.669851,0.67748,0.049409,-0.562395,-0.825373,0.597186,-0.7069,-0.378979,0.767846,-0.562395,0.306711,-0.6227,0.703574,0.342326,-0.415906,0.902676,-0.110263,-0.077303,0.902676,0.423292,-0.483688,0.669851,-0.563311,0.303751,0.669851,0.67748,0.049409,0.562395,-0.825373,0.597186,0.7069,-0.378979,0.767846,0.562395,0.306711,-0.574877,-0.703574,0.417676,-0.426435,-0.902676,-0.057253,-0.023621,-0.902676,0.42964,-0.550462,-0.669851,-0.498245,0.386273,-0.669851,0.634083,-0.054415,-0.562395,-0.825037,0.544969,-0.7069,-0.450819,0.800226,-0.562395,0.208075,-0.574877,0.703574,0.417676,-0.426435,0.902676,-0.057253,-0.023621,0.902676,0.42964,-0.550462,0.669851,-0.498245,0.386273,0.669851,0.634083,-0.054415,0.562395,-0.825037,0.544969,0.7069,-0.450819,0.800226,0.562395,0.208075,-0.517991,-0.703574,0.486435,-0.43028,-0.902676,-0.003357,0.030366,-0.902676,0.429212,-0.60857,-0.669851,-0.425336,0.462691,-0.669851,0.580676,-0.157384,-0.562426,-0.811701,0.484146,-0.7069,-0.51558,0.820002,-0.562426,0.106113,-0.517991,0.703574,0.486435,-0.43028,0.902676,-0.003357,0.030366,0.902676,0.429212,-0.60857,0.669851,-0.425336,0.462691,0.669851,0.580676,-0.157384,0.562426,-0.811701,0.484146,0.7069,-0.51558,0.820002,0.562426,0.106113,-0.452956,-0.703574,0.547502,-0.42729,-0.902676,0.050569,0.083926,-0.902676,0.42201,-0.657094,-0.669851,-0.345683,0.531816,-0.669851,0.518082,-0.257881,-0.562395,-0.785577,0.415723,-0.7069,-0.572192,0.826838,-0.562395,0.002503,-0.452956,0.703574,0.547533,-0.42729,0.902676,0.050569,0.083926,0.902676,0.42201,-0.657094,0.669851,-0.345683,0.531816,0.669851,0.518082,-0.257881,0.562395,-0.785577,0.415723,0.7069,-0.572192,0.826838,0.562395,0.002503,-0.380749,-0.703574,0.599963,-0.417585,-0.902676,0.103732,0.136174,-0.902676,0.408155,-0.695242,-0.669851,-0.260598,0.592578,-0.669851,0.44734,-0.35432,-0.562395,-0.747063,0.340709,-0.7069,-0.6198,0.820612,-0.562395,-0.101108,-0.380749,0.703574,0.599963,-0.417585,0.902676,0.103732,0.136174,0.902676,0.408155,-0.695242,0.669851,-0.260598,0.592578,0.669851,0.44734,-0.35432,0.562395,-0.747063,0.340709,0.7069,-0.6198,0.820612,0.562395,-0.101108,-0.302561,-0.703574,0.642964,-0.401288,-0.902676,0.155248,0.186254,-0.902676,0.38789,-0.722404,-0.669851,-0.171422,0.643971,-0.669851,0.369549,-0.445174,-0.562395,-0.696768,0.260353,-0.7069,-0.657613,0.801477,-0.562395,-0.203162,-0.302561,0.703574,0.642964,-0.401288,0.902676,0.155248,0.186254,0.902676,0.38789,-0.722404,0.669851,-0.171422,0.643971,0.669851,0.369549,-0.445174,0.562395,-0.696768,0.260353,0.7069,-0.657613,0.801477,0.562395,-0.203162,-0.219581,-0.703574,0.675802,-0.378674,-0.902676,0.204321,0.233406,-0.902676,0.361461,-0.738212,-0.669851,-0.079531,0.685202,-0.669851,0.285928,-0.528977,-0.562395,-0.635456,0.175878,-0.7069,-0.685049,0.769707,-0.562395,-0.302042,-0.219581,0.703574,0.675802,-0.378674,0.902676,0.204321,0.233406,0.902676,0.361461,-0.738212,0.669851,-0.079531,0.685202,0.669851,0.285928,-0.528977,0.562395,-0.635456,0.175878,0.7069,-0.685049,0.769707,0.562395,-0.302042,-0.133152,-0.703574,0.698019,-0.350078,-0.902676,0.25016,0.276864,-0.902676,0.329356,-0.742363,-0.669851,0.013611,0.715629,-0.669851,0.19779,-0.60445,-0.562395,-0.564165,0.088626,-0.7069,-0.701682,0.725761,-0.562395,-0.39613,-0.133152,0.703574,0.698019,-0.350078,0.902676,0.25016,0.276864,0.902676,0.329356,-0.742363,0.669851,0.013611,0.715629,0.669851,0.19779,-0.60445,0.562395,-0.564165,0.088626,0.7069,-0.701682,0.725761,0.562395,-0.39613,-0.044618,-0.703574,0.709189,-0.315958,-0.902676,0.292062,0.315958,-0.902676,0.292062,-0.734794,-0.669851,0.10654,0.734794,-0.669851,0.10654,-0.6704,-0.562395,-0.483963,0,-0.7069,-0.707297,0.6704,-0.562395,-0.483963,-0.044618,0.703574,0.709189,-0.315958,0.902676,0.292062,0.315958,0.902676,0.292062,-0.734794,0.669851,0.10654,0.734794,0.669851,0.10654,-0.6704,0.562395,-0.483963,0,0.7069,-0.707297,0.6704,0.562395,-0.483963,0.044618,-0.703574,0.709189,-0.276864,-0.902676,0.329356,0.350078,-0.902676,0.25016,-0.715629,-0.669851,0.19779,0.742363,-0.669851,0.013611,-0.725761,-0.562395,-0.39613,-0.088626,-0.7069,-0.701682,0.60445,-0.562395,-0.564165,0.044618,0.703574,0.709189,-0.276864,0.902676,0.329356,0.350078,0.902676,0.25016,-0.715629,0.669851,0.19779,0.742363,0.669851,0.013611,-0.725761,0.562395,-0.39613,-0.088626,0.7069,-0.701682,0.60445,0.562395,-0.564165,0.133152,-0.703574,0.698019,-0.233406,-0.902676,0.361461,0.378674,-0.902676,0.204321,-0.685202,-0.669851,0.285928,0.738212,-0.669851,-0.079531,-0.769707,-0.562395,-0.302042,-0.175878,-0.7069,-0.685049,0.528977,-0.562395,-0.635456,0.133152,0.703574,0.698019,-0.233406,0.902676,0.361461,0.378674,0.902676,0.204321,-0.685202,0.669851,0.285928,0.738212,0.669851,-0.079531,-0.769707,0.562395,-0.302042,-0.175878,0.7069,-0.685049,0.528977,0.562395,-0.635456,0.219581,-0.703574,0.675802,-0.186254,-0.902676,0.38789,0.401288,-0.902676,0.155248,-0.643971,-0.669851,0.369549,0.722404,-0.669851,-0.171422,-0.801477,-0.562395,-0.203162,-0.260353,-0.7069,-0.657613,0.445174,-0.562395,-0.696768,0.219581,0.703574,0.675802,-0.186254,0.902676,0.38789,0.401288,0.902676,0.155248,-0.643971,0.669851,0.369549,0.722404,0.669851,-0.171422,-0.801477,0.562395,-0.203162,-0.260353,0.7069,-0.657613,0.445174,0.562395,-0.696768,0.302561,-0.703574,0.642964,-0.136174,-0.902676,0.408155,0.417585,-0.902676,0.103732,-0.592578,-0.669851,0.44734,0.695242,-0.669851,-0.260598,-0.820612,-0.562395,-0.101108,-0.340709,-0.7069,-0.6198,0.35432,-0.562395,-0.747063,0.302561,0.703574,0.642964,-0.136174,0.902676,0.408155,0.417585,0.902676,0.103732,-0.592578,0.669851,0.44734,0.695242,0.669851,-0.260598,-0.820612,0.562395,-0.101108,-0.340709,0.7069,-0.6198,0.35432,0.562395,-0.747063,0.380749,-0.703574,0.599963,-0.083926,-0.902676,0.42201,0.42729,-0.902676,0.050569,-0.531816,-0.669851,0.518082,0.657094,-0.669851,-0.345683,-0.826838,-0.562395,0.002503,-0.415723,-0.7069,-0.572192,0.257881,-0.562395,-0.785577,0.380749,0.703574,0.599963,-0.083926,0.902676,0.42201,0.42729,0.902676,0.050569,-0.531816,0.669851,0.518082,0.657094,0.669851,-0.345683,-0.826838,0.562395,0.002503,-0.415723,0.7069,-0.572192,0.257881,0.562395,-0.785577,0.452956,-0.703574,0.547502,-0.030366,-0.902676,0.429212,0.43028,-0.902676,-0.003357,-0.462691,-0.669851,0.580676,0.60857,-0.669851,-0.425336,-0.820002,-0.562426,0.106113,-0.484146,-0.7069,-0.51558,0.157384,-0.562426,-0.811701,0.452956,0.703574,0.547533,-0.030366,0.902676,0.429212,0.43028,0.902676,-0.003357,-0.462691,0.669851,0.580676,0.60857,0.669851,-0.425336,-0.820002,0.562426,0.106113,-0.484146,0.7069,-0.51558,0.157384,0.562426,-0.811701,0.517991,-0.703574,0.486435,0.023621,-0.902676,0.42964,0.426435,-0.902676,-0.057253,-0.386273,-0.669851,0.634083,0.550462,-0.669851,-0.498245,-0.800226,-0.562395,0.208075,-0.544969,-0.7069,-0.450819,0.054415,-0.562395,-0.825037,0.517991,0.703574,0.486435,0.023621,0.902676,0.42964,0.426435,0.902676,-0.057253,-0.386273,0.669851,0.634083,0.550462,0.669851,-0.498245,-0.800226,0.562395,0.208075,-0.544969,0.7069,-0.450819,0.054415,0.562395,-0.825037,0.574877,-0.703574,0.417676,0.077303,-0.902676,0.423292,0.415906,-0.902676,-0.110263,-0.303751,-0.669851,0.67748,0.483688,-0.669851,-0.563311,-0.767846,-0.562395,0.306711,-0.597186,-0.7069,-0.378979,-0.049409,-0.562395,-0.825373,0.574877,0.703574,0.417676,0.077303,0.902676,0.423292,0.415906,0.902676,-0.110263,-0.303751,0.669851,0.67748,0.483688,0.669851,-0.563311,-0.767846,0.562395,0.306711,-0.597186,0.7069,-0.378979,-0.049409,0.562395,-0.825373,0.6227,-0.703574,0.342326,0.129734,-0.902676,0.41026,0.398816,-0.902676,-0.161534,-0.216437,-0.669851,0.710227,0.409253,-0.669851,-0.619495,-0.72335,-0.562395,0.400525,-0.639973,-0.7069,-0.301126,-0.15244,-0.562395,-0.812647,0.6227,0.703574,0.342326,0.129734,0.902676,0.41026,0.398816,0.902676,-0.161534,-0.216437,0.669851,0.710227,0.409253,0.669851,-0.619495,-0.72335,0.562395,0.400525,-0.639973,0.7069,-0.301126,-0.15244,0.562395,-0.812647,0.660695,-0.703574,0.261574,0.18012,-0.902676,0.390759,0.375408,-0.902676,-0.210242,-0.125706,-0.669851,0.731742,0.328379,-0.669851,-0.665914,-0.66744,-0.562395,0.488021,-0.672658,-0.7069,-0.218543,-0.25309,-0.562395,-0.787133,0.660695,0.703574,0.261574,0.18012,0.902676,0.390759,0.375408,0.902676,-0.210242,-0.125706,0.669851,0.731742,0.328379,0.669851,-0.665914,-0.66744,0.562395,0.488021,-0.672658,0.7069,-0.218543,-0.25309,0.562395,-0.787133,0.688253,-0.703574,0.176702,0.227699,-0.902676,0.365093,0.34611,-0.902676,-0.255623,-0.033021,-0.669851,0.741752,0.242347,-0.669851,-0.701804,-0.601001,-0.562395,0.567827,-0.694754,-0.7069,-0.132511,-0.349773,-0.562395,-0.749199,0.688253,0.703574,0.176702,0.227699,0.902676,0.365093,0.34611,0.902676,-0.255623,-0.033021,0.669851,0.741752,0.242347,0.669851,-0.701804,-0.601001,0.562395,0.567827,-0.694754,0.7069,-0.132511,-0.349773,0.562395,-0.749199,0.704978,-0.703574,0.089053,0.271645,-0.902676,0.333689,0.311319,-0.902676,-0.297006,0.060183,-0.669851,0.740043,0.15247,-0.669851,-0.726646,-0.525101,-0.562395,0.638691,-0.705893,-0.7069,-0.044404,-0.440901,-0.562395,-0.699454,0.704978,0.703574,0.089053,0.271645,0.902676,0.333689,0.311319,0.902676,-0.297006,0.060183,0.669851,0.740043,0.15247,0.669851,-0.726646,-0.525101,0.562395,0.638691,-0.705893,0.7069,-0.044404,-0.440901,0.562395,-0.699454],
    "vertices": [0.43,-0.11,0,0.429788,-0.11,-0.013507,0.429152,-0.11,-0.027,0.428092,-0.11,-0.040467,0.9,-0.11,0,0.899556,-0.11,-0.02827,0.898224,-0.11,-0.056511,0.896006,-0.11,-0.084697,0.999507,-0.11,-0.031411,0.998027,-0.11,-0.062791,0.995562,-0.11,-0.094108,1.09771,-0.11,-0.070892,1.09783,-0.11,-0.06907,1.09794,-0.11,-0.067247,0.43,0.11,-0,0.429788,0.11,-0.013507,0.429152,0.11,-0.027,0.428092,0.11,-0.040467,0.9,0.11,-0,0.899556,0.11,-0.02827,0.898224,0.11,-0.056511,0.896006,0.11,-0.084697,0.999507,0.11,-0.031411,0.998027,0.11,-0.062791,0.995562,0.11,-0.094108,1.09771,0.11,-0.070892,1.09783,0.11,-0.06907,1.09794,0.11,-0.067247,0.426609,-0.11,-0.053893,0.424706,-0.11,-0.067267,0.422384,-0.11,-0.080574,0.419644,-0.11,-0.093802,0.892903,-0.11,-0.1128,0.88892,-0.11,-0.140791,0.884059,-0.11,-0.168643,0.878325,-0.11,-0.196329,0.987688,-0.11,-0.156434,0.982287,-0.11,-0.187381,0.975917,-0.11,-0.218143,1.08017,-0.11,-0.207913,1.08052,-0.11,-0.206119,1.08086,-0.11,-0.204325,0.426609,0.11,-0.053893,0.424706,0.11,-0.067267,0.422384,0.11,-0.080574,0.419644,0.11,-0.093802,0.892903,0.11,-0.1128,0.88892,0.11,-0.140791,0.884059,0.11,-0.168643,0.878325,0.11,-0.196329,0.987688,0.11,-0.156434,0.982287,0.11,-0.187381,0.975917,0.11,-0.218143,1.08017,0.11,-0.207913,1.08052,0.11,-0.206119,1.08086,0.11,-0.204325,0.416491,-0.11,-0.106937,0.412926,-0.11,-0.119966,0.408954,-0.11,-0.132877,0.404579,-0.11,-0.145657,0.871725,-0.11,-0.223821,0.864264,-0.11,-0.251092,0.855951,-0.11,-0.278115,0.846793,-0.11,-0.304864,0.960294,-0.11,-0.278991,0.951057,-0.11,-0.309017,0.940881,-0.11,-0.338738,1.0456,-0.11,-0.341655,1.04616,-0.11,-0.339919,1.04672,-0.11,-0.338181,0.416491,0.11,-0.106937,0.412926,0.11,-0.119966,0.408954,0.11,-0.132877,0.404579,0.11,-0.145657,0.871725,0.11,-0.223821,0.864264,0.11,-0.251092,0.855951,0.11,-0.278115,0.846793,0.11,-0.304864,0.960294,0.11,-0.278991,0.951057,0.11,-0.309017,0.940881,0.11,-0.338738,1.0456,0.11,-0.341655,1.04616,0.11,-0.339919,1.04672,0.11,-0.338181,0.399804,-0.11,-0.158294,0.394634,-0.11,-0.170774,0.389076,-0.11,-0.183085,0.383133,-0.11,-0.195216,0.836799,-0.11,-0.331312,0.825979,-0.11,-0.357433,0.814344,-0.11,-0.383201,0.801906,-0.11,-0.408591,0.917755,-0.11,-0.397148,0.904827,-0.11,-0.425779,0.891007,-0.11,-0.45399,0.994531,-0.11,-0.470009,0.99531,-0.11,-0.468357,0.996086,-0.11,-0.466704,0.399804,0.11,-0.158294,0.394634,0.11,-0.170774,0.389076,0.11,-0.183085,0.383133,0.11,-0.195216,0.836799,0.11,-0.331312,0.825979,0.11,-0.357433,0.814344,0.11,-0.383201,0.801906,0.11,-0.408591,0.917755,0.11,-0.397148,0.904827,0.11,-0.425779,0.891007,0.11,-0.45399,0.994531,0.11,-0.470009,0.99531,0.11,-0.468357,0.996086,0.11,-0.466704,0.376812,-0.11,-0.207154,0.370119,-0.11,-0.218888,0.363061,-0.11,-0.230406,0.355645,-0.11,-0.241696,0.788676,-0.11,-0.433578,0.774668,-0.11,-0.458137,0.759895,-0.11,-0.482244,0.744372,-0.11,-0.505875,0.860742,-0.11,-0.509041,0.844328,-0.11,-0.535827,0.827081,-0.11,-0.562083,0.927781,-0.11,-0.590951,0.928761,-0.11,-0.589409,0.929738,-0.11,-0.587867,0.376812,0.11,-0.207154,0.370119,0.11,-0.218888,0.363061,0.11,-0.230406,0.355645,0.11,-0.241696,0.788676,0.11,-0.433578,0.774668,0.11,-0.458137,0.759895,0.11,-0.482244,0.744372,0.11,-0.505875,0.860742,0.11,-0.509041,0.844328,0.11,-0.535827,0.827081,0.11,-0.562083,0.927781,0.11,-0.590951,0.928761,0.11,-0.589409,0.929738,0.11,-0.587867,0.347877,-0.11,-0.252748,0.339767,-0.11,-0.26355,0.331321,-0.11,-0.274092,0.322548,-0.11,-0.284364,0.728115,-0.11,-0.529007,0.71114,-0.11,-0.551616,0.693462,-0.11,-0.573682,0.6751,-0.11,-0.595181,0.790155,-0.11,-0.612907,0.770513,-0.11,-0.637424,0.750111,-0.11,-0.661312,0.846399,-0.11,-0.702573,0.847565,-0.11,-0.701166,0.848727,-0.11,-0.699758,0.347877,0.11,-0.252748,0.339767,0.11,-0.26355,0.331321,0.11,-0.274092,0.322548,0.11,-0.284364,0.728115,0.11,-0.529007,0.71114,0.11,-0.551616,0.693462,0.11,-0.573682,0.6751,0.11,-0.595181,0.790155,0.11,-0.612907,0.770513,0.11,-0.637424,0.750111,0.11,-0.661312,0.846399,0.11,-0.702573,0.847565,0.11,-0.701166,0.848727,0.11,-0.699758,0.313457,-0.11,-0.294355,0.304056,-0.11,-0.304056,0.294355,-0.11,-0.313457,0.284364,-0.11,-0.322548,0.656072,-0.11,-0.616092,0.636396,-0.11,-0.636396,0.616092,-0.11,-0.656072,0.595181,-0.11,-0.6751,0.707107,-0.11,-0.707107,0.684547,-0.11,-0.728969,0.661312,-0.11,-0.750111,0.75167,-0.11,-0.803115,0.753002,-0.11,-0.801866,0.754332,-0.11,-0.800614,0.313457,0.11,-0.294355,0.304056,0.11,-0.304056,0.294355,0.11,-0.313457,0.284364,0.11,-0.322548,0.656072,0.11,-0.616092,0.636396,0.11,-0.636396,0.616092,0.11,-0.656072,0.595181,0.11,-0.6751,0.707107,0.11,-0.707107,0.684547,0.11,-0.728969,0.661312,0.11,-0.750111,0.75167,0.11,-0.803115,0.753002,0.11,-0.801866,0.754332,0.11,-0.800614,0.274092,-0.11,-0.331321,0.26355,-0.11,-0.339767,0.252748,-0.11,-0.347877,0.241696,-0.11,-0.355645,0.573682,-0.11,-0.693462,0.551616,-0.11,-0.71114,0.529007,-0.11,-0.728115,0.505875,-0.11,-0.744372,0.612907,-0.11,-0.790155,0.587785,-0.11,-0.809017,0.562083,-0.11,-0.827081,0.645085,-0.11,-0.890991,0.646564,-0.11,-0.889919,0.64804,-0.11,-0.888844,0.274092,0.11,-0.331321,0.26355,0.11,-0.339767,0.252748,0.11,-0.347877,0.241696,0.11,-0.355645,0.573682,0.11,-0.693462,0.551616,0.11,-0.71114,0.529007,0.11,-0.728115,0.505875,0.11,-0.744372,0.612907,0.11,-0.790155,0.587785,0.11,-0.809017,0.562083,0.11,-0.827081,0.645085,0.11,-0.890991,0.646564,0.11,-0.889919,0.64804,0.11,-0.888844,0.230406,-0.11,-0.363061,0.218888,-0.11,-0.370119,0.207154,-0.11,-0.376812,0.195216,-0.11,-0.383133,0.482244,-0.11,-0.759895,0.458137,-0.11,-0.774668,0.433578,-0.11,-0.788676,0.408591,-0.11,-0.801906,0.509041,-0.11,-0.860742,0.481754,-0.11,-0.876307,0.45399,-0.11,-0.891007,0.528328,-0.11,-0.964816,0.529929,-0.11,-0.963937,0.531529,-0.11,-0.963056,0.230406,0.11,-0.363061,0.218888,0.11,-0.370119,0.207154,0.11,-0.376812,0.195216,0.11,-0.383133,0.482244,0.11,-0.759895,0.458137,0.11,-0.774668,0.433578,0.11,-0.788676,0.408591,0.11,-0.801906,0.509041,0.11,-0.860742,0.481754,0.11,-0.876307,0.45399,0.11,-0.891007,0.528328,0.11,-0.964816,0.529929,0.11,-0.963937,0.531529,0.11,-0.963056,0.183085,-0.11,-0.389076,0.170774,-0.11,-0.394634,0.158294,-0.11,-0.399804,0.145657,-0.11,-0.404579,0.383201,-0.11,-0.814344,0.357433,-0.11,-0.825979,0.331312,-0.11,-0.836799,0.304864,-0.11,-0.846793,0.397148,-0.11,-0.917755,0.368125,-0.11,-0.929776,0.338738,-0.11,-0.940881,0.403238,-0.11,-1.02343,0.404937,-0.11,-1.02275,0.406634,-0.11,-1.02208,0.183085,0.11,-0.389076,0.170774,0.11,-0.394634,0.158294,0.11,-0.399804,0.145657,0.11,-0.404579,0.383201,0.11,-0.814344,0.357433,0.11,-0.825979,0.331312,0.11,-0.836799,0.304864,0.11,-0.846793,0.397148,0.11,-0.917755,0.368125,0.11,-0.929776,0.338738,0.11,-0.940881,0.403238,0.11,-1.02343,0.404937,0.11,-1.02275,0.406634,0.11,-1.02208,0.132877,-0.11,-0.408954,0.119966,-0.11,-0.412926,0.106937,-0.11,-0.416491,0.093802,-0.11,-0.419644,0.278115,-0.11,-0.855951,0.251092,-0.11,-0.864264,0.223821,-0.11,-0.871725,0.196329,-0.11,-0.878325,0.278991,-0.11,-0.960294,0.24869,-0.11,-0.968583,0.218143,-0.11,-0.975917,0.27179,-0.11,-1.06589,0.273559,-0.11,-1.06544,0.275327,-0.11,-1.06499,0.132877,0.11,-0.408954,0.119966,0.11,-0.412926,0.106937,0.11,-0.416491,0.093802,0.11,-0.419644,0.278115,0.11,-0.855951,0.251092,0.11,-0.864264,0.223821,0.11,-0.871725,0.196329,0.11,-0.878325,0.278991,0.11,-0.960294,0.24869,0.11,-0.968583,0.218143,0.11,-0.975917,0.27179,0.11,-1.06589,0.273559,0.11,-1.06544,0.275327,0.11,-1.06499,0.080574,-0.11,-0.422384,0.067267,-0.11,-0.424706,0.053893,-0.11,-0.426609,0.040467,-0.11,-0.428092,0.168643,-0.11,-0.884059,0.140791,-0.11,-0.88892,0.1128,-0.11,-0.892903,0.084697,-0.11,-0.896006,0.156434,-0.11,-0.987688,0.125333,-0.11,-0.992115,0.094108,-0.11,-0.995562,0.136055,-0.11,-1.09155,0.137867,-0.11,-1.09133,0.139678,-0.11,-1.0911,0.080574,0.11,-0.422384,0.067267,0.11,-0.424706,0.053893,0.11,-0.426609,0.040467,0.11,-0.428092,0.168643,0.11,-0.884059,0.140791,0.11,-0.88892,0.1128,0.11,-0.892903,0.084697,0.11,-0.896006,0.156434,0.11,-0.987688,0.125333,0.11,-0.992115,0.094108,0.11,-0.995562,0.136055,0.11,-1.09155,0.137867,0.11,-1.09133,0.139678,0.11,-1.0911,0.027,-0.11,-0.429152,0.013507,-0.11,-0.429788,-0,-0.11,-0.43,-0.013507,-0.11,-0.429788,0.056511,-0.11,-0.898224,0.02827,-0.11,-0.899556,-0,-0.11,-0.9,-0.02827,-0.11,-0.899556,0.031411,-0.11,-0.999507,-0,-0.11,-1,-0.031411,-0.11,-0.999507,-0.001826,-0.11,-1.1,-0,-0.11,-1.1,0.001826,-0.11,-1.1,0.027,0.11,-0.429152,0.013507,0.11,-0.429788,-0,0.11,-0.43,-0.013507,0.11,-0.429788,0.056511,0.11,-0.898224,0.02827,0.11,-0.899556,-0,0.11,-0.9,-0.02827,0.11,-0.899556,0.031411,0.11,-0.999507,-0,0.11,-1,-0.031411,0.11,-0.999507,-0.001826,0.11,-1.1,-0,0.11,-1.1,0.001826,0.11,-1.1,-0.027,-0.11,-0.429152,-0.040467,-0.11,-0.428092,-0.053893,-0.11,-0.426609,-0.067267,-0.11,-0.424706,-0.056511,-0.11,-0.898224,-0.084697,-0.11,-0.896006,-0.1128,-0.11,-0.892903,-0.140791,-0.11,-0.88892,-0.094108,-0.11,-0.995562,-0.125333,-0.11,-0.992115,-0.156434,-0.11,-0.987688,-0.139678,-0.11,-1.0911,-0.137867,-0.11,-1.09133,-0.136055,-0.11,-1.09155,-0.027,0.11,-0.429152,-0.040467,0.11,-0.428092,-0.053893,0.11,-0.426609,-0.067267,0.11,-0.424706,-0.056511,0.11,-0.898224,-0.084697,0.11,-0.896006,-0.1128,0.11,-0.892903,-0.140791,0.11,-0.88892,-0.094108,0.11,-0.995562,-0.125333,0.11,-0.992115,-0.156434,0.11,-0.987688,-0.139678,0.11,-1.0911,-0.137867,0.11,-1.09133,-0.136055,0.11,-1.09155,-0.080574,-0.11,-0.422384,-0.093802,-0.11,-0.419644,-0.106937,-0.11,-0.416491,-0.119966,-0.11,-0.412926,-0.168643,-0.11,-0.884059,-0.196329,-0.11,-0.878325,-0.223821,-0.11,-0.871725,-0.251092,-0.11,-0.864264,-0.218143,-0.11,-0.975917,-0.24869,-0.11,-0.968583,-0.278991,-0.11,-0.960294,-0.275327,-0.11,-1.06499,-0.273559,-0.11,-1.06544,-0.27179,-0.11,-1.06589,-0.080574,0.11,-0.422384,-0.093802,0.11,-0.419644,-0.106937,0.11,-0.416491,-0.119966,0.11,-0.412926,-0.168643,0.11,-0.884059,-0.196329,0.11,-0.878325,-0.223821,0.11,-0.871725,-0.251092,0.11,-0.864264,-0.218143,0.11,-0.975917,-0.24869,0.11,-0.968583,-0.278991,0.11,-0.960294,-0.275327,0.11,-1.06499,-0.273559,0.11,-1.06544,-0.27179,0.11,-1.06589,-0.132877,-0.11,-0.408954,-0.145657,-0.11,-0.404579,-0.158294,-0.11,-0.399804,-0.170774,-0.11,-0.394634,-0.278115,-0.11,-0.855951,-0.304864,-0.11,-0.846793,-0.331312,-0.11,-0.836799,-0.357433,-0.11,-0.825979,-0.338738,-0.11,-0.940881,-0.368125,-0.11,-0.929776,-0.397148,-0.11,-0.917755,-0.406634,-0.11,-1.02208,-0.404937,-0.11,-1.02275,-0.403238,-0.11,-1.02343,-0.132877,0.11,-0.408954,-0.145657,0.11,-0.404579,-0.158294,0.11,-0.399804,-0.170774,0.11,-0.394634,-0.278115,0.11,-0.855951,-0.304864,0.11,-0.846793,-0.331312,0.11,-0.836799,-0.357433,0.11,-0.825979,-0.338738,0.11,-0.940881,-0.368125,0.11,-0.929776,-0.397148,0.11,-0.917755,-0.406634,0.11,-1.02208,-0.404937,0.11,-1.02275,-0.403238,0.11,-1.02343,-0.183085,-0.11,-0.389076,-0.195216,-0.11,-0.383133,-0.207154,-0.11,-0.376812,-0.218888,-0.11,-0.370119,-0.383201,-0.11,-0.814344,-0.408591,-0.11,-0.801906,-0.433578,-0.11,-0.788676,-0.458137,-0.11,-0.774668,-0.45399,-0.11,-0.891007,-0.481754,-0.11,-0.876307,-0.509041,-0.11,-0.860742,-0.531529,-0.11,-0.963056,-0.529929,-0.11,-0.963937,-0.528328,-0.11,-0.964816,-0.183085,0.11,-0.389076,-0.195216,0.11,-0.383133,-0.207154,0.11,-0.376812,-0.218888,0.11,-0.370119,-0.383201,0.11,-0.814344,-0.408591,0.11,-0.801906,-0.433578,0.11,-0.788676,-0.458137,0.11,-0.774668,-0.45399,0.11,-0.891007,-0.481754,0.11,-0.876307,-0.509041,0.11,-0.860742,-0.531529,0.11,-0.963056,-0.529929,0.11,-0.963937,-0.528328,0.11,-0.964816,-0.230406,-0.11,-0.363061,-0.241696,-0.11,-0.355645,-0.252748,-0.11,-0.347877,-0.26355,-0.11,-0.339767,-0.482244,-0.11,-0.759895,-0.505875,-0.11,-0.744372,-0.529007,-0.11,-0.728115,-0.551616,-0.11,-0.71114,-0.562083,-0.11,-0.827081,-0.587785,-0.11,-0.809017,-0.612907,-0.11,-0.790155,-0.64804,-0.11,-0.888844,-0.646564,-0.11,-0.889919,-0.645085,-0.11,-0.890991,-0.230406,0.11,-0.363061,-0.241696,0.11,-0.355645,-0.252748,0.11,-0.347877,-0.26355,0.11,-0.339767,-0.482244,0.11,-0.759895,-0.505875,0.11,-0.744372,-0.529007,0.11,-0.728115,-0.551616,0.11,-0.71114,-0.562083,0.11,-0.827081,-0.587785,0.11,-0.809017,-0.612907,0.11,-0.790155,-0.64804,0.11,-0.888844,-0.646564,0.11,-0.889919,-0.645085,0.11,-0.890991,-0.274092,-0.11,-0.331321,-0.284364,-0.11,-0.322548,-0.294355,-0.11,-0.313457,-0.304056,-0.11,-0.304056,-0.573682,-0.11,-0.693462,-0.595181,-0.11,-0.6751,-0.616092,-0.11,-0.656072,-0.636396,-0.11,-0.636396,-0.661312,-0.11,-0.750111,-0.684547,-0.11,-0.728969,-0.707107,-0.11,-0.707107,-0.754332,-0.11,-0.800614,-0.753002,-0.11,-0.801866,-0.75167,-0.11,-0.803115,-0.274092,0.11,-0.331321,-0.284364,0.11,-0.322548,-0.294355,0.11,-0.313457,-0.304056,0.11,-0.304056,-0.573682,0.11,-0.693462,-0.595181,0.11,-0.6751,-0.616092,0.11,-0.656072,-0.636396,0.11,-0.636396,-0.661312,0.11,-0.750111,-0.684547,0.11,-0.728969,-0.707107,0.11,-0.707107,-0.754332,0.11,-0.800614,-0.753002,0.11,-0.801866,-0.75167,0.11,-0.803115,-0.313457,-0.11,-0.294355,-0.322548,-0.11,-0.284364,-0.331321,-0.11,-0.274092,-0.339767,-0.11,-0.26355,-0.656072,-0.11,-0.616092,-0.6751,-0.11,-0.595181,-0.693462,-0.11,-0.573682,-0.71114,-0.11,-0.551616,-0.750111,-0.11,-0.661312,-0.770513,-0.11,-0.637424,-0.790155,-0.11,-0.612907,-0.848727,-0.11,-0.699758,-0.847565,-0.11,-0.701166,-0.846399,-0.11,-0.702573,-0.313457,0.11,-0.294355,-0.322548,0.11,-0.284364,-0.331321,0.11,-0.274092,-0.339767,0.11,-0.26355,-0.656072,0.11,-0.616092,-0.6751,0.11,-0.595181,-0.693462,0.11,-0.573682,-0.71114,0.11,-0.551616,-0.750111,0.11,-0.661312,-0.770513,0.11,-0.637424,-0.790155,0.11,-0.612907,-0.848727,0.11,-0.699758,-0.847565,0.11,-0.701166,-0.846399,0.11,-0.702573,-0.347877,-0.11,-0.252748,-0.355645,-0.11,-0.241696,-0.363061,-0.11,-0.230406,-0.370119,-0.11,-0.218888,-0.728115,-0.11,-0.529007,-0.744372,-0.11,-0.505875,-0.759895,-0.11,-0.482244,-0.774668,-0.11,-0.458137,-0.827081,-0.11,-0.562083,-0.844328,-0.11,-0.535827,-0.860742,-0.11,-0.509041,-0.929738,-0.11,-0.587867,-0.928761,-0.11,-0.589409,-0.927781,-0.11,-0.590951,-0.347877,0.11,-0.252748,-0.355645,0.11,-0.241696,-0.363061,0.11,-0.230406,-0.370119,0.11,-0.218888,-0.728115,0.11,-0.529007,-0.744372,0.11,-0.505875,-0.759895,0.11,-0.482244,-0.774668,0.11,-0.458137,-0.827081,0.11,-0.562083,-0.844328,0.11,-0.535827,-0.860742,0.11,-0.509041,-0.929738,0.11,-0.587867,-0.928761,0.11,-0.589409,-0.927781,0.11,-0.590951,-0.376812,-0.11,-0.207154,-0.383133,-0.11,-0.195216,-0.389076,-0.11,-0.183085,-0.394634,-0.11,-0.170774,-0.788676,-0.11,-0.433578,-0.801906,-0.11,-0.408591,-0.814344,-0.11,-0.383201,-0.825979,-0.11,-0.357433,-0.891007,-0.11,-0.45399,-0.904827,-0.11,-0.425779,-0.917755,-0.11,-0.397148,-0.996086,-0.11,-0.466704,-0.99531,-0.11,-0.468357,-0.994531,-0.11,-0.470009,-0.376812,0.11,-0.207154,-0.383133,0.11,-0.195216,-0.389076,0.11,-0.183085,-0.394634,0.11,-0.170774,-0.788676,0.11,-0.433578,-0.801906,0.11,-0.408591,-0.814344,0.11,-0.383201,-0.825979,0.11,-0.357433,-0.891007,0.11,-0.45399,-0.904827,0.11,-0.425779,-0.917755,0.11,-0.397148,-0.996086,0.11,-0.466704,-0.99531,0.11,-0.468357,-0.994531,0.11,-0.470009,-0.399804,-0.11,-0.158294,-0.404579,-0.11,-0.145657,-0.408954,-0.11,-0.132877,-0.412926,-0.11,-0.119966,-0.836799,-0.11,-0.331312,-0.846793,-0.11,-0.304864,-0.855951,-0.11,-0.278115,-0.864264,-0.11,-0.251092,-0.940881,-0.11,-0.338738,-0.951057,-0.11,-0.309017,-0.960294,-0.11,-0.278991,-1.04672,-0.11,-0.338181,-1.04616,-0.11,-0.339919,-1.0456,-0.11,-0.341655,-0.399804,0.11,-0.158294,-0.404579,0.11,-0.145657,-0.408954,0.11,-0.132877,-0.412926,0.11,-0.119966,-0.836799,0.11,-0.331312,-0.846793,0.11,-0.304864,-0.855951,0.11,-0.278115,-0.864264,0.11,-0.251092,-0.940881,0.11,-0.338738,-0.951057,0.11,-0.309017,-0.960294,0.11,-0.278991,-1.04672,0.11,-0.338181,-1.04616,0.11,-0.339919,-1.0456,0.11,-0.341655,-0.416491,-0.11,-0.106937,-0.419644,-0.11,-0.093802,-0.422384,-0.11,-0.080574,-0.424706,-0.11,-0.067267,-0.871725,-0.11,-0.223821,-0.878325,-0.11,-0.196329,-0.884059,-0.11,-0.168643,-0.88892,-0.11,-0.140791,-0.975917,-0.11,-0.218143,-0.982287,-0.11,-0.187381,-0.987688,-0.11,-0.156434,-1.08086,-0.11,-0.204325,-1.08052,-0.11,-0.206119,-1.08017,-0.11,-0.207913,-0.416491,0.11,-0.106937,-0.419644,0.11,-0.093802,-0.422384,0.11,-0.080574,-0.424706,0.11,-0.067267,-0.871725,0.11,-0.223821,-0.878325,0.11,-0.196329,-0.884059,0.11,-0.168643,-0.88892,0.11,-0.140791,-0.975917,0.11,-0.218143,-0.982287,0.11,-0.187381,-0.987688,0.11,-0.156434,-1.08086,0.11,-0.204325,-1.08052,0.11,-0.206119,-1.08017,0.11,-0.207913,-0.426609,-0.11,-0.053893,-0.428092,-0.11,-0.040467,-0.429152,-0.11,-0.027,-0.429788,-0.11,-0.013507,-0.892903,-0.11,-0.1128,-0.896006,-0.11,-0.084697,-0.898224,-0.11,-0.056511,-0.899556,-0.11,-0.02827,-0.995562,-0.11,-0.094108,-0.998027,-0.11,-0.062791,-0.999507,-0.11,-0.031411,-1.09794,-0.11,-0.067247,-1.09783,-0.11,-0.06907,-1.09771,-0.11,-0.070892,-0.426609,0.11,-0.053893,-0.428092,0.11,-0.040467,-0.429152,0.11,-0.027,-0.429788,0.11,-0.013507,-0.892903,0.11,-0.1128,-0.896006,0.11,-0.084697,-0.898224,0.11,-0.056511,-0.899556,0.11,-0.02827,-0.995562,0.11,-0.094108,-0.998027,0.11,-0.062791,-0.999507,0.11,-0.031411,-1.09794,0.11,-0.067247,-1.09783,0.11,-0.06907,-1.09771,0.11,-0.070892,-0.43,-0.11,0,-0.429788,-0.11,0.013507,-0.429152,-0.11,0.027,-0.428092,-0.11,0.040467,-0.9,-0.11,0,-0.899556,-0.11,0.02827,-0.898224,-0.11,0.056511,-0.896006,-0.11,0.084697,-0.999507,-0.11,0.031411,-0.998027,-0.11,0.062791,-0.995562,-0.11,0.094108,-1.09771,-0.11,0.070892,-1.09783,-0.11,0.06907,-1.09794,-0.11,0.067247,-0.43,0.11,-0,-0.429788,0.11,0.013507,-0.429152,0.11,0.027,-0.428092,0.11,0.040467,-0.9,0.11,-0,-0.899556,0.11,0.02827,-0.898224,0.11,0.056511,-0.896006,0.11,0.084697,-0.999507,0.11,0.031411,-0.998027,0.11,0.062791,-0.995562,0.11,0.094108,-1.09771,0.11,0.070892,-1.09783,0.11,0.06907,-1.09794,0.11,0.067247,-0.426609,-0.11,0.053893,-0.424706,-0.11,0.067267,-0.422384,-0.11,0.080574,-0.419644,-0.11,0.093802,-0.892903,-0.11,0.1128,-0.88892,-0.11,0.140791,-0.884059,-0.11,0.168643,-0.878325,-0.11,0.196329,-0.987688,-0.11,0.156434,-0.982287,-0.11,0.187381,-0.975917,-0.11,0.218143,-1.08017,-0.11,0.207913,-1.08052,-0.11,0.206119,-1.08086,-0.11,0.204325,-0.426609,0.11,0.053893,-0.424706,0.11,0.067267,-0.422384,0.11,0.080574,-0.419644,0.11,0.093802,-0.892903,0.11,0.1128,-0.88892,0.11,0.140791,-0.884059,0.11,0.168643,-0.878325,0.11,0.196329,-0.987688,0.11,0.156434,-0.982287,0.11,0.187381,-0.975917,0.11,0.218143,-1.08017,0.11,0.207913,-1.08052,0.11,0.206119,-1.08086,0.11,0.204325,-0.416491,-0.11,0.106937,-0.412926,-0.11,0.119966,-0.408954,-0.11,0.132877,-0.404579,-0.11,0.145657,-0.871725,-0.11,0.223821,-0.864264,-0.11,0.251092,-0.855951,-0.11,0.278115,-0.846793,-0.11,0.304864,-0.960294,-0.11,0.278991,-0.951057,-0.11,0.309017,-0.940881,-0.11,0.338738,-1.0456,-0.11,0.341655,-1.04616,-0.11,0.339919,-1.04672,-0.11,0.338181,-0.416491,0.11,0.106937,-0.412926,0.11,0.119966,-0.408954,0.11,0.132877,-0.404579,0.11,0.145657,-0.871725,0.11,0.223821,-0.864264,0.11,0.251092,-0.855951,0.11,0.278115,-0.846793,0.11,0.304864,-0.960294,0.11,0.278991,-0.951057,0.11,0.309017,-0.940881,0.11,0.338738,-1.0456,0.11,0.341655,-1.04616,0.11,0.339919,-1.04672,0.11,0.338181,-0.399804,-0.11,0.158294,-0.394634,-0.11,0.170774,-0.389076,-0.11,0.183085,-0.383133,-0.11,0.195216,-0.836799,-0.11,0.331312,-0.825979,-0.11,0.357433,-0.814344,-0.11,0.383201,-0.801906,-0.11,0.408591,-0.917755,-0.11,0.397148,-0.904827,-0.11,0.425779,-0.891007,-0.11,0.45399,-0.994531,-0.11,0.470009,-0.99531,-0.11,0.468357,-0.996086,-0.11,0.466704,-0.399804,0.11,0.158294,-0.394634,0.11,0.170774,-0.389076,0.11,0.183085,-0.383133,0.11,0.195216,-0.836799,0.11,0.331312,-0.825979,0.11,0.357433,-0.814344,0.11,0.383201,-0.801906,0.11,0.408591,-0.917755,0.11,0.397148,-0.904827,0.11,0.425779,-0.891007,0.11,0.45399,-0.994531,0.11,0.470009,-0.99531,0.11,0.468357,-0.996086,0.11,0.466704,-0.376812,-0.11,0.207154,-0.370119,-0.11,0.218888,-0.363061,-0.11,0.230406,-0.355645,-0.11,0.241696,-0.788676,-0.11,0.433578,-0.774668,-0.11,0.458137,-0.759895,-0.11,0.482244,-0.744372,-0.11,0.505875,-0.860742,-0.11,0.509041,-0.844328,-0.11,0.535827,-0.827081,-0.11,0.562083,-0.927781,-0.11,0.590951,-0.928761,-0.11,0.589409,-0.929738,-0.11,0.587867,-0.376812,0.11,0.207154,-0.370119,0.11,0.218888,-0.363061,0.11,0.230406,-0.355645,0.11,0.241696,-0.788676,0.11,0.433578,-0.774668,0.11,0.458137,-0.759895,0.11,0.482244,-0.744372,0.11,0.505875,-0.860742,0.11,0.509041,-0.844328,0.11,0.535827,-0.827081,0.11,0.562083,-0.927781,0.11,0.590951,-0.928761,0.11,0.589409,-0.929738,0.11,0.587867,-0.347877,-0.11,0.252748,-0.339767,-0.11,0.26355,-0.331321,-0.11,0.274092,-0.322548,-0.11,0.284364,-0.728115,-0.11,0.529007,-0.71114,-0.11,0.551616,-0.693462,-0.11,0.573682,-0.6751,-0.11,0.595181,-0.790155,-0.11,0.612907,-0.770513,-0.11,0.637424,-0.750111,-0.11,0.661312,-0.846399,-0.11,0.702573,-0.847565,-0.11,0.701166,-0.848727,-0.11,0.699758,-0.347877,0.11,0.252748,-0.339767,0.11,0.26355,-0.331321,0.11,0.274092,-0.322548,0.11,0.284364,-0.728115,0.11,0.529007,-0.71114,0.11,0.551616,-0.693462,0.11,0.573682,-0.6751,0.11,0.595181,-0.790155,0.11,0.612907,-0.770513,0.11,0.637424,-0.750111,0.11,0.661312,-0.846399,0.11,0.702573,-0.847565,0.11,0.701166,-0.848727,0.11,0.699758,-0.313457,-0.11,0.294355,-0.304056,-0.11,0.304056,-0.294355,-0.11,0.313457,-0.284364,-0.11,0.322548,-0.656072,-0.11,0.616092,-0.636396,-0.11,0.636396,-0.616092,-0.11,0.656072,-0.595181,-0.11,0.6751,-0.707107,-0.11,0.707107,-0.684547,-0.11,0.728969,-0.661312,-0.11,0.750111,-0.75167,-0.11,0.803115,-0.753002,-0.11,0.801866,-0.754332,-0.11,0.800614,-0.313457,0.11,0.294355,-0.304056,0.11,0.304056,-0.294355,0.11,0.313457,-0.284364,0.11,0.322548,-0.656072,0.11,0.616092,-0.636396,0.11,0.636396,-0.616092,0.11,0.656072,-0.595181,0.11,0.6751,-0.707107,0.11,0.707107,-0.684547,0.11,0.728969,-0.661312,0.11,0.750111,-0.75167,0.11,0.803115,-0.753002,0.11,0.801866,-0.754332,0.11,0.800614,-0.274092,-0.11,0.331321,-0.26355,-0.11,0.339767,-0.252748,-0.11,0.347877,-0.241696,-0.11,0.355645,-0.573682,-0.11,0.693462,-0.551616,-0.11,0.71114,-0.529007,-0.11,0.728115,-0.505875,-0.11,0.744372,-0.612907,-0.11,0.790155,-0.587785,-0.11,0.809017,-0.562083,-0.11,0.827081,-0.645085,-0.11,0.890991,-0.646564,-0.11,0.889919,-0.64804,-0.11,0.888844,-0.274092,0.11,0.331321,-0.26355,0.11,0.339767,-0.252748,0.11,0.347877,-0.241696,0.11,0.355645,-0.573682,0.11,0.693462,-0.551616,0.11,0.71114,-0.529007,0.11,0.728115,-0.505875,0.11,0.744372,-0.612907,0.11,0.790155,-0.587785,0.11,0.809017,-0.562083,0.11,0.827081,-0.645085,0.11,0.890991,-0.646564,0.11,0.889919,-0.64804,0.11,0.888844,-0.230406,-0.11,0.363061,-0.218888,-0.11,0.370119,-0.207154,-0.11,0.376812,-0.195216,-0.11,0.383133,-0.482244,-0.11,0.759895,-0.458137,-0.11,0.774668,-0.433578,-0.11,0.788676,-0.408591,-0.11,0.801906,-0.509041,-0.11,0.860742,-0.481754,-0.11,0.876307,-0.45399,-0.11,0.891007,-0.528328,-0.11,0.964816,-0.529929,-0.11,0.963937,-0.531529,-0.11,0.963056,-0.230406,0.11,0.363061,-0.218888,0.11,0.370119,-0.207154,0.11,0.376812,-0.195216,0.11,0.383133,-0.482244,0.11,0.759895,-0.458137,0.11,0.774668,-0.433578,0.11,0.788676,-0.408591,0.11,0.801906,-0.509041,0.11,0.860742,-0.481754,0.11,0.876307,-0.45399,0.11,0.891007,-0.528328,0.11,0.964816,-0.529929,0.11,0.963937,-0.531529,0.11,0.963056,-0.183085,-0.11,0.389076,-0.170774,-0.11,0.394634,-0.158294,-0.11,0.399804,-0.145657,-0.11,0.404579,-0.383201,-0.11,0.814344,-0.357433,-0.11,0.825979,-0.331312,-0.11,0.836799,-0.304864,-0.11,0.846793,-0.397148,-0.11,0.917755,-0.368125,-0.11,0.929776,-0.338738,-0.11,0.940881,-0.403238,-0.11,1.02343,-0.404937,-0.11,1.02275,-0.406634,-0.11,1.02208,-0.183085,0.11,0.389076,-0.170774,0.11,0.394634,-0.158294,0.11,0.399804,-0.145657,0.11,0.404579,-0.383201,0.11,0.814344,-0.357433,0.11,0.825979,-0.331312,0.11,0.836799,-0.304864,0.11,0.846793,-0.397148,0.11,0.917755,-0.368125,0.11,0.929776,-0.338738,0.11,0.940881,-0.403238,0.11,1.02343,-0.404937,0.11,1.02275,-0.406634,0.11,1.02208,-0.132877,-0.11,0.408954,-0.119966,-0.11,0.412926,-0.106937,-0.11,0.416491,-0.093802,-0.11,0.419644,-0.278115,-0.11,0.855951,-0.251092,-0.11,0.864264,-0.223821,-0.11,0.871725,-0.196329,-0.11,0.878325,-0.278991,-0.11,0.960294,-0.24869,-0.11,0.968583,-0.218143,-0.11,0.975917,-0.27179,-0.11,1.06589,-0.273559,-0.11,1.06544,-0.275327,-0.11,1.06499,-0.132877,0.11,0.408954,-0.119966,0.11,0.412926,-0.106937,0.11,0.416491,-0.093802,0.11,0.419644,-0.278115,0.11,0.855951,-0.251092,0.11,0.864264,-0.223821,0.11,0.871725,-0.196329,0.11,0.878325,-0.278991,0.11,0.960294,-0.24869,0.11,0.968583,-0.218143,0.11,0.975917,-0.27179,0.11,1.06589,-0.273559,0.11,1.06544,-0.275327,0.11,1.06499,-0.080574,-0.11,0.422384,-0.067267,-0.11,0.424706,-0.053893,-0.11,0.426609,-0.040467,-0.11,0.428092,-0.168643,-0.11,0.884059,-0.140791,-0.11,0.88892,-0.1128,-0.11,0.892903,-0.084697,-0.11,0.896006,-0.156434,-0.11,0.987688,-0.125333,-0.11,0.992115,-0.094108,-0.11,0.995562,-0.136055,-0.11,1.09155,-0.137867,-0.11,1.09133,-0.139678,-0.11,1.0911,-0.080574,0.11,0.422384,-0.067267,0.11,0.424706,-0.053893,0.11,0.426609,-0.040467,0.11,0.428092,-0.168643,0.11,0.884059,-0.140791,0.11,0.88892,-0.1128,0.11,0.892903,-0.084697,0.11,0.896006,-0.156434,0.11,0.987688,-0.125333,0.11,0.992115,-0.094108,0.11,0.995562,-0.136055,0.11,1.09155,-0.137867,0.11,1.09133,-0.139678,0.11,1.0911,-0.027,-0.11,0.429152,-0.013507,-0.11,0.429788,-0,-0.11,0.43,0.013507,-0.11,0.429788,-0.056511,-0.11,0.898224,-0.02827,-0.11,0.899556,-0,-0.11,0.9,0.02827,-0.11,0.899556,-0.031411,-0.11,0.999507,-0,-0.11,1,0.031411,-0.11,0.999507,0.001826,-0.11,1.1,-0,-0.11,1.1,-0.001826,-0.11,1.1,-0.027,0.11,0.429152,-0.013507,0.11,0.429788,-0,0.11,0.43,0.013507,0.11,0.429788,-0.056511,0.11,0.898224,-0.02827,0.11,0.899556,-0,0.11,0.9,0.02827,0.11,0.899556,-0.031411,0.11,0.999507,-0,0.11,1,0.031411,0.11,0.999507,0.001826,0.11,1.1,-0,0.11,1.1,-0.001826,0.11,1.1,0.027,-0.11,0.429152,0.040467,-0.11,0.428092,0.053893,-0.11,0.426609,0.067267,-0.11,0.424706,0.056511,-0.11,0.898224,0.084697,-0.11,0.896006,0.1128,-0.11,0.892903,0.140791,-0.11,0.88892,0.094108,-0.11,0.995562,0.125333,-0.11,0.992115,0.156434,-0.11,0.987688,0.139678,-0.11,1.0911,0.137867,-0.11,1.09133,0.136055,-0.11,1.09155,0.027,0.11,0.429152,0.040467,0.11,0.428092,0.053893,0.11,0.426609,0.067267,0.11,0.424706,0.056511,0.11,0.898224,0.084697,0.11,0.896006,0.1128,0.11,0.892903,0.140791,0.11,0.88892,0.094108,0.11,0.995562,0.125333,0.11,0.992115,0.156434,0.11,0.987688,0.139678,0.11,1.0911,0.137867,0.11,1.09133,0.136055,0.11,1.09155,0.080574,-0.11,0.422384,0.093802,-0.11,0.419644,0.106937,-0.11,0.416491,0.119966,-0.11,0.412926,0.168643,-0.11,0.884059,0.196329,-0.11,0.878325,0.223821,-0.11,0.871725,0.251092,-0.11,0.864264,0.218143,-0.11,0.975917,0.24869,-0.11,0.968583,0.278991,-0.11,0.960294,0.275327,-0.11,1.06499,0.273559,-0.11,1.06544,0.27179,-0.11,1.06589,0.080574,0.11,0.422384,0.093802,0.11,0.419644,0.106937,0.11,0.416491,0.119966,0.11,0.412926,0.168643,0.11,0.884059,0.196329,0.11,0.878325,0.223821,0.11,0.871725,0.251092,0.11,0.864264,0.218143,0.11,0.975917,0.24869,0.11,0.968583,0.278991,0.11,0.960294,0.275327,0.11,1.06499,0.273559,0.11,1.06544,0.27179,0.11,1.06589,0.132877,-0.11,0.408954,0.145657,-0.11,0.404579,0.158294,-0.11,0.399804,0.170774,-0.11,0.394634,0.278115,-0.11,0.855951,0.304864,-0.11,0.846793,0.331312,-0.11,0.836799,0.357433,-0.11,0.825979,0.338738,-0.11,0.940881,0.368125,-0.11,0.929776,0.397148,-0.11,0.917755,0.406634,-0.11,1.02208,0.404937,-0.11,1.02275,0.403238,-0.11,1.02343,0.132877,0.11,0.408954,0.145657,0.11,0.404579,0.158294,0.11,0.399804,0.170774,0.11,0.394634,0.278115,0.11,0.855951,0.304864,0.11,0.846793,0.331312,0.11,0.836799,0.357433,0.11,0.825979,0.338738,0.11,0.940881,0.368125,0.11,0.929776,0.397148,0.11,0.917755,0.406634,0.11,1.02208,0.404937,0.11,1.02275,0.403238,0.11,1.02343,0.183085,-0.11,0.389076,0.195216,-0.11,0.383133,0.207154,-0.11,0.376812,0.218888,-0.11,0.370119,0.383201,-0.11,0.814344,0.408591,-0.11,0.801906,0.433578,-0.11,0.788676,0.458137,-0.11,0.774668,0.45399,-0.11,0.891007,0.481754,-0.11,0.876307,0.509041,-0.11,0.860742,0.531529,-0.11,0.963056,0.529929,-0.11,0.963937,0.528328,-0.11,0.964816,0.183085,0.11,0.389076,0.195216,0.11,0.383133,0.207154,0.11,0.376812,0.218888,0.11,0.370119,0.383201,0.11,0.814344,0.408591,0.11,0.801906,0.433578,0.11,0.788676,0.458137,0.11,0.774668,0.45399,0.11,0.891007,0.481754,0.11,0.876307,0.509041,0.11,0.860742,0.531529,0.11,0.963056,0.529929,0.11,0.963937,0.528328,0.11,0.964816,0.230406,-0.11,0.363061,0.241696,-0.11,0.355645,0.252748,-0.11,0.347877,0.26355,-0.11,0.339767,0.482244,-0.11,0.759895,0.505875,-0.11,0.744372,0.529007,-0.11,0.728115,0.551616,-0.11,0.71114,0.562083,-0.11,0.827081,0.587785,-0.11,0.809017,0.612907,-0.11,0.790155,0.64804,-0.11,0.888844,0.646564,-0.11,0.889919,0.645085,-0.11,0.890991,0.230406,0.11,0.363061,0.241696,0.11,0.355645,0.252748,0.11,0.347877,0.26355,0.11,0.339767,0.482244,0.11,0.759895,0.505875,0.11,0.744372,0.529007,0.11,0.728115,0.551616,0.11,0.71114,0.562083,0.11,0.827081,0.587785,0.11,0.809017,0.612907,0.11,0.790155,0.64804,0.11,0.888844,0.646564,0.11,0.889919,0.645085,0.11,0.890991,0.274092,-0.11,0.331321,0.284364,-0.11,0.322548,0.294355,-0.11,0.313457,0.304056,-0.11,0.304056,0.573682,-0.11,0.693462,0.595181,-0.11,0.6751,0.616092,-0.11,0.656072,0.636396,-0.11,0.636396,0.661312,-0.11,0.750111,0.684547,-0.11,0.728969,0.707107,-0.11,0.707107,0.754332,-0.11,0.800614,0.753002,-0.11,0.801866,0.75167,-0.11,0.803115,0.274092,0.11,0.331321,0.284364,0.11,0.322548,0.294355,0.11,0.313457,0.304056,0.11,0.304056,0.573682,0.11,0.693462,0.595181,0.11,0.6751,0.616092,0.11,0.656072,0.636396,0.11,0.636396,0.661312,0.11,0.750111,0.684547,0.11,0.728969,0.707107,0.11,0.707107,0.754332,0.11,0.800614,0.753002,0.11,0.801866,0.75167,0.11,0.803115,0.313457,-0.11,0.294355,0.322548,-0.11,0.284364,0.331321,-0.11,0.274092,0.339767,-0.11,0.26355,0.656072,-0.11,0.616092,0.6751,-0.11,0.595181,0.693462,-0.11,0.573682,0.71114,-0.11,0.551616,0.750111,-0.11,0.661312,0.770513,-0.11,0.637424,0.790155,-0.11,0.612907,0.848727,-0.11,0.699758,0.847565,-0.11,0.701166,0.846399,-0.11,0.702573,0.313457,0.11,0.294355,0.322548,0.11,0.284364,0.331321,0.11,0.274092,0.339767,0.11,0.26355,0.656072,0.11,0.616092,0.6751,0.11,0.595181,0.693462,0.11,0.573682,0.71114,0.11,0.551616,0.750111,0.11,0.661312,0.770513,0.11,0.637424,0.790155,0.11,0.612907,0.848727,0.11,0.699758,0.847565,0.11,0.701166,0.846399,0.11,0.702573,0.347877,-0.11,0.252748,0.355645,-0.11,0.241696,0.363061,-0.11,0.230406,0.370119,-0.11,0.218888,0.728115,-0.11,0.529007,0.744372,-0.11,0.505875,0.759895,-0.11,0.482244,0.774668,-0.11,0.458137,0.827081,-0.11,0.562083,0.844328,-0.11,0.535827,0.860742,-0.11,0.509041,0.929738,-0.11,0.587867,0.928761,-0.11,0.589409,0.927781,-0.11,0.590951,0.347877,0.11,0.252748,0.355645,0.11,0.241696,0.363061,0.11,0.230406,0.370119,0.11,0.218888,0.728115,0.11,0.529007,0.744372,0.11,0.505875,0.759895,0.11,0.482244,0.774668,0.11,0.458137,0.827081,0.11,0.562083,0.844328,0.11,0.535827,0.860742,0.11,0.509041,0.929738,0.11,0.587867,0.928761,0.11,0.589409,0.927781,0.11,0.590951,0.376812,-0.11,0.207154,0.383133,-0.11,0.195216,0.389076,-0.11,0.183085,0.394634,-0.11,0.170774,0.788676,-0.11,0.433578,0.801906,-0.11,0.408591,0.814344,-0.11,0.383201,0.825979,-0.11,0.357433,0.891007,-0.11,0.45399,0.904827,-0.11,0.425779,0.917755,-0.11,0.397148,0.996086,-0.11,0.466704,0.99531,-0.11,0.468357,0.994531,-0.11,0.470009,0.376812,0.11,0.207154,0.383133,0.11,0.195216,0.389076,0.11,0.183085,0.394634,0.11,0.170774,0.788676,0.11,0.433578,0.801906,0.11,0.408591,0.814344,0.11,0.383201,0.825979,0.11,0.357433,0.891007,0.11,0.45399,0.904827,0.11,0.425779,0.917755,0.11,0.397148,0.996086,0.11,0.466704,0.99531,0.11,0.468357,0.994531,0.11,0.470009,0.399804,-0.11,0.158294,0.404579,-0.11,0.145657,0.408954,-0.11,0.132877,0.412926,-0.11,0.119966,0.836799,-0.11,0.331312,0.846793,-0.11,0.304864,0.855951,-0.11,0.278115,0.864264,-0.11,0.251092,0.940881,-0.11,0.338738,0.951057,-0.11,0.309017,0.960294,-0.11,0.278991,1.04672,-0.11,0.338181,1.04616,-0.11,0.339919,1.0456,-0.11,0.341655,0.399804,0.11,0.158294,0.404579,0.11,0.145657,0.408954,0.11,0.132877,0.412926,0.11,0.119966,0.836799,0.11,0.331312,0.846793,0.11,0.304864,0.855951,0.11,0.278115,0.864264,0.11,0.251092,0.940881,0.11,0.338738,0.951057,0.11,0.309017,0.960294,0.11,0.278991,1.04672,0.11,0.338181,1.04616,0.11,0.339919,1.0456,0.11,0.341655,0.416491,-0.11,0.106937,0.419644,-0.11,0.093802,0.422384,-0.11,0.080574,0.424706,-0.11,0.067267,0.871725,-0.11,0.223821,0.878325,-0.11,0.196329,0.884059,-0.11,0.168643,0.88892,-0.11,0.140791,0.975917,-0.11,0.218143,0.982287,-0.11,0.187381,0.987688,-0.11,0.156434,1.08086,-0.11,0.204325,1.08052,-0.11,0.206119,1.08017,-0.11,0.207913,0.416491,0.11,0.106937,0.419644,0.11,0.093802,0.422384,0.11,0.080574,0.424706,0.11,0.067267,0.871725,0.11,0.223821,0.878325,0.11,0.196329,0.884059,0.11,0.168643,0.88892,0.11,0.140791,0.975917,0.11,0.218143,0.982287,0.11,0.187381,0.987688,0.11,0.156434,1.08086,0.11,0.204325,1.08052,0.11,0.206119,1.08017,0.11,0.207913,0.426609,-0.11,0.053893,0.428092,-0.11,0.040467,0.429152,-0.11,0.027,0.429788,-0.11,0.013507,0.892903,-0.11,0.1128,0.896006,-0.11,0.084697,0.898224,-0.11,0.056511,0.899556,-0.11,0.02827,0.995562,-0.11,0.094108,0.998027,-0.11,0.062791,0.999507,-0.11,0.031411,1.09794,-0.11,0.067247,1.09783,-0.11,0.06907,1.09771,-0.11,0.070892,0.426609,0.11,0.053893,0.428092,0.11,0.040467,0.429152,0.11,0.027,0.429788,0.11,0.013507,0.892903,0.11,0.1128,0.896006,0.11,0.084697,0.898224,0.11,0.056511,0.899556,0.11,0.02827,0.995562,0.11,0.094108,0.998027,0.11,0.062791,0.999507,0.11,0.031411,1.09794,0.11,0.067247,1.09783,0.11,0.06907,1.09771,0.11,0.070892],
    "metadata": {
        "normals": 804,
        "vertices": 1400,
        "version": 3,
        "uvs": 0,
        "faces": 1200,
        "type": "Geometry",
        "generator": "io_three"
    },
    "uvs": [],
    "faces": [33,4,0,1,5,0,1,1,2,33,5,1,2,6,2,1,3,1,33,6,2,3,7,1,3,1,4,33,8,5,6,9,5,2,1,1,33,9,6,7,10,1,1,4,6,33,11,8,9,12,7,5,1,8,33,12,9,10,13,8,1,6,9,33,14,18,19,15,10,11,12,10,33,15,19,20,16,10,12,10,13,33,16,20,21,17,13,10,14,10,33,19,22,23,20,12,15,10,10,33,20,23,24,21,10,10,16,14,33,22,25,26,23,15,17,18,10,33,23,26,27,24,10,18,19,16,33,18,4,5,19,11,0,2,12,33,19,5,8,22,12,2,5,15,33,22,8,11,25,15,5,7,17,33,25,11,12,26,17,7,8,18,33,26,12,13,27,18,8,9,19,33,27,13,10,24,19,9,6,16,33,24,10,7,21,16,6,4,14,33,32,28,29,33,20,1,1,21,33,33,29,30,34,21,1,1,1,33,34,30,31,35,1,1,1,22,33,36,33,34,37,23,21,1,1,33,37,34,35,38,1,1,22,24,33,39,36,37,40,25,23,1,26,33,40,37,38,41,26,1,24,27,33,42,46,47,43,10,28,29,10,33,43,47,48,44,10,29,10,10,33,44,48,49,45,10,10,30,10,33,47,50,51,48,29,31,10,10,33,48,51,52,49,10,10,32,30,33,50,53,54,51,31,33,34,10,33,51,54,55,52,10,34,35,32,33,46,32,33,47,28,20,21,29,33,47,33,36,50,29,21,23,31,33,50,36,39,53,31,23,25,33,33,53,39,40,54,33,25,26,34,33,54,40,41,55,34,26,27,35,33,55,41,38,52,35,27,24,32,33,52,38,35,49,32,24,22,30,33,3,28,32,7,1,1,20,4,33,7,32,46,21,4,20,28,14,33,21,46,42,17,14,28,10,10,33,60,56,57,61,36,1,1,37,33,61,57,58,62,37,1,1,1,33,62,58,59,63,1,1,1,38,33,64,61,62,65,39,37,1,1,33,65,62,63,66,1,1,38,40,33,67,64,65,68,41,39,1,42,33,68,65,66,69,42,1,40,43,33,70,74,75,71,10,44,45,13,33,71,75,76,72,13,45,10,10,33,72,76,77,73,10,10,46,10,33,75,78,79,76,45,47,10,10,33,76,79,80,77,10,10,48,46,33,78,81,82,79,47,49,50,10,33,79,82,83,80,10,50,51,48,33,74,60,61,75,44,36,37,45,33,75,61,64,78,45,37,39,47,33,78,64,67,81,47,39,41,49,33,81,67,68,82,49,41,42,50,33,82,68,69,83,50,42,43,51,33,83,69,66,80,51,43,40,48,33,80,66,63,77,48,40,38,46,33,31,56,60,35,1,1,36,22,33,35,60,74,49,22,36,44,30,33,49,74,70,45,30,44,10,10,33,88,84,85,89,52,1,1,53,33,89,85,86,90,53,1,1,1,33,90,86,87,91,1,1,1,54,33,92,89,90,93,55,53,1,1,33,93,90,91,94,1,1,54,56,33,95,92,93,96,57,55,1,58,33,96,93,94,97,58,1,56,59,33,98,102,103,99,10,60,61,10,33,99,103,104,100,10,61,10,10,33,100,104,105,101,10,10,62,10,33,103,106,107,104,61,63,10,10,33,104,107,108,105,10,10,64,62,33,106,109,110,107,63,65,66,10,33,107,110,111,108,10,66,67,64,33,102,88,89,103,60,52,53,61,33,103,89,92,106,61,53,55,63,33,106,92,95,109,63,55,57,65,33,109,95,96,110,65,57,58,66,33,110,96,97,111,66,58,59,67,33,111,97,94,108,67,59,56,64,33,108,94,91,105,64,56,54,62,33,59,84,88,63,1,1,52,38,33,63,88,102,77,38,52,60,46,33,77,102,98,73,46,60,10,10,33,116,112,113,117,68,3,1,69,33,117,113,114,118,69,1,1,1,33,118,114,115,119,1,1,1,70,33,120,117,118,121,71,69,1,1,33,121,118,119,122,1,1,70,72,33,123,120,121,124,73,71,1,74,33,124,121,122,125,74,1,72,75,33,126,130,131,127,13,76,77,10,33,127,131,132,128,10,77,10,10,33,128,132,133,129,10,10,78,10,33,131,134,135,132,77,79,10,10,33,132,135,136,133,10,10,80,78,33,134,137,138,135,79,81,82,10,33,135,138,139,136,10,82,83,80,33,130,116,117,131,76,68,69,77,33,131,117,120,134,77,69,71,79,33,134,120,123,137,79,71,73,81,33,137,123,124,138,81,73,74,82,33,138,124,125,139,82,74,75,83,33,139,125,122,136,83,75,72,80,33,136,122,119,133,80,72,70,78,33,87,112,116,91,1,3,68,54,33,91,116,130,105,54,68,76,62,33,105,130,126,101,62,76,13,10,33,144,140,141,145,84,1,1,85,33,145,141,142,146,85,1,1,1,33,146,142,143,147,1,1,1,86,33,148,145,146,149,87,85,1,1,33,149,146,147,150,1,1,86,88,33,151,148,149,152,89,87,1,90,33,152,149,150,153,90,1,88,91,33,154,158,159,155,10,92,93,10,33,155,159,160,156,10,93,10,10,33,156,160,161,157,10,10,94,10,33,159,162,163,160,93,95,10,10,33,160,163,164,161,10,10,96,94,33,162,165,166,163,95,97,98,10,33,163,166,167,164,10,98,99,96,33,158,144,145,159,92,84,85,93,33,159,145,148,162,93,85,87,95,33,162,148,151,165,95,87,89,97,33,165,151,152,166,97,89,90,98,33,166,152,153,167,98,90,91,99,33,167,153,150,164,99,91,88,96,33,164,150,147,161,96,88,86,94,33,115,140,144,119,1,1,84,70,33,119,144,158,133,70,84,92,78,33,133,158,154,129,78,92,10,10,33,172,168,169,173,100,3,3,101,33,173,169,170,174,101,3,3,1,33,174,170,171,175,1,3,1,102,33,176,173,174,177,103,101,1,1,33,177,174,175,178,1,1,102,104,33,179,176,177,180,105,103,1,106,33,180,177,178,181,106,1,104,107,33,182,186,187,183,13,108,109,13,33,183,187,188,184,13,109,10,13,33,184,188,189,185,13,10,110,10,33,187,190,191,188,109,111,10,10,33,188,191,192,189,10,10,112,110,33,190,193,194,191,111,113,114,10,33,191,194,195,192,10,114,115,112,33,186,172,173,187,108,100,101,109,33,187,173,176,190,109,101,103,111,33,190,176,179,193,111,103,105,113,33,193,179,180,194,113,105,106,114,33,194,180,181,195,114,106,107,115,33,195,181,178,192,115,107,104,112,33,192,178,175,189,112,104,102,110,33,143,168,172,147,1,3,100,86,33,147,172,186,161,86,100,108,94,33,161,186,182,157,94,108,13,10,33,200,196,197,201,116,1,1,117,33,201,197,198,202,117,1,1,1,33,202,198,199,203,1,1,1,118,33,204,201,202,205,119,117,1,1,33,205,202,203,206,1,1,118,120,33,207,204,205,208,121,119,1,122,33,208,205,206,209,122,1,120,123,33,210,214,215,211,10,124,125,10,33,211,215,216,212,10,125,10,10,33,212,216,217,213,10,10,126,10,33,215,218,219,216,125,127,10,10,33,216,219,220,217,10,10,128,126,33,218,221,222,219,127,129,130,10,33,219,222,223,220,10,130,131,128,33,214,200,201,215,124,116,117,125,33,215,201,204,218,125,117,119,127,33,218,204,207,221,127,119,121,129,33,221,207,208,222,129,121,122,130,33,222,208,209,223,130,122,123,131,33,223,209,206,220,131,123,120,128,33,220,206,203,217,128,120,118,126,33,171,196,200,175,1,1,116,102,33,175,200,214,189,102,116,124,110,33,189,214,210,185,110,124,10,10,33,228,224,225,229,132,1,1,133,33,229,225,226,230,133,1,3,1,33,230,226,227,231,1,3,1,134,33,232,229,230,233,135,133,1,1,33,233,230,231,234,1,1,134,136,33,235,232,233,236,137,135,1,138,33,236,233,234,237,138,1,136,139,33,238,242,243,239,10,140,141,10,33,239,243,244,240,10,141,10,13,33,240,244,245,241,13,10,142,10,33,243,246,247,244,141,143,10,10,33,244,247,248,245,10,10,144,142,33,246,249,250,247,143,145,146,10,33,247,250,251,248,10,146,147,144,33,242,228,229,243,140,132,133,141,33,243,229,232,246,141,133,135,143,33,246,232,235,249,143,135,137,145,33,249,235,236,250,145,137,138,146,33,250,236,237,251,146,138,139,147,33,251,237,234,248,147,139,136,144,33,248,234,231,245,144,136,134,142,33,199,224,228,203,1,1,132,118,33,203,228,242,217,118,132,140,126,33,217,242,238,213,126,140,10,10,33,256,252,253,257,148,1,1,149,33,257,253,254,258,149,1,1,1,33,258,254,255,259,1,1,1,150,33,260,257,258,261,151,149,1,1,33,261,258,259,262,1,1,150,152,33,263,260,261,264,153,151,1,154,33,264,261,262,265,154,1,152,155,33,266,270,271,267,10,156,157,10,33,267,271,272,268,10,157,10,10,33,268,272,273,269,10,10,158,10,33,271,274,275,272,157,159,10,10,33,272,275,276,273,10,10,160,158,33,274,277,278,275,159,161,162,10,33,275,278,279,276,10,162,163,160,33,270,256,257,271,156,148,149,157,33,271,257,260,274,157,149,151,159,33,274,260,263,277,159,151,153,161,33,277,263,264,278,161,153,154,162,33,278,264,265,279,162,154,155,163,33,279,265,262,276,163,155,152,160,33,276,262,259,273,160,152,150,158,33,227,252,256,231,1,1,148,134,33,231,256,270,245,134,148,156,142,33,245,270,266,241,142,156,10,10,33,284,280,281,285,164,1,1,165,33,285,281,282,286,165,1,1,1,33,286,282,283,287,1,1,1,166,33,288,285,286,289,167,165,1,1,33,289,286,287,290,1,1,166,168,33,291,288,289,292,169,167,1,170,33,292,289,290,293,170,1,168,171,33,294,298,299,295,10,172,173,10,33,295,299,300,296,10,173,10,10,33,296,300,301,297,10,10,174,10,33,299,302,303,300,173,175,10,10,33,300,303,304,301,10,10,176,174,33,302,305,306,303,175,177,178,10,33,303,306,307,304,10,178,179,176,33,298,284,285,299,172,164,165,173,33,299,285,288,302,173,165,167,175,33,302,288,291,305,175,167,169,177,33,305,291,292,306,177,169,170,178,33,306,292,293,307,178,170,171,179,33,307,293,290,304,179,171,168,176,33,304,290,287,301,176,168,166,174,33,255,280,284,259,1,1,164,150,33,259,284,298,273,150,164,172,158,33,273,298,294,269,158,172,10,10,33,312,308,309,313,180,1,1,181,33,313,309,310,314,181,1,1,1,33,314,310,311,315,1,1,1,182,33,316,313,314,317,183,181,1,1,33,317,314,315,318,1,1,182,184,33,319,316,317,320,185,183,1,186,33,320,317,318,321,186,1,184,187,33,322,326,327,323,10,188,189,10,33,323,327,328,324,10,189,10,10,33,324,328,329,325,10,10,190,10,33,327,330,331,328,189,191,10,10,33,328,331,332,329,10,10,192,190,33,330,333,334,331,191,193,194,10,33,331,334,335,332,10,194,195,192,33,326,312,313,327,188,180,181,189,33,327,313,316,330,189,181,183,191,33,330,316,319,333,191,183,185,193,33,333,319,320,334,193,185,186,194,33,334,320,321,335,194,186,187,195,33,335,321,318,332,195,187,184,192,33,332,318,315,329,192,184,182,190,33,283,308,312,287,1,1,180,166,33,287,312,326,301,166,180,188,174,33,301,326,322,297,174,188,10,10,33,340,336,337,341,196,3,1,197,33,341,337,338,342,197,1,1,1,33,342,338,339,343,1,1,1,198,33,344,341,342,345,199,197,1,1,33,345,342,343,346,1,1,198,200,33,347,344,345,348,201,199,1,202,33,348,345,346,349,202,1,200,203,33,350,354,355,351,13,204,205,10,33,351,355,356,352,10,205,10,10,33,352,356,357,353,10,10,206,10,33,355,358,359,356,205,207,10,10,33,356,359,360,357,10,10,208,206,33,358,361,362,359,207,209,210,10,33,359,362,363,360,10,210,211,208,33,354,340,341,355,204,196,197,205,33,355,341,344,358,205,197,199,207,33,358,344,347,361,207,199,201,209,33,361,347,348,362,209,201,202,210,33,362,348,349,363,210,202,203,211,33,363,349,346,360,211,203,200,208,33,360,346,343,357,208,200,198,206,33,311,336,340,315,1,3,196,182,33,315,340,354,329,182,196,204,190,33,329,354,350,325,190,204,13,10,33,368,364,365,369,212,3,1,213,33,369,365,366,370,213,1,1,1,33,370,366,367,371,1,1,1,214,33,372,369,370,373,215,213,1,1,33,373,370,371,374,1,1,214,216,33,375,372,373,376,217,215,1,218,33,376,373,374,377,218,1,216,219,33,378,382,383,379,13,220,221,10,33,379,383,384,380,10,221,10,10,33,380,384,385,381,10,10,222,10,33,383,386,387,384,221,223,10,10,33,384,387,388,385,10,10,224,222,33,386,389,390,387,223,225,226,10,33,387,390,391,388,10,226,227,224,33,382,368,369,383,220,212,213,221,33,383,369,372,386,221,213,215,223,33,386,372,375,389,223,215,217,225,33,389,375,376,390,225,217,218,226,33,390,376,377,391,226,218,219,227,33,391,377,374,388,227,219,216,224,33,388,374,371,385,224,216,214,222,33,339,364,368,343,1,3,212,198,33,343,368,382,357,198,212,220,206,33,357,382,378,353,206,220,13,10,33,396,392,393,397,228,1,1,229,33,397,393,394,398,229,1,1,1,33,398,394,395,399,1,1,1,230,33,400,397,398,401,231,229,1,1,33,401,398,399,402,1,1,230,232,33,403,400,401,404,233,231,1,234,33,404,401,402,405,234,1,232,235,33,406,410,411,407,10,236,237,10,33,407,411,412,408,10,237,10,10,33,408,412,413,409,10,10,238,10,33,411,414,415,412,237,239,10,10,33,412,415,416,413,10,10,240,238,33,414,417,418,415,239,241,242,10,33,415,418,419,416,10,242,243,240,33,410,396,397,411,236,228,229,237,33,411,397,400,414,237,229,231,239,33,414,400,403,417,239,231,233,241,33,417,403,404,418,241,233,234,242,33,418,404,405,419,242,234,235,243,33,419,405,402,416,243,235,232,240,33,416,402,399,413,240,232,230,238,33,367,392,396,371,1,1,228,214,33,371,396,410,385,214,228,236,222,33,385,410,406,381,222,236,10,10,33,424,420,421,425,244,1,1,245,33,425,421,422,426,245,1,1,1,33,426,422,423,427,1,1,1,246,33,428,425,426,429,247,245,1,1,33,429,426,427,430,1,1,246,248,33,431,428,429,432,249,247,1,250,33,432,429,430,433,250,1,248,251,33,434,438,439,435,10,252,253,10,33,435,439,440,436,10,253,10,10,33,436,440,441,437,10,10,254,10,33,439,442,443,440,253,255,10,10,33,440,443,444,441,10,10,256,254,33,442,445,446,443,255,257,258,10,33,443,446,447,444,10,258,259,256,33,438,424,425,439,252,244,245,253,33,439,425,428,442,253,245,247,255,33,442,428,431,445,255,247,249,257,33,445,431,432,446,257,249,250,258,33,446,432,433,447,258,250,251,259,33,447,433,430,444,259,251,248,256,33,444,430,427,441,256,248,246,254,33,395,420,424,399,1,1,244,230,33,399,424,438,413,230,244,252,238,33,413,438,434,409,238,252,10,10,33,452,448,449,453,260,1,1,261,33,453,449,450,454,261,1,3,1,33,454,450,451,455,1,3,1,262,33,456,453,454,457,263,261,1,1,33,457,454,455,458,1,1,262,264,33,459,456,457,460,265,263,1,266,33,460,457,458,461,266,1,264,267,33,462,466,467,463,10,268,269,10,33,463,467,468,464,10,269,10,13,33,464,468,469,465,13,10,270,10,33,467,470,471,468,269,271,10,10,33,468,471,472,469,10,10,272,270,33,470,473,474,471,271,273,274,10,33,471,474,475,472,10,274,275,272,33,466,452,453,467,268,260,261,269,33,467,453,456,470,269,261,263,271,33,470,456,459,473,271,263,265,273,33,473,459,460,474,273,265,266,274,33,474,460,461,475,274,266,267,275,33,475,461,458,472,275,267,264,272,33,472,458,455,469,272,264,262,270,33,423,448,452,427,1,1,260,246,33,427,452,466,441,246,260,268,254,33,441,466,462,437,254,268,10,10,33,480,476,477,481,276,1,1,277,33,481,477,478,482,277,1,1,1,33,482,478,479,483,1,1,1,278,33,484,481,482,485,279,277,1,1,33,485,482,483,486,1,1,278,280,33,487,484,485,488,281,279,1,282,33,488,485,486,489,282,1,280,283,33,490,494,495,491,10,284,285,10,33,491,495,496,492,10,285,10,10,33,492,496,497,493,10,10,286,10,33,495,498,499,496,285,287,10,10,33,496,499,500,497,10,10,288,286,33,498,501,502,499,287,289,290,10,33,499,502,503,500,10,290,291,288,33,494,480,481,495,284,276,277,285,33,495,481,484,498,285,277,279,287,33,498,484,487,501,287,279,281,289,33,501,487,488,502,289,281,282,290,33,502,488,489,503,290,282,283,291,33,503,489,486,500,291,283,280,288,33,500,486,483,497,288,280,278,286,33,451,476,480,455,1,1,276,262,33,455,480,494,469,262,276,284,270,33,469,494,490,465,270,284,10,10,33,508,504,505,509,292,1,1,293,33,509,505,506,510,293,1,3,1,33,510,506,507,511,1,3,3,294,33,512,509,510,513,295,293,1,1,33,513,510,511,514,1,1,294,296,33,515,512,513,516,297,295,1,298,33,516,513,514,517,298,1,296,299,33,518,522,523,519,10,300,301,10,33,519,523,524,520,10,301,10,13,33,520,524,525,521,13,10,302,13,33,523,526,527,524,301,303,10,10,33,524,527,528,525,10,10,304,302,33,526,529,530,527,303,305,306,10,33,527,530,531,528,10,306,307,304,33,522,508,509,523,300,292,293,301,33,523,509,512,526,301,293,295,303,33,526,512,515,529,303,295,297,305,33,529,515,516,530,305,297,298,306,33,530,516,517,531,306,298,299,307,33,531,517,514,528,307,299,296,304,33,528,514,511,525,304,296,294,302,33,479,504,508,483,1,1,292,278,33,483,508,522,497,278,292,300,286,33,497,522,518,493,286,300,10,10,33,536,532,533,537,308,3,1,309,33,537,533,534,538,309,1,1,1,33,538,534,535,539,1,1,1,310,33,540,537,538,541,311,309,1,1,33,541,538,539,542,1,1,310,312,33,543,540,541,544,313,311,1,314,33,544,541,542,545,314,1,312,315,33,546,550,551,547,13,316,317,10,33,547,551,552,548,10,317,10,10,33,548,552,553,549,10,10,318,10,33,551,554,555,552,317,319,10,10,33,552,555,556,553,10,10,320,318,33,554,557,558,555,319,321,322,10,33,555,558,559,556,10,322,323,320,33,550,536,537,551,316,308,309,317,33,551,537,540,554,317,309,311,319,33,554,540,543,557,319,311,313,321,33,557,543,544,558,321,313,314,322,33,558,544,545,559,322,314,315,323,33,559,545,542,556,323,315,312,320,33,556,542,539,553,320,312,310,318,33,507,532,536,511,3,3,308,294,33,511,536,550,525,294,308,316,302,33,525,550,546,521,302,316,13,13,33,564,560,561,565,324,1,1,325,33,565,561,562,566,325,1,1,1,33,566,562,563,567,1,1,1,326,33,568,565,566,569,327,325,1,1,33,569,566,567,570,1,1,326,328,33,571,568,569,572,329,327,1,330,33,572,569,570,573,330,1,328,331,33,574,578,579,575,10,332,333,10,33,575,579,580,576,10,333,10,10,33,576,580,581,577,10,10,334,10,33,579,582,583,580,333,335,10,10,33,580,583,584,581,10,10,336,334,33,582,585,586,583,335,337,338,10,33,583,586,587,584,10,338,339,336,33,578,564,565,579,332,324,325,333,33,579,565,568,582,333,325,327,335,33,582,568,571,585,335,327,329,337,33,585,571,572,586,337,329,330,338,33,586,572,573,587,338,330,331,339,33,587,573,570,584,339,331,328,336,33,584,570,567,581,336,328,326,334,33,535,560,564,539,1,1,324,310,33,539,564,578,553,310,324,332,318,33,553,578,574,549,318,332,10,10,33,592,588,589,593,340,3,1,341,33,593,589,590,594,341,1,1,1,33,594,590,591,595,1,1,1,342,33,596,593,594,597,343,341,1,1,33,597,594,595,598,1,1,342,344,33,599,596,597,600,345,343,1,346,33,600,597,598,601,346,1,344,347,33,602,606,607,603,13,348,349,10,33,603,607,608,604,10,349,10,10,33,604,608,609,605,10,10,350,10,33,607,610,611,608,349,351,10,10,33,608,611,612,609,10,10,352,350,33,610,613,614,611,351,353,354,10,33,611,614,615,612,10,354,355,352,33,606,592,593,607,348,340,341,349,33,607,593,596,610,349,341,343,351,33,610,596,599,613,351,343,345,353,33,613,599,600,614,353,345,346,354,33,614,600,601,615,354,346,347,355,33,615,601,598,612,355,347,344,352,33,612,598,595,609,352,344,342,350,33,563,588,592,567,1,3,340,326,33,567,592,606,581,326,340,348,334,33,581,606,602,577,334,348,13,10,33,620,616,617,621,356,1,1,357,33,621,617,618,622,357,1,1,1,33,622,618,619,623,1,1,1,358,33,624,621,622,625,359,357,1,1,33,625,622,623,626,1,1,358,360,33,627,624,625,628,361,359,1,362,33,628,625,626,629,362,1,360,363,33,630,634,635,631,10,364,365,10,33,631,635,636,632,10,365,10,10,33,632,636,637,633,10,10,366,13,33,635,638,639,636,365,367,10,10,33,636,639,640,637,10,10,368,366,33,638,641,642,639,367,369,370,10,33,639,642,643,640,10,370,371,368,33,634,620,621,635,364,356,357,365,33,635,621,624,638,365,357,359,367,33,638,624,627,641,367,359,361,369,33,641,627,628,642,369,361,362,370,33,642,628,629,643,370,362,363,371,33,643,629,626,640,371,363,360,368,33,640,626,623,637,368,360,358,366,33,591,616,620,595,1,1,356,342,33,595,620,634,609,342,356,364,350,33,609,634,630,605,350,364,10,10,33,648,644,645,649,372,1,1,373,33,649,645,646,650,373,1,1,1,33,650,646,647,651,1,1,1,374,33,652,649,650,653,375,373,1,1,33,653,650,651,654,1,1,374,376,33,655,652,653,656,377,375,1,378,33,656,653,654,657,378,1,376,379,33,658,662,663,659,10,380,381,10,33,659,663,664,660,10,381,10,10,33,660,664,665,661,10,10,382,10,33,663,666,667,664,381,383,10,10,33,664,667,668,665,10,10,384,382,33,666,669,670,667,383,385,386,10,33,667,670,671,668,10,386,387,384,33,662,648,649,663,380,372,373,381,33,663,649,652,666,381,373,375,383,33,666,652,655,669,383,375,377,385,33,669,655,656,670,385,377,378,386,33,670,656,657,671,386,378,379,387,33,671,657,654,668,387,379,376,384,33,668,654,651,665,384,376,374,382,33,619,644,648,623,1,1,372,358,33,623,648,662,637,358,372,380,366,33,637,662,658,633,366,380,10,13,33,676,672,673,677,388,1,1,389,33,677,673,674,678,389,1,3,1,33,678,674,675,679,1,3,1,390,33,680,677,678,681,391,389,1,1,33,681,678,679,682,1,1,390,392,33,683,680,681,684,393,391,1,394,33,684,681,682,685,394,1,392,395,33,686,690,691,687,10,396,397,10,33,687,691,692,688,10,397,10,13,33,688,692,693,689,13,10,398,10,33,691,694,695,692,397,399,10,10,33,692,695,696,693,10,10,400,398,33,694,697,698,695,399,401,402,10,33,695,698,699,696,10,402,403,400,33,690,676,677,691,396,388,389,397,33,691,677,680,694,397,389,391,399,33,694,680,683,697,399,391,393,401,33,697,683,684,698,401,393,394,402,33,698,684,685,699,402,394,395,403,33,699,685,682,696,403,395,392,400,33,696,682,679,693,400,392,390,398,33,647,672,676,651,1,1,388,374,33,651,676,690,665,374,388,396,382,33,665,690,686,661,382,396,10,10,33,704,700,701,705,404,1,1,405,33,705,701,702,706,405,1,3,1,33,706,702,703,707,1,3,1,406,33,708,705,706,709,407,405,1,1,33,709,706,707,710,1,1,406,408,33,711,708,709,712,409,407,1,410,33,712,709,710,713,410,1,408,411,33,714,718,719,715,10,412,413,10,33,715,719,720,716,10,413,10,13,33,716,720,721,717,13,10,414,10,33,719,722,723,720,413,415,10,10,33,720,723,724,721,10,10,416,414,33,722,725,726,723,415,417,418,10,33,723,726,727,724,10,418,419,416,33,718,704,705,719,412,404,405,413,33,719,705,708,722,413,405,407,415,33,722,708,711,725,415,407,409,417,33,725,711,712,726,417,409,410,418,33,726,712,713,727,418,410,411,419,33,727,713,710,724,419,411,408,416,33,724,710,707,721,416,408,406,414,33,675,700,704,679,1,1,404,390,33,679,704,718,693,390,404,412,398,33,693,718,714,689,398,412,10,10,33,732,728,729,733,420,1,1,421,33,733,729,730,734,421,1,1,1,33,734,730,731,735,1,1,1,422,33,736,733,734,737,423,421,1,1,33,737,734,735,738,1,1,422,424,33,739,736,737,740,425,423,1,426,33,740,737,738,741,426,1,424,427,33,742,746,747,743,10,428,429,10,33,743,747,748,744,10,429,10,10,33,744,748,749,745,10,10,430,10,33,747,750,751,748,429,431,10,10,33,748,751,752,749,10,10,432,430,33,750,753,754,751,431,433,434,10,33,751,754,755,752,10,434,435,432,33,746,732,733,747,428,420,421,429,33,747,733,736,750,429,421,423,431,33,750,736,739,753,431,423,425,433,33,753,739,740,754,433,425,426,434,33,754,740,741,755,434,426,427,435,33,755,741,738,752,435,427,424,432,33,752,738,735,749,432,424,422,430,33,703,728,732,707,1,1,420,406,33,707,732,746,721,406,420,428,414,33,721,746,742,717,414,428,10,10,33,760,756,757,761,436,1,3,437,33,761,757,758,762,437,3,1,1,33,762,758,759,763,1,1,1,438,33,764,761,762,765,439,437,1,1,33,765,762,763,766,1,1,438,440,33,767,764,765,768,441,439,1,442,33,768,765,766,769,442,1,440,443,33,770,774,775,771,10,444,445,10,33,771,775,776,772,10,445,10,10,33,772,776,777,773,10,10,446,10,33,775,778,779,776,445,447,10,10,33,776,779,780,777,10,10,448,446,33,778,781,782,779,447,449,450,10,33,779,782,783,780,10,450,451,448,33,774,760,761,775,444,436,437,445,33,775,761,764,778,445,437,439,447,33,778,764,767,781,447,439,441,449,33,781,767,768,782,449,441,442,450,33,782,768,769,783,450,442,443,451,33,783,769,766,780,451,443,440,448,33,780,766,763,777,448,440,438,446,33,731,756,760,735,1,1,436,422,33,735,760,774,749,422,436,444,430,33,749,774,770,745,430,444,10,10,33,788,784,785,789,452,1,1,453,33,789,785,786,790,453,1,1,1,33,790,786,787,791,1,1,1,454,33,792,789,790,793,455,453,1,1,33,793,790,791,794,1,1,454,456,33,795,792,793,796,457,455,1,458,33,796,793,794,797,458,1,456,459,33,798,802,803,799,10,460,461,10,33,799,803,804,800,10,461,10,10,33,800,804,805,801,10,10,462,10,33,803,806,807,804,461,463,10,10,33,804,807,808,805,10,10,464,462,33,806,809,810,807,463,465,466,10,33,807,810,811,808,10,466,467,464,33,802,788,789,803,460,452,453,461,33,803,789,792,806,461,453,455,463,33,806,792,795,809,463,455,457,465,33,809,795,796,810,465,457,458,466,33,810,796,797,811,466,458,459,467,33,811,797,794,808,467,459,456,464,33,808,794,791,805,464,456,454,462,33,759,784,788,763,1,1,452,438,33,763,788,802,777,438,452,460,446,33,777,802,798,773,446,460,10,10,33,816,812,813,817,468,3,1,469,33,817,813,814,818,469,1,1,1,33,818,814,815,819,1,1,1,470,33,820,817,818,821,471,469,1,1,33,821,818,819,822,1,1,470,472,33,823,820,821,824,473,471,1,474,33,824,821,822,825,474,1,472,475,33,826,830,831,827,13,476,477,10,33,827,831,832,828,10,477,10,10,33,828,832,833,829,10,10,478,10,33,831,834,835,832,477,479,10,10,33,832,835,836,833,10,10,480,478,33,834,837,838,835,479,481,482,10,33,835,838,839,836,10,482,483,480,33,830,816,817,831,476,468,469,477,33,831,817,820,834,477,469,471,479,33,834,820,823,837,479,471,473,481,33,837,823,824,838,481,473,474,482,33,838,824,825,839,482,474,475,483,33,839,825,822,836,483,475,472,480,33,836,822,819,833,480,472,470,478,33,787,812,816,791,1,3,468,454,33,791,816,830,805,454,468,476,462,33,805,830,826,801,462,476,13,10,33,844,840,841,845,484,1,1,485,33,845,841,842,846,485,1,1,1,33,846,842,843,847,1,1,1,486,33,848,845,846,849,487,485,1,1,33,849,846,847,850,1,1,486,488,33,851,848,849,852,489,487,1,490,33,852,849,850,853,490,1,488,491,33,854,858,859,855,10,492,493,10,33,855,859,860,856,10,493,10,10,33,856,860,861,857,10,10,494,10,33,859,862,863,860,493,495,10,10,33,860,863,864,861,10,10,496,494,33,862,865,866,863,495,497,498,10,33,863,866,867,864,10,498,499,496,33,858,844,845,859,492,484,485,493,33,859,845,848,862,493,485,487,495,33,862,848,851,865,495,487,489,497,33,865,851,852,866,497,489,490,498,33,866,852,853,867,498,490,491,499,33,867,853,850,864,499,491,488,496,33,864,850,847,861,496,488,486,494,33,815,840,844,819,1,1,484,470,33,819,844,858,833,470,484,492,478,33,833,858,854,829,478,492,10,10,33,872,868,869,873,500,3,3,501,33,873,869,870,874,501,3,3,1,33,874,870,871,875,1,3,1,502,33,876,873,874,877,503,501,1,1,33,877,874,875,878,1,1,502,504,33,879,876,877,880,505,503,1,506,33,880,877,878,881,506,1,504,507,33,882,886,887,883,13,508,509,13,33,883,887,888,884,13,509,10,13,33,884,888,889,885,13,10,510,10,33,887,890,891,888,509,511,10,10,33,888,891,892,889,10,10,512,510,33,890,893,894,891,511,513,514,10,33,891,894,895,892,10,514,515,512,33,886,872,873,887,508,500,501,509,33,887,873,876,890,509,501,503,511,33,890,876,879,893,511,503,505,513,33,893,879,880,894,513,505,506,514,33,894,880,881,895,514,506,507,515,33,895,881,878,892,515,507,504,512,33,892,878,875,889,512,504,502,510,33,843,868,872,847,1,3,500,486,33,847,872,886,861,486,500,508,494,33,861,886,882,857,494,508,13,10,33,900,896,897,901,516,1,1,517,33,901,897,898,902,517,1,1,1,33,902,898,899,903,1,1,1,518,33,904,901,902,905,519,517,1,1,33,905,902,903,906,1,1,518,520,33,907,904,905,908,521,519,1,522,33,908,905,906,909,522,1,520,523,33,910,914,915,911,10,524,525,10,33,911,915,916,912,10,525,10,10,33,912,916,917,913,10,10,526,10,33,915,918,919,916,525,527,10,10,33,916,919,920,917,10,10,528,526,33,918,921,922,919,527,529,530,10,33,919,922,923,920,10,530,531,528,33,914,900,901,915,524,516,517,525,33,915,901,904,918,525,517,519,527,33,918,904,907,921,527,519,521,529,33,921,907,908,922,529,521,522,530,33,922,908,909,923,530,522,523,531,33,923,909,906,920,531,523,520,528,33,920,906,903,917,528,520,518,526,33,871,896,900,875,1,1,516,502,33,875,900,914,889,502,516,524,510,33,889,914,910,885,510,524,10,10,33,928,924,925,929,532,1,1,533,33,929,925,926,930,533,1,3,1,33,930,926,927,931,1,3,1,534,33,932,929,930,933,535,533,1,1,33,933,930,931,934,1,1,534,536,33,935,932,933,936,537,535,1,538,33,936,933,934,937,538,1,536,539,33,938,942,943,939,10,540,541,10,33,939,943,944,940,10,541,10,13,33,940,944,945,941,13,10,542,10,33,943,946,947,944,541,543,10,10,33,944,947,948,945,10,10,544,542,33,946,949,950,947,543,545,546,10,33,947,950,951,948,10,546,547,544,33,942,928,929,943,540,532,533,541,33,943,929,932,946,541,533,535,543,33,946,932,935,949,543,535,537,545,33,949,935,936,950,545,537,538,546,33,950,936,937,951,546,538,539,547,33,951,937,934,948,547,539,536,544,33,948,934,931,945,544,536,534,542,33,899,924,928,903,1,1,532,518,33,903,928,942,917,518,532,540,526,33,917,942,938,913,526,540,10,10,33,956,952,953,957,548,1,1,549,33,957,953,954,958,549,1,1,1,33,958,954,955,959,1,1,1,550,33,960,957,958,961,551,549,1,1,33,961,958,959,962,1,1,550,552,33,963,960,961,964,553,551,1,554,33,964,961,962,965,554,1,552,555,33,966,970,971,967,10,556,557,10,33,967,971,972,968,10,557,10,10,33,968,972,973,969,10,10,558,10,33,971,974,975,972,557,559,10,10,33,972,975,976,973,10,10,560,558,33,974,977,978,975,559,561,562,10,33,975,978,979,976,10,562,563,560,33,970,956,957,971,556,548,549,557,33,971,957,960,974,557,549,551,559,33,974,960,963,977,559,551,553,561,33,977,963,964,978,561,553,554,562,33,978,964,965,979,562,554,555,563,33,979,965,962,976,563,555,552,560,33,976,962,959,973,560,552,550,558,33,927,952,956,931,1,1,548,534,33,931,956,970,945,534,548,556,542,33,945,970,966,941,542,556,10,10,33,984,980,981,985,564,1,1,565,33,985,981,982,986,565,1,1,1,33,986,982,983,987,1,1,1,566,33,988,985,986,989,567,565,1,1,33,989,986,987,990,1,1,566,568,33,991,988,989,992,569,567,1,570,33,992,989,990,993,570,1,568,571,33,994,998,999,995,10,572,573,10,33,995,999,1000,996,10,573,10,10,33,996,1000,1001,997,10,10,574,10,33,999,1002,1003,1000,573,575,10,10,33,1000,1003,1004,1001,10,10,576,574,33,1002,1005,1006,1003,575,577,578,10,33,1003,1006,1007,1004,10,578,579,576,33,998,984,985,999,572,564,565,573,33,999,985,988,1002,573,565,567,575,33,1002,988,991,1005,575,567,569,577,33,1005,991,992,1006,577,569,570,578,33,1006,992,993,1007,578,570,571,579,33,1007,993,990,1004,579,571,568,576,33,1004,990,987,1001,576,568,566,574,33,955,980,984,959,1,1,564,550,33,959,984,998,973,550,564,572,558,33,973,998,994,969,558,572,10,10,33,1012,1008,1009,1013,580,1,1,581,33,1013,1009,1010,1014,581,1,1,1,33,1014,1010,1011,1015,1,1,1,582,33,1016,1013,1014,1017,583,581,1,1,33,1017,1014,1015,1018,1,1,582,584,33,1019,1016,1017,1020,585,583,1,586,33,1020,1017,1018,1021,586,1,584,587,33,1022,1026,1027,1023,10,588,589,10,33,1023,1027,1028,1024,10,589,10,10,33,1024,1028,1029,1025,10,10,590,10,33,1027,1030,1031,1028,589,591,10,10,33,1028,1031,1032,1029,10,10,592,590,33,1030,1033,1034,1031,591,593,594,10,33,1031,1034,1035,1032,10,594,595,592,33,1026,1012,1013,1027,588,580,581,589,33,1027,1013,1016,1030,589,581,583,591,33,1030,1016,1019,1033,591,583,585,593,33,1033,1019,1020,1034,593,585,586,594,33,1034,1020,1021,1035,594,586,587,595,33,1035,1021,1018,1032,595,587,584,592,33,1032,1018,1015,1029,592,584,582,590,33,983,1008,1012,987,1,1,580,566,33,987,1012,1026,1001,566,580,588,574,33,1001,1026,1022,997,574,588,10,10,33,1040,1036,1037,1041,596,3,1,597,33,1041,1037,1038,1042,597,1,1,1,33,1042,1038,1039,1043,1,1,1,598,33,1044,1041,1042,1045,599,597,1,1,33,1045,1042,1043,1046,1,1,598,600,33,1047,1044,1045,1048,601,599,1,602,33,1048,1045,1046,1049,602,1,600,603,33,1050,1054,1055,1051,13,604,605,10,33,1051,1055,1056,1052,10,605,10,10,33,1052,1056,1057,1053,10,10,606,10,33,1055,1058,1059,1056,605,607,10,10,33,1056,1059,1060,1057,10,10,608,606,33,1058,1061,1062,1059,607,609,610,10,33,1059,1062,1063,1060,10,610,611,608,33,1054,1040,1041,1055,604,596,597,605,33,1055,1041,1044,1058,605,597,599,607,33,1058,1044,1047,1061,607,599,601,609,33,1061,1047,1048,1062,609,601,602,610,33,1062,1048,1049,1063,610,602,603,611,33,1063,1049,1046,1060,611,603,600,608,33,1060,1046,1043,1057,608,600,598,606,33,1011,1036,1040,1015,1,3,596,582,33,1015,1040,1054,1029,582,596,604,590,33,1029,1054,1050,1025,590,604,13,10,33,1068,1064,1065,1069,612,3,1,613,33,1069,1065,1066,1070,613,1,1,1,33,1070,1066,1067,1071,1,1,1,614,33,1072,1069,1070,1073,615,613,1,1,33,1073,1070,1071,1074,1,1,614,616,33,1075,1072,1073,1076,617,615,1,618,33,1076,1073,1074,1077,618,1,616,619,33,1078,1082,1083,1079,13,620,621,10,33,1079,1083,1084,1080,10,621,10,10,33,1080,1084,1085,1081,10,10,622,10,33,1083,1086,1087,1084,621,623,10,10,33,1084,1087,1088,1085,10,10,624,622,33,1086,1089,1090,1087,623,625,626,10,33,1087,1090,1091,1088,10,626,627,624,33,1082,1068,1069,1083,620,612,613,621,33,1083,1069,1072,1086,621,613,615,623,33,1086,1072,1075,1089,623,615,617,625,33,1089,1075,1076,1090,625,617,618,626,33,1090,1076,1077,1091,626,618,619,627,33,1091,1077,1074,1088,627,619,616,624,33,1088,1074,1071,1085,624,616,614,622,33,1039,1064,1068,1043,1,3,612,598,33,1043,1068,1082,1057,598,612,620,606,33,1057,1082,1078,1053,606,620,13,10,33,1096,1092,1093,1097,628,1,1,629,33,1097,1093,1094,1098,629,1,1,1,33,1098,1094,1095,1099,1,1,1,630,33,1100,1097,1098,1101,631,629,1,1,33,1101,1098,1099,1102,1,1,630,632,33,1103,1100,1101,1104,633,631,1,634,33,1104,1101,1102,1105,634,1,632,635,33,1106,1110,1111,1107,10,636,637,10,33,1107,1111,1112,1108,10,637,10,10,33,1108,1112,1113,1109,10,10,638,10,33,1111,1114,1115,1112,637,639,10,10,33,1112,1115,1116,1113,10,10,640,638,33,1114,1117,1118,1115,639,641,642,10,33,1115,1118,1119,1116,10,642,643,640,33,1110,1096,1097,1111,636,628,629,637,33,1111,1097,1100,1114,637,629,631,639,33,1114,1100,1103,1117,639,631,633,641,33,1117,1103,1104,1118,641,633,634,642,33,1118,1104,1105,1119,642,634,635,643,33,1119,1105,1102,1116,643,635,632,640,33,1116,1102,1099,1113,640,632,630,638,33,1067,1092,1096,1071,1,1,628,614,33,1071,1096,1110,1085,614,628,636,622,33,1085,1110,1106,1081,622,636,10,10,33,1124,1120,1121,1125,644,1,1,645,33,1125,1121,1122,1126,645,1,1,1,33,1126,1122,1123,1127,1,1,1,646,33,1128,1125,1126,1129,647,645,1,1,33,1129,1126,1127,1130,1,1,646,648,33,1131,1128,1129,1132,649,647,1,650,33,1132,1129,1130,1133,650,1,648,651,33,1134,1138,1139,1135,10,652,653,10,33,1135,1139,1140,1136,10,653,10,10,33,1136,1140,1141,1137,10,10,654,10,33,1139,1142,1143,1140,653,655,10,10,33,1140,1143,1144,1141,10,10,656,654,33,1142,1145,1146,1143,655,657,658,10,33,1143,1146,1147,1144,10,658,659,656,33,1138,1124,1125,1139,652,644,645,653,33,1139,1125,1128,1142,653,645,647,655,33,1142,1128,1131,1145,655,647,649,657,33,1145,1131,1132,1146,657,649,650,658,33,1146,1132,1133,1147,658,650,651,659,33,1147,1133,1130,1144,659,651,648,656,33,1144,1130,1127,1141,656,648,646,654,33,1095,1120,1124,1099,1,1,644,630,33,1099,1124,1138,1113,630,644,652,638,33,1113,1138,1134,1109,638,652,10,10,33,1152,1148,1149,1153,660,1,1,661,33,1153,1149,1150,1154,661,1,3,1,33,1154,1150,1151,1155,1,3,1,662,33,1156,1153,1154,1157,663,661,1,1,33,1157,1154,1155,1158,1,1,662,664,33,1159,1156,1157,1160,665,663,1,666,33,1160,1157,1158,1161,666,1,664,667,33,1162,1166,1167,1163,10,668,669,10,33,1163,1167,1168,1164,10,669,10,13,33,1164,1168,1169,1165,13,10,670,10,33,1167,1170,1171,1168,669,671,10,10,33,1168,1171,1172,1169,10,10,672,670,33,1170,1173,1174,1171,671,673,674,10,33,1171,1174,1175,1172,10,674,675,672,33,1166,1152,1153,1167,668,660,661,669,33,1167,1153,1156,1170,669,661,663,671,33,1170,1156,1159,1173,671,663,665,673,33,1173,1159,1160,1174,673,665,666,674,33,1174,1160,1161,1175,674,666,667,675,33,1175,1161,1158,1172,675,667,664,672,33,1172,1158,1155,1169,672,664,662,670,33,1123,1148,1152,1127,1,1,660,646,33,1127,1152,1166,1141,646,660,668,654,33,1141,1166,1162,1137,654,668,10,10,33,1180,1176,1177,1181,676,1,1,677,33,1181,1177,1178,1182,677,1,1,1,33,1182,1178,1179,1183,1,1,1,678,33,1184,1181,1182,1185,679,677,1,1,33,1185,1182,1183,1186,1,1,678,680,33,1187,1184,1185,1188,681,679,1,682,33,1188,1185,1186,1189,682,1,680,683,33,1190,1194,1195,1191,10,684,685,10,33,1191,1195,1196,1192,10,685,10,10,33,1192,1196,1197,1193,10,10,686,10,33,1195,1198,1199,1196,685,687,10,10,33,1196,1199,1200,1197,10,10,688,686,33,1198,1201,1202,1199,687,689,690,10,33,1199,1202,1203,1200,10,690,691,688,33,1194,1180,1181,1195,684,676,677,685,33,1195,1181,1184,1198,685,677,679,687,33,1198,1184,1187,1201,687,679,681,689,33,1201,1187,1188,1202,689,681,682,690,33,1202,1188,1189,1203,690,682,683,691,33,1203,1189,1186,1200,691,683,680,688,33,1200,1186,1183,1197,688,680,678,686,33,1151,1176,1180,1155,1,1,676,662,33,1155,1180,1194,1169,662,676,684,670,33,1169,1194,1190,1165,670,684,10,10,33,1208,1204,1205,1209,692,1,1,693,33,1209,1205,1206,1210,693,1,3,1,33,1210,1206,1207,1211,1,3,3,694,33,1212,1209,1210,1213,695,693,1,1,33,1213,1210,1211,1214,1,1,694,696,33,1215,1212,1213,1216,697,695,1,698,33,1216,1213,1214,1217,698,1,696,699,33,1218,1222,1223,1219,10,700,701,10,33,1219,1223,1224,1220,10,701,10,13,33,1220,1224,1225,1221,13,10,702,13,33,1223,1226,1227,1224,701,703,10,10,33,1224,1227,1228,1225,10,10,704,702,33,1226,1229,1230,1227,703,705,706,10,33,1227,1230,1231,1228,10,706,707,704,33,1222,1208,1209,1223,700,692,693,701,33,1223,1209,1212,1226,701,693,695,703,33,1226,1212,1215,1229,703,695,697,705,33,1229,1215,1216,1230,705,697,698,706,33,1230,1216,1217,1231,706,698,699,707,33,1231,1217,1214,1228,707,699,696,704,33,1228,1214,1211,1225,704,696,694,702,33,1179,1204,1208,1183,1,1,692,678,33,1183,1208,1222,1197,678,692,700,686,33,1197,1222,1218,1193,686,700,10,10,33,1236,1232,1233,1237,708,3,1,709,33,1237,1233,1234,1238,709,1,1,1,33,1238,1234,1235,1239,1,1,1,710,33,1240,1237,1238,1241,711,709,1,1,33,1241,1238,1239,1242,1,1,710,712,33,1243,1240,1241,1244,713,711,1,714,33,1244,1241,1242,1245,714,1,712,715,33,1246,1250,1251,1247,13,716,717,10,33,1247,1251,1252,1248,10,717,10,10,33,1248,1252,1253,1249,10,10,718,10,33,1251,1254,1255,1252,717,719,10,10,33,1252,1255,1256,1253,10,10,720,718,33,1254,1257,1258,1255,719,721,722,10,33,1255,1258,1259,1256,10,722,723,720,33,1250,1236,1237,1251,716,708,709,717,33,1251,1237,1240,1254,717,709,711,719,33,1254,1240,1243,1257,719,711,713,721,33,1257,1243,1244,1258,721,713,714,722,33,1258,1244,1245,1259,722,714,715,723,33,1259,1245,1242,1256,723,715,712,720,33,1256,1242,1239,1253,720,712,710,718,33,1207,1232,1236,1211,3,3,708,694,33,1211,1236,1250,1225,694,708,716,702,33,1225,1250,1246,1221,702,716,13,13,33,1264,1260,1261,1265,724,1,1,725,33,1265,1261,1262,1266,725,1,1,1,33,1266,1262,1263,1267,1,1,1,726,33,1268,1265,1266,1269,727,725,1,1,33,1269,1266,1267,1270,1,1,726,728,33,1271,1268,1269,1272,729,727,1,730,33,1272,1269,1270,1273,730,1,728,731,33,1274,1278,1279,1275,10,732,733,10,33,1275,1279,1280,1276,10,733,10,10,33,1276,1280,1281,1277,10,10,734,10,33,1279,1282,1283,1280,733,735,10,10,33,1280,1283,1284,1281,10,10,736,734,33,1282,1285,1286,1283,735,737,738,10,33,1283,1286,1287,1284,10,738,739,736,33,1278,1264,1265,1279,732,724,725,733,33,1279,1265,1268,1282,733,725,727,735,33,1282,1268,1271,1285,735,727,729,737,33,1285,1271,1272,1286,737,729,730,738,33,1286,1272,1273,1287,738,730,731,739,33,1287,1273,1270,1284,739,731,728,736,33,1284,1270,1267,1281,736,728,726,734,33,1235,1260,1264,1239,1,1,724,710,33,1239,1264,1278,1253,710,724,732,718,33,1253,1278,1274,1249,718,732,10,10,33,1292,1288,1289,1293,740,3,1,741,33,1293,1289,1290,1294,741,1,1,1,33,1294,1290,1291,1295,1,1,1,742,33,1296,1293,1294,1297,743,741,1,1,33,1297,1294,1295,1298,1,1,742,744,33,1299,1296,1297,1300,745,743,1,746,33,1300,1297,1298,1301,746,1,744,747,33,1302,1306,1307,1303,13,748,749,10,33,1303,1307,1308,1304,10,749,10,10,33,1304,1308,1309,1305,10,10,750,10,33,1307,1310,1311,1308,749,751,10,10,33,1308,1311,1312,1309,10,10,752,750,33,1310,1313,1314,1311,751,753,754,10,33,1311,1314,1315,1312,10,754,755,752,33,1306,1292,1293,1307,748,740,741,749,33,1307,1293,1296,1310,749,741,743,751,33,1310,1296,1299,1313,751,743,745,753,33,1313,1299,1300,1314,753,745,746,754,33,1314,1300,1301,1315,754,746,747,755,33,1315,1301,1298,1312,755,747,744,752,33,1312,1298,1295,1309,752,744,742,750,33,1263,1288,1292,1267,1,3,740,726,33,1267,1292,1306,1281,726,740,748,734,33,1281,1306,1302,1277,734,748,13,10,33,1320,1316,1317,1321,756,1,1,757,33,1321,1317,1318,1322,757,1,1,1,33,1322,1318,1319,1323,1,1,3,758,33,1324,1321,1322,1325,759,757,1,1,33,1325,1322,1323,1326,1,1,758,760,33,1327,1324,1325,1328,761,759,1,762,33,1328,1325,1326,1329,762,1,760,763,33,1330,1334,1335,1331,10,764,765,10,33,1331,1335,1336,1332,10,765,10,10,33,1332,1336,1337,1333,10,10,766,10,33,1335,1338,1339,1336,765,767,10,10,33,1336,1339,1340,1337,10,10,768,766,33,1338,1341,1342,1339,767,769,770,10,33,1339,1342,1343,1340,10,770,771,768,33,1334,1320,1321,1335,764,756,757,765,33,1335,1321,1324,1338,765,757,759,767,33,1338,1324,1327,1341,767,759,761,769,33,1341,1327,1328,1342,769,761,762,770,33,1342,1328,1329,1343,770,762,763,771,33,1343,1329,1326,1340,771,763,760,768,33,1340,1326,1323,1337,768,760,758,766,33,1291,1316,1320,1295,1,1,756,742,33,1295,1320,1334,1309,742,756,764,750,33,1309,1334,1330,1305,750,764,10,10,33,1348,1344,1345,1349,772,1,1,773,33,1349,1345,1346,1350,773,1,1,1,33,1350,1346,1347,1351,1,1,1,774,33,1352,1349,1350,1353,775,773,1,1,33,1353,1350,1351,1354,1,1,774,776,33,1355,1352,1353,1356,777,775,1,778,33,1356,1353,1354,1357,778,1,776,779,33,1358,1362,1363,1359,10,780,781,10,33,1359,1363,1364,1360,10,781,10,10,33,1360,1364,1365,1361,10,10,782,10,33,1363,1366,1367,1364,781,783,10,10,33,1364,1367,1368,1365,10,10,784,782,33,1366,1369,1370,1367,783,785,786,10,33,1367,1370,1371,1368,10,786,787,784,33,1362,1348,1349,1363,780,772,773,781,33,1363,1349,1352,1366,781,773,775,783,33,1366,1352,1355,1369,783,775,777,785,33,1369,1355,1356,1370,785,777,778,786,33,1370,1356,1357,1371,786,778,779,787,33,1371,1357,1354,1368,787,779,776,784,33,1368,1354,1351,1365,784,776,774,782,33,1319,1344,1348,1323,3,1,772,758,33,1323,1348,1362,1337,758,772,780,766,33,1337,1362,1358,1333,766,780,10,10,33,1376,1372,1373,1377,788,1,1,789,33,1377,1373,1374,1378,789,1,3,1,33,1378,1374,1375,1379,1,3,1,790,33,1380,1377,1378,1381,791,789,1,1,33,1381,1378,1379,1382,1,1,790,792,33,1383,1380,1381,1384,793,791,1,794,33,1384,1381,1382,1385,794,1,792,795,33,1386,1390,1391,1387,10,796,797,10,33,1387,1391,1392,1388,10,797,10,13,33,1388,1392,1393,1389,13,10,798,10,33,1391,1394,1395,1392,797,799,10,10,33,1392,1395,1396,1393,10,10,800,798,33,1394,1397,1398,1395,799,801,802,10,33,1395,1398,1399,1396,10,802,803,800,33,1390,1376,1377,1391,796,788,789,797,33,1391,1377,1380,1394,797,789,791,799,33,1394,1380,1383,1397,799,791,793,801,33,1397,1383,1384,1398,801,793,794,802,33,1398,1384,1385,1399,802,794,795,803,33,1399,1385,1382,1396,803,795,792,800,33,1396,1382,1379,1393,800,792,790,798,33,1347,1372,1376,1351,1,1,788,774,33,1351,1376,1390,1365,774,788,796,782,33,1365,1390,1386,1361,782,796,10,10,33,1375,0,4,1379,1,1,0,790,33,1379,4,18,1393,790,0,11,798,33,1393,18,14,1389,798,11,10,10]
}