{
    "metadata": {
        "type": "Geometry",
        "version": 3,
        "materials": 1,
        "vertices": 64,
        "faces": 92,
        "uvs": 1,
        "generator": "io_three",
        "normals": 64
    },
    "name": "CylinderGeometry.1",
    "uvs": [[0.595482,0,0.595482,0.334407,0.554686,0.334407,0.554685,0,0.514673,0.334407,0.514673,0,0.476982,0.334407,0.476982,0,0.443061,0.334407,0.443061,0,0.414213,0.334407,0.414213,0,0.264046,0.665593,0.264046,1,0.230125,1,0.230125,0.665593,0.192434,1,0.192434,0.665593,0.152421,1,0.152421,0.665593,0.111625,1,0.111625,0.665593,0.071612,1,0.071612,0.665593,0.033921,1,0.033921,0.665593,0,1,0,0.665593,0.414213,0.668814,0.448134,0.334407,0.448134,0.668814,0.485825,0.334407,0.485826,0.668814,0.525838,0.334407,0.525838,0.668814,0.566635,0.334407,0.566635,0.668814,0.606647,0.334407,0.606647,0.668814,0.644338,0.334407,0.644338,0.668814,0.678259,0.334407,0.678259,0.668814,0.707107,0.334407,0.707107,0.668814,0.707107,0.668814,0.707107,0.334407,0.741028,0.334407,0.741028,0.668814,0.778719,0.334407,0.778719,0.668814,0.818731,0.334407,0.818731,0.668814,0.859528,0.334407,0.859528,0.668814,0.89954,0.334407,0.89954,0.668814,0.937231,0.334407,0.937231,0.668814,0.971152,0.334407,0.971153,0.668814,1,0.334407,1,0.668814,0.735954,0,0.735954,0.334407,0.707106,0.334407,0.707106,0,0.673185,0.334407,0.673185,0,0.186708,0.665593,0.146696,0.659199,0.109005,0.646655,0.075084,0.628445,0.046237,0.605268,0.023571,0.578014,0.007959,0.547732,0,0.515584,0,0.482806,0.007959,0.450658,0.023571,0.420376,0.046236,0.393122,0.075084,0.369945,0.109005,0.351735,0.146696,0.339191,0.186708,0.332797,0.227505,0.332797,0.267517,0.339191,0.305209,0.351735,0.33913,0.369945,0.367977,0.393122,0.390642,0.420376,0.406254,0.450658,0.414213,0.482806,0.414213,0.515584,0.406254,0.547731,0.390642,0.578014,0.367977,0.605268,0.33913,0.628445,0.305209,0.646655,0.267518,0.659199,0.227505,0.665593,0.635494,0,0.635494,0.334407,0,0.182787,0,0.15001,0.007959,0.117862,0.023571,0.087579,0.046236,0.060326,0.075084,0.037148,0.109005,0.018938,0.146696,0.006395,0.186708,0,0.227505,0,0.267517,0.006395,0.305208,0.018938,0.339129,0.037148,0.367977,0.060326,0.390642,0.087579,0.406254,0.117862,0.414213,0.150009,0.414213,0.182787,0.406254,0.214935,0.390642,0.245217,0.367977,0.272471,0.339129,0.295648,0.305208,0.313859,0.267517,0.326402,0.227505,0.332797,0.186708,0.332797,0.146696,0.326402,0.109005,0.313858,0.075084,0.295648,0.046236,0.272471,0.023571,0.245217,0.007959,0.214935]],
    "vertices": [0,-0.25,-0.45,0,0.25,-0.45,0.087791,-0.25,-0.441353,0.087791,0.25,-0.441353,0.172208,-0.25,-0.415746,0.172208,0.25,-0.415746,0.250007,-0.25,-0.374161,0.250007,0.25,-0.374161,0.318198,-0.25,-0.318198,0.318198,0.25,-0.318198,0.374161,-0.25,-0.250007,0.374161,0.25,-0.250007,0.415746,-0.25,-0.172208,0.415746,0.25,-0.172208,0.441353,-0.25,-0.087791,0.441353,0.25,-0.087791,0.45,-0.25,-0,0.45,0.25,-0,0.441353,-0.25,0.087791,0.441353,0.25,0.087791,0.415746,-0.25,0.172208,0.415746,0.25,0.172207,0.374161,-0.25,0.250007,0.374161,0.25,0.250007,0.318198,-0.25,0.318198,0.318198,0.25,0.318198,0.250007,-0.25,0.374161,0.250007,0.25,0.374161,0.172207,-0.25,0.415746,0.172207,0.25,0.415746,0.087791,-0.25,0.441353,0.087791,0.25,0.441353,-0,-0.25,0.45,-0,0.25,0.45,-0.087791,-0.25,0.441353,-0.087791,0.25,0.441353,-0.172208,-0.25,0.415746,-0.172208,0.25,0.415746,-0.250007,-0.25,0.374161,-0.250007,0.25,0.374161,-0.318198,-0.25,0.318198,-0.318198,0.25,0.318198,-0.374162,-0.25,0.250006,-0.374162,0.25,0.250006,-0.415746,-0.25,0.172207,-0.415746,0.25,0.172207,-0.441353,-0.25,0.08779,-0.441353,0.25,0.08779,-0.45,-0.25,-0,-0.45,0.25,-0,-0.441353,-0.25,-0.087791,-0.441353,0.25,-0.087791,-0.415746,-0.25,-0.172208,-0.415746,0.25,-0.172208,-0.374161,-0.25,-0.250007,-0.374161,0.25,-0.250007,-0.318198,-0.25,-0.318198,-0.318198,0.25,-0.318198,-0.250006,-0.25,-0.374162,-0.250006,0.25,-0.374162,-0.172207,-0.25,-0.415746,-0.172207,0.25,-0.415746,-0.08779,-0.25,-0.441354,-0.08779,0.25,-0.441354],
    "faces": [43,0,1,3,2,0,0,1,2,3,0,1,2,3,43,2,3,5,4,0,3,2,4,5,3,2,4,5,43,4,5,7,6,0,5,4,6,7,5,4,6,7,43,6,7,9,8,0,7,6,8,9,7,6,8,9,43,8,9,11,10,0,9,8,10,11,9,8,10,11,43,10,11,13,12,0,12,13,14,15,11,10,12,13,43,12,13,15,14,0,15,14,16,17,13,12,14,15,43,14,15,17,16,0,17,16,18,19,15,14,16,17,43,16,17,19,18,0,19,18,20,21,17,16,18,19,43,18,19,21,20,0,21,20,22,23,19,18,20,21,43,20,21,23,22,0,23,22,24,25,21,20,22,23,43,22,23,25,24,0,25,24,26,27,23,22,24,25,43,24,25,27,26,0,28,10,29,30,25,24,26,27,43,26,27,29,28,0,30,29,31,32,27,26,28,29,43,28,29,31,30,0,32,31,33,34,29,28,30,31,43,30,31,33,32,0,34,33,35,36,31,30,32,33,43,32,33,35,34,0,36,35,37,38,33,32,34,35,43,34,35,37,36,0,38,37,39,40,35,34,36,37,43,36,37,39,38,0,40,39,41,42,37,36,38,39,43,38,39,41,40,0,42,41,43,44,39,38,40,41,43,40,41,43,42,0,45,46,47,48,41,40,42,43,43,42,43,45,44,0,48,47,49,50,43,42,44,45,43,44,45,47,46,0,50,49,51,52,45,44,46,47,43,46,47,49,48,0,52,51,53,54,47,46,48,49,43,48,49,51,50,0,54,53,55,56,49,48,50,51,43,50,51,53,52,0,56,55,57,58,51,50,52,53,43,52,53,55,54,0,58,57,59,60,53,52,54,55,43,54,55,57,56,0,60,59,61,62,55,54,56,57,43,56,57,59,58,0,63,64,65,66,57,56,58,59,43,58,59,61,60,0,66,65,67,68,59,58,60,61,42,3,7,5,0,69,99,100,2,6,4,42,11,9,7,0,97,98,99,10,8,6,42,15,13,11,0,95,96,97,14,12,10,42,19,17,15,0,93,94,95,18,16,14,42,23,21,19,0,91,92,93,22,20,18,42,27,25,23,0,89,90,91,26,24,22,42,31,29,27,0,87,88,89,30,28,26,42,35,33,31,0,85,86,87,34,32,30,42,39,37,35,0,83,84,85,38,36,34,42,43,41,39,0,81,82,83,42,40,38,42,47,45,43,0,79,80,81,46,44,42,42,51,49,47,0,77,78,79,50,48,46,42,55,53,51,0,75,76,77,54,52,50,42,59,57,55,0,73,74,75,58,56,54,42,63,61,59,0,71,72,73,62,60,58,42,3,1,63,0,69,70,71,2,1,62,42,3,11,7,0,69,97,99,2,10,6,42,19,15,11,0,93,95,97,18,14,10,42,27,23,19,0,89,91,93,26,22,18,42,35,31,27,0,85,87,89,34,30,26,42,43,39,35,0,81,83,85,42,38,34,42,51,47,43,0,77,79,81,50,46,42,42,59,55,51,0,73,75,77,58,54,50,42,3,63,59,0,69,71,73,2,62,58,42,3,19,11,0,69,93,97,2,18,10,42,35,27,19,0,85,89,93,34,26,18,42,51,43,35,0,77,81,85,50,42,34,42,3,59,51,0,69,73,77,2,58,50,42,3,35,19,0,69,85,93,2,34,18,42,3,51,35,0,69,77,85,2,50,34,43,1,0,62,63,0,1,0,101,102,1,0,63,62,43,60,61,63,62,0,68,67,102,101,61,60,62,63,42,0,60,62,0,103,133,134,0,61,63,42,56,58,60,0,131,132,133,57,59,61,42,52,54,56,0,129,130,131,53,55,57,42,48,50,52,0,127,128,129,49,51,53,42,44,46,48,0,125,126,127,45,47,49,42,40,42,44,0,123,124,125,41,43,45,42,36,38,40,0,121,122,123,37,39,41,42,32,34,36,0,119,120,121,33,35,37,42,28,30,32,0,117,118,119,29,31,33,42,24,26,28,0,115,116,117,25,27,29,42,20,22,24,0,113,114,115,21,23,25,42,16,18,20,0,111,112,113,17,19,21,42,12,14,16,0,109,110,111,13,15,17,42,8,10,12,0,107,108,109,9,11,13,42,4,6,8,0,105,106,107,5,7,9,42,0,2,4,0,103,104,105,0,3,5,42,0,56,60,0,103,131,133,0,57,61,42,48,52,56,0,127,129,131,49,53,57,42,40,44,48,0,123,125,127,41,45,49,42,32,36,40,0,119,121,123,33,37,41,42,24,28,32,0,115,117,119,25,29,33,42,16,20,24,0,111,113,115,17,21,25,42,8,12,16,0,107,109,111,9,13,17,42,0,4,8,0,103,105,107,0,5,9,42,0,48,56,0,103,127,131,0,49,57,42,32,40,48,0,119,123,127,33,41,49,42,16,24,32,0,111,115,119,17,25,33,42,0,8,16,0,103,107,111,0,9,17,42,0,32,48,0,103,119,127,0,33,49,42,0,16,32,0,103,111,119,0,17,33],
    "materials": [{
        "depthTest": true,
        "colorEmissive": [0,0,0],
        "mapDiffuseWrap": ["RepeatWrapping","RepeatWrapping"],
        "shading": "phong",
        "wireframe": false,
        "mapDiffuseRepeat": [1,1],
        "blending": "NormalBlending",
        "colorAmbient": [0.64,0.64,0.64],
        "specularCoef": 50,
        "visible": true,
        "DbgName": "Material",
        "opacity": 1,
        "DbgColor": 15658734,
        "DbgIndex": 0,
        "transparent": false,
        "colorSpecular": [0.5,0.5,0.5],
        "mapDiffuseAnisotropy": 1,
        "depthWrite": true,
        "colorDiffuse": [0.64,0.64,0.64]
    }],
    "normals": [0,-0.68569,-0.727866,0,0.68569,-0.727866,0.142003,0.68569,-0.713889,0.142003,-0.68569,-0.713889,0.278542,0.68569,-0.672475,0.278542,-0.68569,-0.672475,0.40437,0.68569,-0.605213,0.40437,-0.68569,-0.605213,0.514664,0.68569,-0.514664,0.514664,-0.68569,-0.514664,0.605213,0.68569,-0.40437,0.605213,-0.68569,-0.40437,0.672475,0.68569,-0.278542,0.672475,-0.68569,-0.278542,0.713889,0.68569,-0.142003,0.713889,-0.68569,-0.142003,0.727866,0.68569,0,0.727866,-0.68569,0,0.713889,0.68569,0.142003,0.713889,-0.68569,0.142003,0.672475,0.68569,0.278542,0.672475,-0.68569,0.278542,0.605213,0.68569,0.40437,0.605213,-0.68569,0.40437,0.514664,0.68569,0.514664,0.514664,-0.68569,0.514664,0.40437,0.68569,0.605213,0.40437,-0.68569,0.605213,0.278542,0.68569,0.672475,0.278542,-0.68569,0.672475,0.142003,0.68569,0.713889,0.142003,-0.68569,0.713889,0,0.68569,0.727866,0,-0.68569,0.727866,-0.142003,0.68569,0.713889,-0.142003,-0.68569,0.713889,-0.278542,0.68569,0.672475,-0.278542,-0.68569,0.672475,-0.40437,0.68569,0.605213,-0.40437,-0.68569,0.605213,-0.514664,0.68569,0.514664,-0.514664,-0.68569,0.514664,-0.605213,0.68569,0.40437,-0.605213,-0.68569,0.40437,-0.672475,0.68569,0.278542,-0.672475,-0.68569,0.278542,-0.713889,0.68569,0.142003,-0.713889,-0.68569,0.142003,-0.727866,0.68569,0,-0.727866,-0.68569,0,-0.713889,0.68569,-0.142003,-0.713889,-0.68569,-0.142003,-0.672475,0.68569,-0.278542,-0.672475,-0.68569,-0.278542,-0.605213,0.68569,-0.40437,-0.605213,-0.68569,-0.40437,-0.514664,0.68569,-0.514695,-0.514664,-0.68569,-0.514695,-0.40437,0.68569,-0.605213,-0.40437,-0.68569,-0.605213,-0.278542,0.68569,-0.672475,-0.278542,-0.68569,-0.672475,-0.142003,0.68569,-0.713889,-0.142003,-0.68569,-0.713889]
}