{
    "faces": [43,0,2,3,1,0,0,1,2,3,0,1,2,3,43,4,5,7,6,0,4,5,6,7,4,5,6,7,43,3,2,6,7,0,8,9,10,11,2,1,7,6,43,1,3,7,5,0,12,11,0,13,3,2,6,5,43,0,1,5,4,0,11,12,14,8,0,3,5,4,43,2,0,4,6,0,15,16,17,0,1,0,4,7],
    "uvs": [[0.496323,0.48992,0.495614,0.977142,0.990908,0.980217,0.991617,0.492996,0.00032,0.974067,0.495614,0.977142,0.496323,0.489921,0.001029,0.486845,0.497032,0.002699,0.001737,-0.000376,0.001383,0.243235,0.496677,0.24631,0.991971,0.249385,0.991617,0.492995,0.992326,0.005774,0.496677,0.24631,0.001383,0.243235,0.001028,0.486845]],
    "metadata": {
        "generator": "io_three",
        "uvs": 1,
        "materials": 1,
        "version": 3,
        "vertices": 8,
        "faces": 6,
        "normals": 8,
        "type": "Geometry"
    },
    "normals": [-0.577349,0.577349,0.577349,-0.577349,0.577349,-0.577349,-0.577349,-0.577349,-0.577349,-0.577349,-0.577349,0.577349,0.577349,0.577349,0.577349,0.577349,-0.577349,0.577349,0.577349,-0.577349,-0.577349,0.577349,0.577349,-0.577349],
    "materials": [{
        "transparent": false,
        "visible": true,
        "opacity": 1,
        "colorDiffuse": [0.64,0.64,0.64],
        "mapDiffuseRepeat": [1,1],
        "depthTest": true,
        "mapDiffuseWrap": ["RepeatWrapping","RepeatWrapping"],
        "DbgName": "Material.001",
        "DbgIndex": 0,
        "wireframe": false,
        "depthWrite": true,
        "colorEmissive": [0,0,0],
        "DbgColor": 15658734,
        "specularCoef": 50,
        "colorAmbient": [0.64,0.64,0.64],
        "shading": "phong",
        "mapDiffuseAnisotropy": 1,
        "colorSpecular": [0.5,0.5,0.5],
        "blending": "NormalBlending"
    }],
    "name": "PlaneGeometry.3",
    "vertices": [-10,0.5,0.75,-10,-0.5,0.75,-10,0.5,-0.75,-10,-0.5,-0.75,10,0.5,0.75,10,-0.5,0.75,10,0.5,-0.75,10,-0.5,-0.75]
}