{
    "normals": [-0.577349,0.577349,0.577349,-0.577349,0.577349,-0.577349,-0.577349,-0.577349,-0.577349,-0.577349,-0.577349,0.577349,0.577349,0.577349,0.577349,0.577349,-0.577349,0.577349,0.577349,-0.577349,-0.577349,0.577349,0.577349,-0.577349],
    "vertices": [-3.4,0.5,0.75,-3.4,-0.5,0.75,-3.4,0.5,-0.75,-3.4,-0.5,-0.75,3.4,0.5,0.75,3.4,-0.5,0.75,3.4,0.5,-0.75,3.4,-0.5,-0.75],
    "metadata": {
        "normals": 8,
        "vertices": 8,
        "type": "Geometry",
        "faces": 6,
        "uvs": 1,
        "version": 3,
        "generator": "io_three"
    },
    "faces": [41,0,2,3,1,0,1,2,3,0,1,2,3,41,4,5,7,6,4,5,6,7,4,5,6,7,41,3,2,6,7,8,9,10,11,2,1,7,6,41,1,3,7,5,12,11,0,13,3,2,6,5,41,0,1,5,4,11,12,14,8,0,3,5,4,41,2,0,4,6,15,16,17,0,1,0,4,7],
    "name": "PlaneGeometry.5",
    "uvs": [[0.496323,0.48992,0.495614,0.977142,0.990908,0.980217,0.991617,0.492996,0.00032,0.974067,0.495614,0.977142,0.496323,0.489921,0.001029,0.486845,0.497032,0.002699,0.001737,-0.000376,0.001383,0.243235,0.496677,0.24631,0.991971,0.249385,0.991617,0.492995,0.992326,0.005774,0.496677,0.24631,0.001383,0.243235,0.001028,0.486845]]
}